EESchema Schematic File Version 4
EELAYER 30 0
EELAYER END
$Descr A4 11693 8268
encoding utf-8
Sheet 1 1
Title "ARM_REV02"
Date ""
Rev "001"
Comp "Ajazi Co."
Comment1 ""
Comment2 ""
Comment3 ""
Comment4 ""
$EndDescr
$Comp
L Driver_Motor:EasyDriver U1
U 1 1 5F7C59B1
P 4350 1700
F 0 "U1" H 4350 685 50  0000 C CNN
F 1 "EasyDriver" H 4350 776 50  0000 C CNN
F 2 "Module:EasyDriverShield" H 4350 1700 50  0001 C CNN
F 3 "" H 4350 1700 50  0001 C CNN
	1    4350 1700
	0    -1   -1   0   
$EndComp
$Comp
L Driver_Motor:EasyDriver U2
U 1 1 5F7C6F0E
P 4350 3300
F 0 "U2" H 4350 2285 50  0000 C CNN
F 1 "EasyDriver" H 4350 2376 50  0000 C CNN
F 2 "Module:EasyDriverShield" H 4350 3300 50  0001 C CNN
F 3 "" H 4350 3300 50  0001 C CNN
	1    4350 3300
	-1   0    0    1   
$EndComp
$Comp
L Driver_Motor:EasyDriver U3
U 1 1 5F7C7A19
P 4350 4700
F 0 "U3" H 4350 3685 50  0000 C CNN
F 1 "EasyDriver" H 4350 3776 50  0000 C CNN
F 2 "Module:EasyDriverShield" H 4350 4700 50  0001 C CNN
F 3 "" H 4350 4700 50  0001 C CNN
	1    4350 4700
	-1   0    0    1   
$EndComp
$Comp
L Arm02-rescue:ArduinoMega2500-Connector_Generic_MountingPin U4
U 1 1 5F804D30
P 6750 2350
F 0 "U4" V 7654 2228 50  0000 L CNN
F 1 "ArduinoMega2500" V 7745 2228 50  0000 L CNN
F 2 "Module:Arduino_Mega2560_Shield" H 6750 2350 50  0001 C CNN
F 3 "" H 6750 2350 50  0001 C CNN
	1    6750 2350
	0    1    1    0   
$EndComp
Wire Wire Line
	5100 2000 5100 2600
Wire Wire Line
	5100 2600 5200 2600
Wire Wire Line
	5150 2000 5150 2100
Wire Wire Line
	5150 2100 5050 2100
Wire Wire Line
	5050 2100 5050 2750
Wire Wire Line
	5050 2750 5150 2750
Wire Wire Line
	5050 2000 5050 2050
Wire Wire Line
	5050 2050 4950 2050
Wire Wire Line
	4950 2050 4950 2100
$Comp
L power:GND #PWR0101
U 1 1 5F835F9B
P 4950 2100
F 0 "#PWR0101" H 4950 1850 50  0001 C CNN
F 1 "GND" H 4955 1927 50  0000 C CNN
F 2 "" H 4950 2100 50  0001 C CNN
F 3 "" H 4950 2100 50  0001 C CNN
	1    4950 2100
	1    0    0    -1  
$EndComp
$Comp
L power:GND #PWR0102
U 1 1 5F83D1E1
P 4700 2625
F 0 "#PWR0102" H 4700 2375 50  0001 C CNN
F 1 "GND" H 4705 2452 50  0000 C CNN
F 2 "" H 4700 2625 50  0001 C CNN
F 3 "" H 4700 2625 50  0001 C CNN
	1    4700 2625
	1    0    0    -1  
$EndComp
Wire Wire Line
	4650 2600 4700 2600
Wire Wire Line
	4700 2600 4700 2625
$Comp
L power:GND #PWR0103
U 1 1 5F83DF8B
P 4725 4025
F 0 "#PWR0103" H 4725 3775 50  0001 C CNN
F 1 "GND" H 4730 3852 50  0000 C CNN
F 2 "" H 4725 4025 50  0001 C CNN
F 3 "" H 4725 4025 50  0001 C CNN
	1    4725 4025
	1    0    0    -1  
$EndComp
Wire Wire Line
	4650 4000 4725 4000
Wire Wire Line
	4725 4000 4725 4025
$Comp
L power:VCC #PWR0104
U 1 1 5F83E87B
P 3900 2500
F 0 "#PWR0104" H 3900 2350 50  0001 C CNN
F 1 "VCC" H 3915 2673 50  0000 C CNN
F 2 "" H 3900 2500 50  0001 C CNN
F 3 "" H 3900 2500 50  0001 C CNN
	1    3900 2500
	1    0    0    -1  
$EndComp
Wire Wire Line
	3900 2500 4050 2500
$Comp
L power:VCC #PWR0105
U 1 1 5F83FE7F
P 3975 3900
F 0 "#PWR0105" H 3975 3750 50  0001 C CNN
F 1 "VCC" H 3990 4073 50  0000 C CNN
F 2 "" H 3975 3900 50  0001 C CNN
F 3 "" H 3975 3900 50  0001 C CNN
	1    3975 3900
	1    0    0    -1  
$EndComp
$Comp
L power:VCC #PWR0106
U 1 1 5F840269
P 5150 1300
F 0 "#PWR0106" H 5150 1150 50  0001 C CNN
F 1 "VCC" H 5165 1473 50  0000 C CNN
F 2 "" H 5150 1300 50  0001 C CNN
F 3 "" H 5150 1300 50  0001 C CNN
	1    5150 1300
	1    0    0    -1  
$EndComp
Wire Wire Line
	5150 1300 5150 1400
Wire Wire Line
	3975 3900 4050 3900
$Comp
L power:GND #PWR0107
U 1 1 5F840DAF
P 3900 3950
F 0 "#PWR0107" H 3900 3700 50  0001 C CNN
F 1 "GND" H 3905 3777 50  0000 C CNN
F 2 "" H 3900 3950 50  0001 C CNN
F 3 "" H 3900 3950 50  0001 C CNN
	1    3900 3950
	1    0    0    -1  
$EndComp
$Comp
L power:GND #PWR0108
U 1 1 5F8416E6
P 3900 2550
F 0 "#PWR0108" H 3900 2300 50  0001 C CNN
F 1 "GND" H 3905 2377 50  0000 C CNN
F 2 "" H 3900 2550 50  0001 C CNN
F 3 "" H 3900 2550 50  0001 C CNN
	1    3900 2550
	1    0    0    -1  
$EndComp
$Comp
L power:GND #PWR0109
U 1 1 5F841D5F
P 5075 1275
F 0 "#PWR0109" H 5075 1025 50  0001 C CNN
F 1 "GND" H 5080 1102 50  0000 C CNN
F 2 "" H 5075 1275 50  0001 C CNN
F 3 "" H 5075 1275 50  0001 C CNN
	1    5075 1275
	0    1    1    0   
$EndComp
Wire Wire Line
	5100 1400 5100 1275
Wire Wire Line
	5100 1275 5075 1275
Wire Wire Line
	4050 2550 3900 2550
Wire Wire Line
	3900 3950 4050 3950
Wire Wire Line
	4650 2550 5075 2550
Wire Wire Line
	5075 2550 5075 2650
Wire Wire Line
	5075 2650 5150 2650
Wire Wire Line
	4650 3950 5000 3950
Wire Wire Line
	5000 3950 5000 2700
Wire Wire Line
	5000 2700 5200 2700
Wire Wire Line
	4650 2500 4975 2500
Wire Wire Line
	4975 2500 4975 2800
Wire Wire Line
	4975 2800 5200 2800
Wire Wire Line
	4650 3900 4975 3900
Wire Wire Line
	4975 3900 4975 2850
Wire Wire Line
	4975 2850 5150 2850
$Comp
L Connector_Generic:Conn_01x04 J10
U 1 1 5F866CB3
P 2975 3175
F 0 "J10" H 2893 2750 50  0000 C CNN
F 1 "Conn_01x04" H 2893 2841 50  0000 C CNN
F 2 "Connector_Molex:Molex_Micro-Fit_3.0_43045-0412_2x02_P3.00mm_Vertical" H 2975 3175 50  0001 C CNN
F 3 "~" H 2975 3175 50  0001 C CNN
	1    2975 3175
	-1   0    0    1   
$EndComp
$Comp
L Connector_Generic:Conn_01x04 J12
U 1 1 5F868AA9
P 4450 750
F 0 "J12" H 4368 325 50  0000 C CNN
F 1 "Conn_01x04" H 4368 416 50  0000 C CNN
F 2 "Connector_Molex:Molex_Micro-Fit_3.0_43045-0412_2x02_P3.00mm_Vertical" H 4450 750 50  0001 C CNN
F 3 "~" H 4450 750 50  0001 C CNN
	1    4450 750 
	0    -1   -1   0   
$EndComp
$Comp
L Connector_Generic:Conn_01x04 J11
U 1 1 5F869C14
P 3075 4625
F 0 "J11" H 2993 4200 50  0000 C CNN
F 1 "Conn_01x04" H 2993 4291 50  0000 C CNN
F 2 "Connector_Molex:Molex_Micro-Fit_3.0_43045-0412_2x02_P3.00mm_Vertical" H 3075 4625 50  0001 C CNN
F 3 "~" H 3075 4625 50  0001 C CNN
	1    3075 4625
	-1   0    0    1   
$EndComp
Wire Wire Line
	4050 3050 3350 3050
Wire Wire Line
	3350 3050 3350 2975
Wire Wire Line
	3350 2975 3175 2975
Wire Wire Line
	4050 3100 3275 3100
Wire Wire Line
	3275 3100 3275 3075
Wire Wire Line
	3275 3075 3175 3075
Wire Wire Line
	4050 3150 3175 3150
Wire Wire Line
	3175 3150 3175 3175
Wire Wire Line
	4050 3200 3175 3200
Wire Wire Line
	3175 3200 3175 3275
Wire Wire Line
	4050 4450 3275 4450
Wire Wire Line
	3275 4450 3275 4425
Wire Wire Line
	4050 4500 3275 4500
Wire Wire Line
	3275 4500 3275 4525
Wire Wire Line
	4050 4550 3275 4550
Wire Wire Line
	3275 4550 3275 4625
Wire Wire Line
	4050 4600 3325 4600
Wire Wire Line
	3325 4600 3325 4725
Wire Wire Line
	3325 4725 3275 4725
Wire Wire Line
	4600 1400 4600 950 
Wire Wire Line
	4600 950  4650 950 
Wire Wire Line
	4550 1400 4550 950 
Wire Wire Line
	4450 950  4450 1225
Wire Wire Line
	4450 1225 4500 1225
Wire Wire Line
	4500 1225 4500 1400
Wire Wire Line
	4450 1400 4450 1325
Wire Wire Line
	4450 1325 4350 1325
Wire Wire Line
	4350 1325 4350 950 
Wire Wire Line
	5200 2900 4700 2900
Wire Wire Line
	4700 2900 4700 3400
Wire Wire Line
	4700 3400 2375 3400
Wire Wire Line
	5150 2950 4725 2950
Wire Wire Line
	4725 2950 4725 3450
Wire Wire Line
	5200 3000 4750 3000
Wire Wire Line
	4750 3000 4750 3500
Wire Wire Line
	5150 3050 4775 3050
Wire Wire Line
	4775 3050 4775 3550
Wire Wire Line
	5200 3100 4800 3100
Wire Wire Line
	4800 3100 4800 3600
Wire Wire Line
	5150 3150 4825 3150
Wire Wire Line
	4825 3150 4825 3650
Wire Wire Line
	2375 3400 2375 3250
Wire Wire Line
	1900 3600 1900 3850
Wire Wire Line
	1900 3600 2400 3600
Wire Wire Line
	1975 3650 1975 4000
$Comp
L Connector_Generic:Conn_01x02 J1
U 1 1 5F8B05B9
P 1875 2650
F 0 "J1" V 1839 2462 50  0000 R CNN
F 1 "Conn_01x02" V 1748 2462 50  0000 R CNN
F 2 "Connector_Molex:Molex_Micro-Fit_3.0_43045-0212_2x01_P3.00mm_Vertical" H 1875 2650 50  0001 C CNN
F 3 "~" H 1875 2650 50  0001 C CNN
	1    1875 2650
	0    -1   -1   0   
$EndComp
$Comp
L power:GND #PWR0110
U 1 1 5F8AFCB1
P 1600 4125
F 0 "#PWR0110" H 1600 3875 50  0001 C CNN
F 1 "GND" H 1605 3952 50  0000 C CNN
F 2 "" H 1600 4125 50  0001 C CNN
F 3 "" H 1600 4125 50  0001 C CNN
	1    1600 4125
	1    0    0    -1  
$EndComp
Wire Wire Line
	1600 4000 1600 4125
Connection ~ 1600 4000
Wire Wire Line
	1600 3850 1600 4000
Connection ~ 1600 3850
Wire Wire Line
	1600 3700 1600 3850
Connection ~ 1600 3700
Wire Wire Line
	1600 3550 1600 3700
Connection ~ 1600 3550
Wire Wire Line
	1600 3400 1600 3550
Connection ~ 1600 3400
Wire Wire Line
	1600 3250 1600 3400
Wire Wire Line
	1975 4000 1800 4000
Wire Wire Line
	1900 3850 1800 3850
Wire Wire Line
	1850 3550 2675 3550
Wire Wire Line
	1850 3700 1800 3700
Wire Wire Line
	1850 3550 1850 3700
Wire Wire Line
	1800 3500 2525 3500
Wire Wire Line
	1800 3500 1800 3550
Wire Wire Line
	1800 3450 2250 3450
Wire Wire Line
	1800 3450 1800 3400
Wire Wire Line
	2375 3250 1975 3250
$Comp
L Device:R_Small_US R6
U 1 1 5F89C01D
P 1700 4000
F 0 "R6" V 1495 4000 50  0000 C CNN
F 1 "330Ω" V 1586 4000 50  0000 C CNN
F 2 "Resistor_THT:R_Axial_DIN0204_L3.6mm_D1.6mm_P7.62mm_Horizontal" H 1700 4000 50  0001 C CNN
F 3 "~" H 1700 4000 50  0001 C CNN
	1    1700 4000
	0    1    1    0   
$EndComp
$Comp
L Device:R_Small_US R5
U 1 1 5F89C017
P 1700 3850
F 0 "R5" V 1495 3850 50  0000 C CNN
F 1 "330Ω" V 1586 3850 50  0000 C CNN
F 2 "Resistor_THT:R_Axial_DIN0204_L3.6mm_D1.6mm_P7.62mm_Horizontal" H 1700 3850 50  0001 C CNN
F 3 "~" H 1700 3850 50  0001 C CNN
	1    1700 3850
	0    1    1    0   
$EndComp
$Comp
L Device:R_Small_US R4
U 1 1 5F89C011
P 1700 3700
F 0 "R4" V 1495 3700 50  0000 C CNN
F 1 "330Ω" V 1586 3700 50  0000 C CNN
F 2 "Resistor_THT:R_Axial_DIN0204_L3.6mm_D1.6mm_P7.62mm_Horizontal" H 1700 3700 50  0001 C CNN
F 3 "~" H 1700 3700 50  0001 C CNN
	1    1700 3700
	0    1    1    0   
$EndComp
$Comp
L Device:R_Small_US R3
U 1 1 5F89933A
P 1700 3550
F 0 "R3" V 1495 3550 50  0000 C CNN
F 1 "330Ω" V 1586 3550 50  0000 C CNN
F 2 "Resistor_THT:R_Axial_DIN0204_L3.6mm_D1.6mm_P7.62mm_Horizontal" H 1700 3550 50  0001 C CNN
F 3 "~" H 1700 3550 50  0001 C CNN
	1    1700 3550
	0    1    1    0   
$EndComp
$Comp
L Device:R_Small_US R2
U 1 1 5F897390
P 1700 3400
F 0 "R2" V 1495 3400 50  0000 C CNN
F 1 "330Ω" V 1586 3400 50  0000 C CNN
F 2 "Resistor_THT:R_Axial_DIN0204_L3.6mm_D1.6mm_P7.62mm_Horizontal" H 1700 3400 50  0001 C CNN
F 3 "~" H 1700 3400 50  0001 C CNN
	1    1700 3400
	0    1    1    0   
$EndComp
$Comp
L Device:R_Small_US R1
U 1 1 5F885C79
P 1700 3250
F 0 "R1" V 1495 3250 50  0000 C CNN
F 1 "330Ω" V 1586 3250 50  0000 C CNN
F 2 "Resistor_THT:R_Axial_DIN0204_L3.6mm_D1.6mm_P7.62mm_Horizontal" H 1700 3250 50  0001 C CNN
F 3 "~" H 1700 3250 50  0001 C CNN
	1    1700 3250
	0    1    1    0   
$EndComp
Wire Wire Line
	1125 2850 1125 2475
Wire Wire Line
	1125 2850 1875 2850
$Comp
L power:+3.3V #PWR0111
U 1 1 5F8C232E
P 1125 2475
F 0 "#PWR0111" H 1125 2325 50  0001 C CNN
F 1 "+3.3V" H 1140 2648 50  0000 C CNN
F 2 "" H 1125 2475 50  0001 C CNN
F 3 "" H 1125 2475 50  0001 C CNN
	1    1125 2475
	1    0    0    -1  
$EndComp
Wire Wire Line
	1975 2850 1975 3250
Connection ~ 1975 3250
Wire Wire Line
	1975 3250 1800 3250
$Comp
L Connector_Generic:Conn_01x02 J2
U 1 1 5F8C6105
P 2150 2650
F 0 "J2" V 2114 2462 50  0000 R CNN
F 1 "Conn_01x02" V 2023 2462 50  0000 R CNN
F 2 "Connector_Molex:Molex_Micro-Fit_3.0_43045-0212_2x01_P3.00mm_Vertical" H 2150 2650 50  0001 C CNN
F 3 "~" H 2150 2650 50  0001 C CNN
	1    2150 2650
	0    -1   -1   0   
$EndComp
$Comp
L Connector_Generic:Conn_01x02 J4
U 1 1 5F8C96C1
P 2425 2650
F 0 "J4" V 2389 2462 50  0000 R CNN
F 1 "Conn_01x02" V 2298 2462 50  0000 R CNN
F 2 "Connector_Molex:Molex_Micro-Fit_3.0_43045-0212_2x01_P3.00mm_Vertical" H 2425 2650 50  0001 C CNN
F 3 "~" H 2425 2650 50  0001 C CNN
	1    2425 2650
	0    -1   -1   0   
$EndComp
Wire Wire Line
	2150 2850 2150 2950
Wire Wire Line
	2150 2950 1125 2950
Wire Wire Line
	1125 2950 1125 2850
Connection ~ 1125 2850
Wire Wire Line
	2250 2850 2250 3450
Connection ~ 2250 3450
Wire Wire Line
	2250 3450 4725 3450
Wire Wire Line
	2525 2850 2525 3500
Connection ~ 2525 3500
Wire Wire Line
	2525 3500 4750 3500
Wire Wire Line
	2425 2850 2425 3025
Wire Wire Line
	2425 3025 1125 3025
Wire Wire Line
	1125 3025 1125 2950
Connection ~ 1125 2950
$Comp
L Connector_Generic:Conn_01x02 J9
U 1 1 5F8DFF36
P 2775 4925
F 0 "J9" V 2739 4737 50  0000 R CNN
F 1 "Conn_01x02" V 2648 4737 50  0000 R CNN
F 2 "Connector_Molex:Molex_Micro-Fit_3.0_43045-0212_2x01_P3.00mm_Vertical" H 2775 4925 50  0001 C CNN
F 3 "~" H 2775 4925 50  0001 C CNN
	1    2775 4925
	0    1    1    0   
$EndComp
$Comp
L Connector_Generic:Conn_01x02 J5
U 1 1 5F8DFF3C
P 2500 4925
F 0 "J5" V 2464 4737 50  0000 R CNN
F 1 "Conn_01x02" V 2373 4737 50  0000 R CNN
F 2 "Connector_Molex:Molex_Micro-Fit_3.0_43045-0212_2x01_P3.00mm_Vertical" H 2500 4925 50  0001 C CNN
F 3 "~" H 2500 4925 50  0001 C CNN
	1    2500 4925
	0    1    1    0   
$EndComp
$Comp
L Connector_Generic:Conn_01x02 J3
U 1 1 5F8DFF42
P 2225 4925
F 0 "J3" V 2189 4737 50  0000 R CNN
F 1 "Conn_01x02" V 2098 4737 50  0000 R CNN
F 2 "Connector_Molex:Molex_Micro-Fit_3.0_43045-0212_2x01_P3.00mm_Vertical" H 2225 4925 50  0001 C CNN
F 3 "~" H 2225 4925 50  0001 C CNN
	1    2225 4925
	0    1    1    0   
$EndComp
Wire Wire Line
	2775 4725 2775 4475
Wire Wire Line
	2775 4475 1125 4475
Wire Wire Line
	1125 4475 1125 3025
Connection ~ 1125 3025
Wire Wire Line
	2500 4725 2500 4525
Wire Wire Line
	2500 4525 1125 4525
Wire Wire Line
	1125 4525 1125 4475
Connection ~ 1125 4475
Wire Wire Line
	2225 4725 2225 4575
Wire Wire Line
	2225 4575 1125 4575
Wire Wire Line
	1125 4575 1125 4525
Connection ~ 1125 4525
Wire Wire Line
	1975 3650 2125 3650
Wire Wire Line
	2675 4725 2675 3550
Connection ~ 2675 3550
Wire Wire Line
	2675 3550 4775 3550
Wire Wire Line
	2400 4725 2400 3600
Connection ~ 2400 3600
Wire Wire Line
	2400 3600 4800 3600
Wire Wire Line
	2125 4725 2125 3650
Connection ~ 2125 3650
Wire Wire Line
	2125 3650 4825 3650
Wire Wire Line
	3450 6275 3300 6275
Wire Wire Line
	3650 6750 3900 6750
Wire Wire Line
	3700 6675 4050 6675
$Comp
L Connector_Generic:Conn_01x02 J8
U 1 1 5F92AA2F
P 2700 6775
F 0 "J8" V 2664 6587 50  0000 R CNN
F 1 "Conn_01x02" V 2573 6587 50  0000 R CNN
F 2 "Connector_Molex:Molex_Micro-Fit_3.0_43045-0212_2x01_P3.00mm_Vertical" H 2700 6775 50  0001 C CNN
F 3 "~" H 2700 6775 50  0001 C CNN
	1    2700 6775
	-1   0    0    1   
$EndComp
$Comp
L power:GND #PWR0112
U 1 1 5F92AA35
P 4175 7050
F 0 "#PWR0112" H 4175 6800 50  0001 C CNN
F 1 "GND" H 4180 6877 50  0000 C CNN
F 2 "" H 4175 7050 50  0001 C CNN
F 3 "" H 4175 7050 50  0001 C CNN
	1    4175 7050
	0    -1   -1   0   
$EndComp
Wire Wire Line
	4050 7050 4175 7050
Connection ~ 4050 7050
Wire Wire Line
	3900 7050 4050 7050
Connection ~ 3900 7050
Wire Wire Line
	3750 7050 3900 7050
Connection ~ 3750 7050
Wire Wire Line
	3600 7050 3750 7050
Connection ~ 3600 7050
Wire Wire Line
	3450 7050 3600 7050
Connection ~ 3450 7050
Wire Wire Line
	3300 7050 3450 7050
Wire Wire Line
	4050 6675 4050 6850
Wire Wire Line
	3900 6750 3900 6850
Wire Wire Line
	3750 6800 3750 6850
Wire Wire Line
	3600 6800 3750 6800
Wire Wire Line
	3550 6850 3550 6125
Wire Wire Line
	3550 6850 3600 6850
Wire Wire Line
	3500 6850 3500 6400
Wire Wire Line
	3500 6850 3450 6850
Wire Wire Line
	3300 6275 3300 6675
$Comp
L Device:R_Small_US R12
U 1 1 5F92AA50
P 4050 6950
F 0 "R12" V 3845 6950 50  0000 C CNN
F 1 "330Ω" V 3936 6950 50  0000 C CNN
F 2 "Resistor_THT:R_Axial_DIN0204_L3.6mm_D1.6mm_P7.62mm_Horizontal" H 4050 6950 50  0001 C CNN
F 3 "~" H 4050 6950 50  0001 C CNN
	1    4050 6950
	1    0    0    -1  
$EndComp
$Comp
L Device:R_Small_US R11
U 1 1 5F92AA56
P 3900 6950
F 0 "R11" V 3695 6950 50  0000 C CNN
F 1 "330Ω" V 3786 6950 50  0000 C CNN
F 2 "Resistor_THT:R_Axial_DIN0204_L3.6mm_D1.6mm_P7.62mm_Horizontal" H 3900 6950 50  0001 C CNN
F 3 "~" H 3900 6950 50  0001 C CNN
	1    3900 6950
	1    0    0    -1  
$EndComp
$Comp
L Device:R_Small_US R10
U 1 1 5F92AA5C
P 3750 6950
F 0 "R10" V 3545 6950 50  0000 C CNN
F 1 "330Ω" V 3636 6950 50  0000 C CNN
F 2 "Resistor_THT:R_Axial_DIN0204_L3.6mm_D1.6mm_P7.62mm_Horizontal" H 3750 6950 50  0001 C CNN
F 3 "~" H 3750 6950 50  0001 C CNN
	1    3750 6950
	1    0    0    -1  
$EndComp
$Comp
L Device:R_Small_US R9
U 1 1 5F92AA62
P 3600 6950
F 0 "R9" V 3395 6950 50  0000 C CNN
F 1 "330Ω" V 3486 6950 50  0000 C CNN
F 2 "Resistor_THT:R_Axial_DIN0204_L3.6mm_D1.6mm_P7.62mm_Horizontal" H 3600 6950 50  0001 C CNN
F 3 "~" H 3600 6950 50  0001 C CNN
	1    3600 6950
	1    0    0    -1  
$EndComp
$Comp
L Device:R_Small_US R8
U 1 1 5F92AA68
P 3450 6950
F 0 "R8" V 3245 6950 50  0000 C CNN
F 1 "330Ω" V 3336 6950 50  0000 C CNN
F 2 "Resistor_THT:R_Axial_DIN0204_L3.6mm_D1.6mm_P7.62mm_Horizontal" H 3450 6950 50  0001 C CNN
F 3 "~" H 3450 6950 50  0001 C CNN
	1    3450 6950
	1    0    0    -1  
$EndComp
$Comp
L Device:R_Small_US R7
U 1 1 5F92AA6E
P 3300 6950
F 0 "R7" V 3095 6950 50  0000 C CNN
F 1 "330Ω" V 3186 6950 50  0000 C CNN
F 2 "Resistor_THT:R_Axial_DIN0204_L3.6mm_D1.6mm_P7.62mm_Horizontal" H 3300 6950 50  0001 C CNN
F 3 "~" H 3300 6950 50  0001 C CNN
	1    3300 6950
	1    0    0    -1  
$EndComp
Wire Wire Line
	2900 7525 2525 7525
Wire Wire Line
	2900 7525 2900 6775
$Comp
L power:+3.3V #PWR0113
U 1 1 5F92AA76
P 2525 7525
F 0 "#PWR0113" H 2525 7375 50  0001 C CNN
F 1 "+3.3V" H 2540 7698 50  0000 C CNN
F 2 "" H 2525 7525 50  0001 C CNN
F 3 "" H 2525 7525 50  0001 C CNN
	1    2525 7525
	0    -1   -1   0   
$EndComp
Wire Wire Line
	2900 6675 3300 6675
Connection ~ 3300 6675
Wire Wire Line
	3300 6675 3300 6850
$Comp
L Connector_Generic:Conn_01x02 J7
U 1 1 5F92AA7F
P 2700 6500
F 0 "J7" V 2664 6312 50  0000 R CNN
F 1 "Conn_01x02" V 2573 6312 50  0000 R CNN
F 2 "Connector_Molex:Molex_Micro-Fit_3.0_43045-0212_2x01_P3.00mm_Vertical" H 2700 6500 50  0001 C CNN
F 3 "~" H 2700 6500 50  0001 C CNN
	1    2700 6500
	-1   0    0    1   
$EndComp
$Comp
L Connector_Generic:Conn_01x02 J6
U 1 1 5F92AA85
P 2700 6225
F 0 "J6" V 2664 6037 50  0000 R CNN
F 1 "Conn_01x02" V 2573 6037 50  0000 R CNN
F 2 "Connector_Molex:Molex_Micro-Fit_3.0_43045-0212_2x01_P3.00mm_Vertical" H 2700 6225 50  0001 C CNN
F 3 "~" H 2700 6225 50  0001 C CNN
	1    2700 6225
	-1   0    0    1   
$EndComp
Wire Wire Line
	2900 6500 3000 6500
Wire Wire Line
	3000 6500 3000 7525
Wire Wire Line
	3000 7525 2900 7525
Connection ~ 2900 7525
Wire Wire Line
	2900 6400 3500 6400
Wire Wire Line
	2900 6125 3550 6125
Connection ~ 3550 6125
Wire Wire Line
	2900 6225 3075 6225
Wire Wire Line
	3075 6225 3075 7525
Wire Wire Line
	3075 7525 3000 7525
Connection ~ 3000 7525
$Comp
L Connector_Generic:Conn_01x02 J15
U 1 1 5F92AA99
P 4975 5875
F 0 "J15" V 4939 5687 50  0000 R CNN
F 1 "Conn_01x02" V 4848 5687 50  0000 R CNN
F 2 "Connector_Molex:Molex_Micro-Fit_3.0_43045-0212_2x01_P3.00mm_Vertical" H 4975 5875 50  0001 C CNN
F 3 "~" H 4975 5875 50  0001 C CNN
	1    4975 5875
	1    0    0    -1  
$EndComp
$Comp
L Connector_Generic:Conn_01x02 J16
U 1 1 5F92AA9F
P 4975 6150
F 0 "J16" V 4939 5962 50  0000 R CNN
F 1 "Conn_01x02" V 4848 5962 50  0000 R CNN
F 2 "Connector_Molex:Molex_Micro-Fit_3.0_43045-0212_2x01_P3.00mm_Vertical" H 4975 6150 50  0001 C CNN
F 3 "~" H 4975 6150 50  0001 C CNN
	1    4975 6150
	1    0    0    -1  
$EndComp
$Comp
L Connector_Generic:Conn_01x02 J17
U 1 1 5F92AAA5
P 4975 6425
F 0 "J17" V 4939 6237 50  0000 R CNN
F 1 "Conn_01x02" V 4848 6237 50  0000 R CNN
F 2 "Connector_Molex:Molex_Micro-Fit_3.0_43045-0212_2x01_P3.00mm_Vertical" H 4975 6425 50  0001 C CNN
F 3 "~" H 4975 6425 50  0001 C CNN
	1    4975 6425
	1    0    0    -1  
$EndComp
Wire Wire Line
	4775 5875 4525 5875
Wire Wire Line
	4525 5875 4525 7525
Wire Wire Line
	4525 7525 3075 7525
Connection ~ 3075 7525
Wire Wire Line
	4775 6150 4575 6150
Wire Wire Line
	4575 6150 4575 7525
Wire Wire Line
	4575 7525 4525 7525
Connection ~ 4525 7525
Wire Wire Line
	4775 6425 4625 6425
Wire Wire Line
	4625 6425 4625 7525
Wire Wire Line
	4625 7525 4575 7525
Connection ~ 4575 7525
Wire Wire Line
	3700 6675 3700 6525
Wire Wire Line
	4775 5975 3600 5975
Connection ~ 3600 5975
Wire Wire Line
	4775 6250 3650 6250
Connection ~ 3650 6250
Wire Wire Line
	4775 6525 3700 6525
Connection ~ 3700 6525
Connection ~ 3500 6400
Wire Wire Line
	3650 6750 3650 6250
Wire Wire Line
	3600 6800 3600 5975
Wire Wire Line
	3450 4775 4850 4775
Wire Wire Line
	4850 4775 4850 3200
Wire Wire Line
	4850 3200 5200 3200
Wire Wire Line
	3450 4775 3450 6275
Wire Wire Line
	3500 4800 4875 4800
Wire Wire Line
	4875 4800 4875 3250
Wire Wire Line
	4875 3250 5150 3250
Wire Wire Line
	3500 4800 3500 6400
Wire Wire Line
	3550 4825 4900 4825
Wire Wire Line
	4900 4825 4900 3300
Wire Wire Line
	4900 3300 5200 3300
Wire Wire Line
	3550 4825 3550 6125
Wire Wire Line
	3600 4850 4925 4850
Wire Wire Line
	4925 4850 4925 3350
Wire Wire Line
	4925 3350 5150 3350
Wire Wire Line
	3600 4850 3600 5975
Wire Wire Line
	3650 4875 4950 4875
Wire Wire Line
	4950 4875 4950 3400
Wire Wire Line
	4950 3400 5200 3400
Wire Wire Line
	3650 4875 3650 6250
Wire Wire Line
	3700 4900 5025 4900
Wire Wire Line
	5025 4900 5025 3450
Wire Wire Line
	5025 3450 5150 3450
Wire Wire Line
	3700 4900 3700 6525
$Comp
L Connector_Generic:Conn_01x04 J18
U 1 1 5F9B4A39
P 5450 5450
F 0 "J18" H 5368 5025 50  0000 C CNN
F 1 "Conn_01x04" H 5368 5116 50  0000 C CNN
F 2 "Connector_Molex:Molex_Micro-Fit_3.0_43045-0412_2x02_P3.00mm_Vertical" H 5450 5450 50  0001 C CNN
F 3 "~" H 5450 5450 50  0001 C CNN
	1    5450 5450
	0    1    1    0   
$EndComp
Wire Wire Line
	5150 3850 5050 3850
Wire Wire Line
	5050 3850 5050 5100
Wire Wire Line
	5050 5100 5550 5100
Wire Wire Line
	5550 5100 5550 5250
$Comp
L Connector_Generic:Conn_01x04 J26
U 1 1 5F9CB8F8
P 5975 5450
F 0 "J26" H 5893 5025 50  0000 C CNN
F 1 "Conn_01x04" H 5893 5116 50  0000 C CNN
F 2 "Connector_Molex:Molex_Micro-Fit_3.0_43045-0412_2x02_P3.00mm_Vertical" H 5975 5450 50  0001 C CNN
F 3 "~" H 5975 5450 50  0001 C CNN
	1    5975 5450
	0    1    1    0   
$EndComp
$Comp
L Connector_Generic:Conn_01x04 J29
U 1 1 5F9D6AA9
P 6500 5450
F 0 "J29" H 6418 5025 50  0000 C CNN
F 1 "Conn_01x04" H 6418 5116 50  0000 C CNN
F 2 "Connector_Molex:Molex_Micro-Fit_3.0_43045-0412_2x02_P3.00mm_Vertical" H 6500 5450 50  0001 C CNN
F 3 "~" H 6500 5450 50  0001 C CNN
	1    6500 5450
	0    1    1    0   
$EndComp
Wire Wire Line
	5200 3900 5075 3900
Wire Wire Line
	5075 3900 5075 5075
Wire Wire Line
	5075 5075 6075 5075
Wire Wire Line
	6075 5075 6075 5250
Wire Wire Line
	5150 4050 5100 4050
Wire Wire Line
	5100 4050 5100 5050
Wire Wire Line
	5100 5050 6600 5050
Wire Wire Line
	6600 5050 6600 5250
Wire Wire Line
	6150 4500 6200 4500
Wire Wire Line
	5150 4250 5150 4200
Wire Wire Line
	5150 4200 5200 4200
Wire Wire Line
	6300 4500 6300 4575
$Comp
L power:+3.3V #PWR0114
U 1 1 5FA7024D
P 6300 4575
F 0 "#PWR0114" H 6300 4425 50  0001 C CNN
F 1 "+3.3V" H 6315 4748 50  0000 C CNN
F 2 "" H 6300 4575 50  0001 C CNN
F 3 "" H 6300 4575 50  0001 C CNN
	1    6300 4575
	-1   0    0    1   
$EndComp
$Comp
L Connector_Generic:Conn_01x03 REST_SW1
U 1 1 5FA82D69
P 6875 4475
F 0 "REST_SW1" V 6839 4287 50  0000 R CNN
F 1 "Conn_01x03" V 6748 4287 50  0000 R CNN
F 2 "Connector_PinHeader_2.54mm:PinHeader_1x03_P2.54mm_Vertical" H 6875 4475 50  0001 C CNN
F 3 "~" H 6875 4475 50  0001 C CNN
	1    6875 4475
	0    -1   -1   0   
$EndComp
Wire Wire Line
	6350 4500 6350 4775
Wire Wire Line
	6350 4775 6875 4775
Wire Wire Line
	6875 4775 6875 4675
Wire Wire Line
	6975 4675 6975 4750
$Comp
L power:GND #PWR0115
U 1 1 5FAAEF9B
P 6975 4750
F 0 "#PWR0115" H 6975 4500 50  0001 C CNN
F 1 "GND" H 6980 4577 50  0000 C CNN
F 2 "" H 6975 4750 50  0001 C CNN
F 3 "" H 6975 4750 50  0001 C CNN
	1    6975 4750
	1    0    0    -1  
$EndComp
$Comp
L Connector_Generic:Conn_01x04 J34
U 1 1 5FAB2981
P 7225 5600
F 0 "J34" H 7143 5175 50  0000 C CNN
F 1 "Conn_01x04" H 7143 5266 50  0000 C CNN
F 2 "Connector_Molex:Molex_Micro-Fit_3.0_43045-0412_2x02_P3.00mm_Vertical" H 7225 5600 50  0001 C CNN
F 3 "~" H 7225 5600 50  0001 C CNN
	1    7225 5600
	0    1    1    0   
$EndComp
Wire Wire Line
	6400 4500 6400 4800
Wire Wire Line
	6400 4800 6900 4800
Wire Wire Line
	6900 4800 6900 5025
Wire Wire Line
	6900 5025 7325 5025
Wire Wire Line
	7325 5025 7325 5400
Wire Wire Line
	6250 4500 6250 4825
Wire Wire Line
	6250 4825 6875 4825
Wire Wire Line
	6875 4825 6875 5050
Wire Wire Line
	6875 5050 7225 5050
Wire Wire Line
	7225 5050 7225 5400
Wire Wire Line
	6100 4500 6100 4850
Wire Wire Line
	6100 4850 6850 4850
Wire Wire Line
	6850 4850 6850 5075
Wire Wire Line
	6850 5075 7125 5075
Wire Wire Line
	7125 5075 7125 5400
Wire Wire Line
	6150 4500 6150 4875
Wire Wire Line
	6150 4875 6250 4875
Wire Wire Line
	6825 4875 6825 5100
Wire Wire Line
	6825 5100 7025 5100
Wire Wire Line
	7025 5100 7025 5400
Connection ~ 6150 4500
$Comp
L Connector_Generic:Conn_01x04 J25
U 1 1 5FAFF141
P 5975 4975
F 0 "J25" H 5893 4550 50  0000 C CNN
F 1 "Conn_01x04" H 5893 4641 50  0000 C CNN
F 2 "Connector_Molex:Molex_Micro-Fit_3.0_43045-0412_2x02_P3.00mm_Vertical" H 5975 4975 50  0001 C CNN
F 3 "~" H 5975 4975 50  0001 C CNN
	1    5975 4975
	0    1    1    0   
$EndComp
Wire Wire Line
	6050 4500 6050 4775
Wire Wire Line
	6050 4775 6075 4775
Wire Wire Line
	6000 4500 6000 4775
Wire Wire Line
	6000 4775 5975 4775
Wire Wire Line
	5950 4500 5950 4775
Wire Wire Line
	5950 4775 5875 4775
Wire Wire Line
	5900 4500 5900 4750
Wire Wire Line
	5900 4750 5775 4750
Wire Wire Line
	5775 4750 5775 4775
$Comp
L Connector_Generic:Conn_01x04 J20
U 1 1 5FB60F16
P 5525 4975
F 0 "J20" H 5443 4550 50  0000 C CNN
F 1 "Conn_01x04" H 5443 4641 50  0000 C CNN
F 2 "Connector_Molex:Molex_Micro-Fit_3.0_43045-0412_2x02_P3.00mm_Vertical" H 5525 4975 50  0001 C CNN
F 3 "~" H 5525 4975 50  0001 C CNN
	1    5525 4975
	0    1    1    0   
$EndComp
Wire Wire Line
	5850 4500 5850 4725
Wire Wire Line
	5850 4725 5625 4725
Wire Wire Line
	5625 4725 5625 4775
Wire Wire Line
	5800 4500 5800 4700
Wire Wire Line
	5800 4700 5525 4700
Wire Wire Line
	5525 4700 5525 4775
Wire Wire Line
	5750 4500 5750 4675
Wire Wire Line
	5750 4675 5425 4675
Wire Wire Line
	5425 4675 5425 4775
Wire Wire Line
	5700 4500 5700 4650
Wire Wire Line
	5700 4650 5325 4650
Wire Wire Line
	5325 4650 5325 4775
$Comp
L Connector_Generic:Conn_01x04 J14
U 1 1 5FBBA861
P 4900 5275
F 0 "J14" H 4818 4850 50  0000 C CNN
F 1 "Conn_01x04" H 4818 4941 50  0000 C CNN
F 2 "Connector_Molex:Molex_Micro-Fit_3.0_43045-0412_2x02_P3.00mm_Vertical" H 4900 5275 50  0001 C CNN
F 3 "~" H 4900 5275 50  0001 C CNN
	1    4900 5275
	0    1    1    0   
$EndComp
Wire Wire Line
	5650 4500 5650 4625
Wire Wire Line
	5650 4625 5250 4625
Wire Wire Line
	5250 4625 5250 5125
Wire Wire Line
	5250 5125 5025 5125
Wire Wire Line
	5025 5125 5025 5075
Wire Wire Line
	5025 5075 5000 5075
Wire Wire Line
	5600 4500 5600 4600
Wire Wire Line
	5600 4600 5225 4600
Wire Wire Line
	5225 4600 5225 5025
Wire Wire Line
	5225 5025 4900 5025
Wire Wire Line
	4900 5025 4900 5075
Wire Wire Line
	5550 4500 5550 4575
Wire Wire Line
	5550 4575 5200 4575
Wire Wire Line
	5200 4575 5200 5000
Wire Wire Line
	5200 5000 4800 5000
Wire Wire Line
	4800 5000 4800 5075
Wire Wire Line
	4700 5075 4700 4975
Wire Wire Line
	4700 4975 5175 4975
Wire Wire Line
	5175 4975 5175 4550
Wire Wire Line
	5175 4550 5500 4550
Wire Wire Line
	5500 4550 5500 4500
$Comp
L Connector_Generic:Conn_01x04 J13
U 1 1 5FC336E8
P 4475 5275
F 0 "J13" H 4393 4850 50  0000 C CNN
F 1 "Conn_01x04" H 4393 4941 50  0000 C CNN
F 2 "Connector_Molex:Molex_Micro-Fit_3.0_43045-0412_2x02_P3.00mm_Vertical" H 4475 5275 50  0001 C CNN
F 3 "~" H 4475 5275 50  0001 C CNN
	1    4475 5275
	0    1    1    0   
$EndComp
Wire Wire Line
	5450 4500 5450 4525
Wire Wire Line
	5450 4525 5150 4525
Wire Wire Line
	5150 4525 5150 4950
Wire Wire Line
	5150 4950 4575 4950
Wire Wire Line
	4575 4950 4575 5075
Wire Wire Line
	5300 4500 4825 4500
Wire Wire Line
	4825 4500 4825 4750
Wire Wire Line
	4825 4750 4475 4750
Wire Wire Line
	4475 4750 4475 5075
Wire Wire Line
	5350 4500 5350 4375
Wire Wire Line
	5350 4375 5225 4375
Wire Wire Line
	5225 4375 5225 4475
Wire Wire Line
	5225 4475 4800 4475
Wire Wire Line
	4800 4475 4800 4725
Wire Wire Line
	4800 4725 4375 4725
Wire Wire Line
	4375 4725 4375 5075
Wire Wire Line
	5400 4500 5400 4350
Wire Wire Line
	5400 4350 5200 4350
Wire Wire Line
	5200 4350 5200 4450
Wire Wire Line
	5200 4450 4775 4450
Wire Wire Line
	4775 4450 4775 4700
Wire Wire Line
	4775 4700 4275 4700
Wire Wire Line
	4275 4700 4275 5075
$Comp
L Connector_Generic:Conn_01x04 J24
U 1 1 5FCC1E02
P 5950 3825
F 0 "J24" H 5868 3400 50  0000 C CNN
F 1 "Conn_01x04" H 5868 3491 50  0000 C CNN
F 2 "Connector_Molex:Molex_Micro-Fit_3.0_43045-0412_2x02_P3.00mm_Vertical" H 5950 3825 50  0001 C CNN
F 3 "~" H 5950 3825 50  0001 C CNN
	1    5950 3825
	1    0    0    -1  
$EndComp
Wire Wire Line
	5150 4150 5750 4150
Wire Wire Line
	5750 4150 5750 4025
Wire Wire Line
	5200 4100 5700 4100
Wire Wire Line
	5700 4100 5700 3925
Wire Wire Line
	5700 3925 5750 3925
Wire Wire Line
	5200 4000 5675 4000
Wire Wire Line
	5675 4000 5675 3825
Wire Wire Line
	5675 3825 5750 3825
Wire Wire Line
	5150 3950 5650 3950
Wire Wire Line
	5650 3950 5650 3725
Wire Wire Line
	5650 3725 5750 3725
$Comp
L Connector_Generic:Conn_01x04 J23
U 1 1 5FD41901
P 5950 3225
F 0 "J23" H 5868 2800 50  0000 C CNN
F 1 "Conn_01x04" H 5868 2891 50  0000 C CNN
F 2 "Connector_Molex:Molex_Micro-Fit_3.0_43045-0412_2x02_P3.00mm_Vertical" H 5950 3225 50  0001 C CNN
F 3 "~" H 5950 3225 50  0001 C CNN
	1    5950 3225
	1    0    0    -1  
$EndComp
Wire Wire Line
	5200 3800 5625 3800
Wire Wire Line
	5625 3800 5625 3525
Wire Wire Line
	5625 3525 5750 3525
Wire Wire Line
	5750 3525 5750 3425
Wire Wire Line
	5150 3750 5575 3750
Wire Wire Line
	5575 3750 5575 3500
Wire Wire Line
	5575 3500 5700 3500
Wire Wire Line
	5700 3500 5700 3325
Wire Wire Line
	5700 3325 5750 3325
Wire Wire Line
	5200 3700 5550 3700
Wire Wire Line
	5550 3700 5550 3450
Wire Wire Line
	5550 3450 5675 3450
Wire Wire Line
	5675 3450 5675 3225
Wire Wire Line
	5675 3225 5750 3225
Wire Wire Line
	5150 3650 5525 3650
Wire Wire Line
	5525 3650 5525 3425
Wire Wire Line
	5525 3425 5650 3425
Wire Wire Line
	5650 3425 5650 3125
Wire Wire Line
	5650 3125 5750 3125
$Comp
L Connector_Generic:Conn_01x04 J22
U 1 1 5FDE8762
P 5950 2625
F 0 "J22" H 5868 2200 50  0000 C CNN
F 1 "Conn_01x04" H 5868 2291 50  0000 C CNN
F 2 "Connector_Molex:Molex_Micro-Fit_3.0_43045-0412_2x02_P3.00mm_Vertical" H 5950 2625 50  0001 C CNN
F 3 "~" H 5950 2625 50  0001 C CNN
	1    5950 2625
	1    0    0    -1  
$EndComp
Wire Wire Line
	5200 3600 5500 3600
Wire Wire Line
	5500 3600 5500 3400
Wire Wire Line
	5500 3400 5625 3400
Wire Wire Line
	5625 3400 5625 2825
Wire Wire Line
	5625 2825 5750 2825
Wire Wire Line
	5150 3550 5475 3550
Wire Wire Line
	5475 3550 5475 3375
Wire Wire Line
	5475 3375 5600 3375
Wire Wire Line
	5600 3375 5600 2725
Wire Wire Line
	5600 2725 5750 2725
Wire Wire Line
	5200 3500 5450 3500
Wire Wire Line
	5450 3500 5450 3350
Wire Wire Line
	5450 3350 5575 3350
Wire Wire Line
	5575 3350 5575 2625
Wire Wire Line
	5575 2625 5750 2625
Wire Wire Line
	5150 2550 5750 2550
Wire Wire Line
	5750 2550 5750 2525
$Comp
L Connector_Generic:Conn_01x02 J19
U 1 1 5FE8353A
P 5525 1050
F 0 "J19" V 5489 862 50  0000 R CNN
F 1 "Conn_01x02" V 5398 862 50  0000 R CNN
F 2 "Connector_Molex:Molex_Micro-Fit_3.0_43045-0212_2x01_P3.00mm_Vertical" H 5525 1050 50  0001 C CNN
F 3 "~" H 5525 1050 50  0001 C CNN
	1    5525 1050
	0    -1   -1   0   
$EndComp
Wire Wire Line
	5300 2250 5300 1250
Wire Wire Line
	5300 1250 5525 1250
Wire Wire Line
	5350 2250 5350 1300
Wire Wire Line
	5350 1300 5625 1300
Wire Wire Line
	5625 1300 5625 1250
$Comp
L Connector_Generic:Conn_01x02 J21
U 1 1 5FEE4C44
P 5775 1050
F 0 "J21" V 5739 862 50  0000 R CNN
F 1 "Conn_01x02" V 5648 862 50  0000 R CNN
F 2 "Connector_Molex:Molex_Micro-Fit_3.0_43045-0212_2x01_P3.00mm_Vertical" H 5775 1050 50  0001 C CNN
F 3 "~" H 5775 1050 50  0001 C CNN
	1    5775 1050
	0    -1   -1   0   
$EndComp
Wire Wire Line
	5400 2250 5400 1325
Wire Wire Line
	5400 1325 5775 1325
Wire Wire Line
	5775 1325 5775 1250
Wire Wire Line
	5450 2250 5450 1350
Wire Wire Line
	5450 1350 5875 1350
Wire Wire Line
	5875 1350 5875 1250
$Comp
L Connector_Generic:Conn_01x02 J27
U 1 1 5FF49283
P 6025 1050
F 0 "J27" V 5989 862 50  0000 R CNN
F 1 "Conn_01x02" V 5898 862 50  0000 R CNN
F 2 "Connector_Molex:Molex_Micro-Fit_3.0_43045-0212_2x01_P3.00mm_Vertical" H 6025 1050 50  0001 C CNN
F 3 "~" H 6025 1050 50  0001 C CNN
	1    6025 1050
	0    -1   -1   0   
$EndComp
$Comp
L Connector_Generic:Conn_01x02 J28
U 1 1 5FF6B009
P 6275 1050
F 0 "J28" V 6239 862 50  0000 R CNN
F 1 "Conn_01x02" V 6148 862 50  0000 R CNN
F 2 "Connector_Molex:Molex_Micro-Fit_3.0_43045-0212_2x01_P3.00mm_Vertical" H 6275 1050 50  0001 C CNN
F 3 "~" H 6275 1050 50  0001 C CNN
	1    6275 1050
	0    -1   -1   0   
$EndComp
Wire Wire Line
	5500 2250 5500 1375
Wire Wire Line
	5500 1375 6025 1375
Wire Wire Line
	6025 1375 6025 1250
Wire Wire Line
	5550 2250 5550 1400
Wire Wire Line
	5550 1400 6125 1400
Wire Wire Line
	6125 1400 6125 1250
Wire Wire Line
	5600 2250 5600 1425
Wire Wire Line
	5600 1425 6275 1425
Wire Wire Line
	6275 1425 6275 1250
Wire Wire Line
	5650 2250 5650 1450
Wire Wire Line
	5650 1450 6375 1450
Wire Wire Line
	6375 1450 6375 1250
$Comp
L Connector_Generic:Conn_01x02 J30
U 1 1 60019330
P 6525 1050
F 0 "J30" V 6489 862 50  0000 R CNN
F 1 "Conn_01x02" V 6398 862 50  0000 R CNN
F 2 "Connector_Molex:Molex_Micro-Fit_3.0_43045-0212_2x01_P3.00mm_Vertical" H 6525 1050 50  0001 C CNN
F 3 "~" H 6525 1050 50  0001 C CNN
	1    6525 1050
	0    -1   -1   0   
$EndComp
Wire Wire Line
	5700 2250 5700 1475
Wire Wire Line
	5700 1475 6525 1475
Wire Wire Line
	6525 1475 6525 1250
Wire Wire Line
	5750 2250 5750 1500
Wire Wire Line
	5750 1500 6625 1500
Wire Wire Line
	6625 1500 6625 1250
$Comp
L power:GND #PWR0116
U 1 1 600870A5
P 5150 4200
F 0 "#PWR0116" H 5150 3950 50  0001 C CNN
F 1 "GND" H 5155 4027 50  0000 C CNN
F 2 "" H 5150 4200 50  0001 C CNN
F 3 "" H 5150 4200 50  0001 C CNN
	1    5150 4200
	1    0    0    -1  
$EndComp
Connection ~ 5150 4200
$Comp
L power:GND #PWR0117
U 1 1 60087B22
P 6250 4875
F 0 "#PWR0117" H 6250 4625 50  0001 C CNN
F 1 "GND" H 6255 4702 50  0000 C CNN
F 2 "" H 6250 4875 50  0001 C CNN
F 3 "" H 6250 4875 50  0001 C CNN
	1    6250 4875
	1    0    0    -1  
$EndComp
Connection ~ 6250 4875
Wire Wire Line
	6250 4875 6825 4875
$Comp
L Connector_Generic:Conn_01x02 J37
U 1 1 600AFDEE
P 8675 5425
F 0 "J37" V 8639 5237 50  0000 R CNN
F 1 "Conn_01x02" V 8548 5237 50  0000 R CNN
F 2 "Connector_Molex:Molex_Micro-Fit_3.0_43045-0212_2x01_P3.00mm_Vertical" H 8675 5425 50  0001 C CNN
F 3 "~" H 8675 5425 50  0001 C CNN
	1    8675 5425
	1    0    0    -1  
$EndComp
Wire Wire Line
	8300 5300 8475 5300
Wire Wire Line
	8475 5300 8475 5425
Wire Wire Line
	8475 5525 8325 5525
Wire Wire Line
	8325 5525 8325 5825
$Comp
L power:GND #PWR0118
U 1 1 60120B3D
P 8325 5825
F 0 "#PWR0118" H 8325 5575 50  0001 C CNN
F 1 "GND" H 8330 5652 50  0000 C CNN
F 2 "" H 8325 5825 50  0001 C CNN
F 3 "" H 8325 5825 50  0001 C CNN
	1    8325 5825
	1    0    0    -1  
$EndComp
$Comp
L Connector_Generic:Conn_01x02 J38
U 1 1 60121091
P 9375 5425
F 0 "J38" V 9339 5237 50  0000 R CNN
F 1 "Conn_01x02" V 9248 5237 50  0000 R CNN
F 2 "Connector_Molex:Molex_Micro-Fit_3.0_43045-0212_2x01_P3.00mm_Vertical" H 9375 5425 50  0001 C CNN
F 3 "~" H 9375 5425 50  0001 C CNN
	1    9375 5425
	1    0    0    -1  
$EndComp
Wire Wire Line
	9175 5525 9075 5525
Wire Wire Line
	9075 5525 9075 5775
Wire Wire Line
	9175 5425 9025 5425
Wire Wire Line
	9025 5425 9025 5275
$Comp
L power:VCC #PWR0119
U 1 1 60192798
P 9025 5275
F 0 "#PWR0119" H 9025 5125 50  0001 C CNN
F 1 "VCC" H 9040 5448 50  0000 C CNN
F 2 "" H 9025 5275 50  0001 C CNN
F 3 "" H 9025 5275 50  0001 C CNN
	1    9025 5275
	1    0    0    -1  
$EndComp
$Comp
L power:GND #PWR0120
U 1 1 60192F15
P 9075 5775
F 0 "#PWR0120" H 9075 5525 50  0001 C CNN
F 1 "GND" H 9080 5602 50  0000 C CNN
F 2 "" H 9075 5775 50  0001 C CNN
F 3 "" H 9075 5775 50  0001 C CNN
	1    9075 5775
	1    0    0    -1  
$EndComp
$Comp
L Connector_Generic:Conn_01x02 J31
U 1 1 60194E36
P 6825 2700
F 0 "J31" V 6789 2512 50  0000 R CNN
F 1 "Conn_01x02" V 6698 2512 50  0000 R CNN
F 2 "Connector_Molex:Molex_Micro-Fit_3.0_43045-0212_2x01_P3.00mm_Vertical" H 6825 2700 50  0001 C CNN
F 3 "~" H 6825 2700 50  0001 C CNN
	1    6825 2700
	0    1    1    0   
$EndComp
$Comp
L Connector_Generic:Conn_01x02 J33
U 1 1 601BABBE
P 7100 2700
F 0 "J33" V 7064 2512 50  0000 R CNN
F 1 "Conn_01x02" V 6973 2512 50  0000 R CNN
F 2 "Connector_Molex:Molex_Micro-Fit_3.0_43045-0212_2x01_P3.00mm_Vertical" H 7100 2700 50  0001 C CNN
F 3 "~" H 7100 2700 50  0001 C CNN
	1    7100 2700
	0    1    1    0   
$EndComp
Wire Wire Line
	6725 2500 6725 2250
Wire Wire Line
	6725 2250 6550 2250
Wire Wire Line
	6825 2500 6825 2225
Wire Wire Line
	6825 2225 6500 2225
Wire Wire Line
	6500 2225 6500 2250
Wire Wire Line
	7000 2500 7000 2200
Wire Wire Line
	7000 2200 6450 2200
Wire Wire Line
	6450 2200 6450 2250
Wire Wire Line
	7100 2500 7100 2350
Wire Wire Line
	7100 2175 6400 2175
Wire Wire Line
	6400 2175 6400 2250
Wire Wire Line
	7100 2350 7250 2350
Wire Wire Line
	7250 2350 7250 2475
Connection ~ 7100 2350
Wire Wire Line
	7100 2350 7100 2175
$Comp
L power:GND #PWR0121
U 1 1 602A5703
P 7250 2475
F 0 "#PWR0121" H 7250 2225 50  0001 C CNN
F 1 "GND" H 7255 2302 50  0000 C CNN
F 2 "" H 7250 2475 50  0001 C CNN
F 3 "" H 7250 2475 50  0001 C CNN
	1    7250 2475
	1    0    0    -1  
$EndComp
$Comp
L Connector_Generic:Conn_01x04 J32
U 1 1 602A7367
P 6875 1050
F 0 "J32" H 6793 625 50  0000 C CNN
F 1 "Conn_01x04" H 6793 716 50  0000 C CNN
F 2 "Connector_Molex:Molex_Micro-Fit_3.0_43045-0412_2x02_P3.00mm_Vertical" H 6875 1050 50  0001 C CNN
F 3 "~" H 6875 1050 50  0001 C CNN
	1    6875 1050
	0    -1   -1   0   
$EndComp
Wire Wire Line
	5800 2250 5800 1525
Wire Wire Line
	5800 1525 6775 1525
Wire Wire Line
	6775 1525 6775 1250
Wire Wire Line
	6875 1250 6875 1550
Wire Wire Line
	6875 1550 5850 1550
Wire Wire Line
	5850 1550 5850 2250
Wire Wire Line
	5900 2250 5900 1575
Wire Wire Line
	5900 1575 6975 1575
Wire Wire Line
	6975 1575 6975 1250
Wire Wire Line
	7075 1250 7075 1600
Wire Wire Line
	7075 1600 5950 1600
Wire Wire Line
	5950 1600 5950 2250
$Comp
L Connector_Generic:Conn_01x04 J35
U 1 1 603A117E
P 7325 1050
F 0 "J35" H 7243 625 50  0000 C CNN
F 1 "Conn_01x04" H 7243 716 50  0000 C CNN
F 2 "Connector_Molex:Molex_Micro-Fit_3.0_43045-0412_2x02_P3.00mm_Vertical" H 7325 1050 50  0001 C CNN
F 3 "~" H 7325 1050 50  0001 C CNN
	1    7325 1050
	0    -1   -1   0   
$EndComp
Wire Wire Line
	6000 2250 6000 1625
Wire Wire Line
	6000 1625 7225 1625
Wire Wire Line
	7225 1625 7225 1250
Wire Wire Line
	7325 1250 7325 1650
Wire Wire Line
	7325 1650 6050 1650
Wire Wire Line
	6050 1650 6050 2250
Wire Wire Line
	6100 2250 6100 1675
Wire Wire Line
	6100 1675 7425 1675
Wire Wire Line
	7425 1675 7425 1250
Wire Wire Line
	7525 1250 7525 1700
Wire Wire Line
	7525 1700 6150 1700
Wire Wire Line
	6150 1700 6150 2250
$Comp
L Connector_Generic:Conn_01x04 J36
U 1 1 6047AF82
P 7775 1050
F 0 "J36" H 7693 625 50  0000 C CNN
F 1 "Conn_01x04" H 7693 716 50  0000 C CNN
F 2 "Connector_Molex:Molex_Micro-Fit_3.0_43045-0412_2x02_P3.00mm_Vertical" H 7775 1050 50  0001 C CNN
F 3 "~" H 7775 1050 50  0001 C CNN
	1    7775 1050
	0    -1   -1   0   
$EndComp
Wire Wire Line
	7675 1250 7675 1725
Wire Wire Line
	7675 1725 6200 1725
Wire Wire Line
	6200 1725 6200 2250
Wire Wire Line
	6250 2250 6250 1750
Wire Wire Line
	6250 1750 7775 1750
Wire Wire Line
	7775 1750 7775 1250
Wire Wire Line
	7875 1250 7875 1775
Wire Wire Line
	7875 1775 6300 1775
Wire Wire Line
	6300 1775 6300 2250
Wire Wire Line
	7975 1250 7975 1800
Wire Wire Line
	7975 1800 6350 1800
Wire Wire Line
	6350 1800 6350 2250
Wire Wire Line
	5350 5250 5300 5250
Wire Wire Line
	5875 5250 5825 5250
Wire Wire Line
	6400 5250 6350 5250
$Comp
L power:+5V #PWR0122
U 1 1 6011F7EF
P 8300 5300
F 0 "#PWR0122" H 8300 5150 50  0001 C CNN
F 1 "+5V" H 8315 5473 50  0000 C CNN
F 2 "" H 8300 5300 50  0001 C CNN
F 3 "" H 8300 5300 50  0001 C CNN
	1    8300 5300
	1    0    0    -1  
$EndComp
$Comp
L Connector_Generic:Conn_01x02 PinchPWR1
U 1 1 607D1DA2
P 6475 6050
F 0 "PinchPWR1" V 6439 5862 50  0000 R CNN
F 1 "PinchPWR" V 6348 5862 50  0000 R CNN
F 2 "Connector_Molex:Molex_Micro-Fit_3.0_43045-0212_2x01_P3.00mm_Vertical" H 6475 6050 50  0001 C CNN
F 3 "~" H 6475 6050 50  0001 C CNN
	1    6475 6050
	0    1    1    0   
$EndComp
Wire Wire Line
	5300 5250 5300 5850
Wire Wire Line
	5450 5250 5400 5250
Wire Wire Line
	5825 5250 5825 5850
Wire Wire Line
	5975 5250 5925 5250
Wire Wire Line
	5925 5250 5925 5850
Wire Wire Line
	5925 5850 5950 5850
Wire Wire Line
	6500 5250 6450 5250
Wire Wire Line
	6450 5250 6450 5850
Wire Wire Line
	6450 5850 6475 5850
Wire Wire Line
	6350 5850 6375 5850
Wire Wire Line
	6350 5250 6350 5850
$Comp
L power:+5V #PWR0123
U 1 1 6093C25E
P 5600 5850
F 0 "#PWR0123" H 5600 5700 50  0001 C CNN
F 1 "+5V" H 5615 6023 50  0000 C CNN
F 2 "" H 5600 5850 50  0001 C CNN
F 3 "" H 5600 5850 50  0001 C CNN
	1    5600 5850
	1    0    0    -1  
$EndComp
$Comp
L power:GND #PWR0124
U 1 1 6093D03D
P 5625 6075
F 0 "#PWR0124" H 5625 5825 50  0001 C CNN
F 1 "GND" H 5630 5902 50  0000 C CNN
F 2 "" H 5625 6075 50  0001 C CNN
F 3 "" H 5625 6075 50  0001 C CNN
	1    5625 6075
	1    0    0    -1  
$EndComp
Wire Wire Line
	5400 6075 5625 6075
Wire Wire Line
	5400 5250 5400 6075
Wire Wire Line
	5950 5850 5950 6075
Wire Wire Line
	5950 6075 5625 6075
Connection ~ 5625 6075
Wire Wire Line
	5600 5850 5825 5850
Connection ~ 5825 5850
Wire Wire Line
	5825 5850 5850 5850
Wire Wire Line
	5300 5850 5600 5850
Connection ~ 5600 5850
$EndSCHEMATC
