%!PS-Adobe-3.0
%%Creator: PCBNEW
%%CreationDate: Sat Feb 06 22:00:02 2021
%%Title: C:\Users\Genesis\Desktop\ArmRev02\PCB_and_Schematic\Arm02\gerber\Arm02-PTH-drl_map.ps
%%Pages: 1
%%PageOrder: Ascend
%%BoundingBox: 0 0 596 842
%%DocumentMedia: A4 595 842 0 () ()
%%Orientation: Landscape
%%EndComments
%%BeginProlog
/line { newpath moveto lineto stroke } bind def
/cir0 { newpath 0 360 arc stroke } bind def
/cir1 { newpath 0 360 arc gsave fill grestore stroke } bind def
/cir2 { newpath 0 360 arc gsave fill grestore stroke } bind def
/arc0 { newpath arc stroke } bind def
/arc1 { newpath 4 index 4 index moveto arc closepath gsave fill
    grestore stroke } bind def
/arc2 { newpath 4 index 4 index moveto arc closepath gsave fill
    grestore stroke } bind def
/poly0 { stroke } bind def
/poly1 { closepath gsave fill grestore stroke } bind def
/poly2 { closepath gsave fill grestore stroke } bind def
/rect0 { rectstroke } bind def
/rect1 { rectfill } bind def
/rect2 { rectfill } bind def
/linemode0 { 0 setlinecap 0 setlinejoin 0 setlinewidth } bind def
/linemode1 { 1 setlinecap 1 setlinejoin } bind def
/dashedline { [200] 100 setdash } bind def
/solidline { [] 0 setdash } bind def
/phantomshow { moveto
    /KicadFont findfont 0.000001 scalefont setfont
    show } bind def
/textshow { gsave
    findfont exch scalefont setfont concat 1 scale 0 0 moveto show
    } bind def
/reencodefont {
  findfont dup length dict begin
  { 1 index /FID ne
    { def }
    { pop pop } ifelse
  } forall
  /Encoding ISOLatin1Encoding def
  currentdict
  end } bind def
/KicadFont /Helvetica reencodefont definefont pop
/KicadFont-Bold /Helvetica-Bold reencodefont definefont pop
/KicadFont-Oblique /Helvetica-Oblique reencodefont definefont pop
/KicadFont-BoldOblique /Helvetica-BoldOblique reencodefont definefont pop
%%EndProlog
%%Page: 1 1
%%BeginPageSetup
gsave
0.0072 0.0072 scale
linemode1
82680 0 translate 90 rotate
49.6368 setlinewidth
%%EndPageSetup
0 0 0 setrgbcolor
39.0841 setlinewidth
newpath
91101.2 78723.4 moveto
91101.2 37028.6 lineto
stroke
0 0 0 setrgbcolor
newpath
25828.8 78723.4 moveto
91101.2 78723.4 lineto
stroke
0 0 0 setrgbcolor
newpath
25828.8 37028.6 moveto
25828.8 78723.4 lineto
stroke
0 0 0 setrgbcolor
newpath
91101.2 37028.6 moveto
25828.8 37028.6 lineto
stroke
78.74 setlinewidth
newpath
35926.2 71604.3 moveto
36082.5 71447.9 lineto
stroke
newpath
36082.5 71604.3 moveto
35926.2 71447.9 lineto
stroke
newpath
36918.9 70568.6 moveto
37075.3 70412.2 lineto
stroke
newpath
37075.3 70568.6 moveto
36918.9 70412.2 lineto
stroke
newpath
46846.3 48026.8 moveto
47002.6 47870.5 lineto
stroke
newpath
47002.6 48026.8 moveto
46846.3 47870.5 lineto
stroke
newpath
47342.6 45793.2 moveto
47499 45636.8 lineto
stroke
newpath
47499 45793.2 moveto
47342.6 45636.8 lineto
stroke
newpath
54788.2 47282.3 moveto
54944.5 47125.9 lineto
stroke
newpath
54944.5 47282.3 moveto
54788.2 47125.9 lineto
stroke
newpath
56029.1 68874.3 moveto
56185.4 68717.9 lineto
stroke
newpath
56185.4 68874.3 moveto
56029.1 68717.9 lineto
stroke
newpath
56773.6 53735 moveto
56930 53578.7 lineto
stroke
newpath
56930 53735 moveto
56773.6 53578.7 lineto
stroke
newpath
61240.9 70363.4 moveto
61397.3 70207 lineto
stroke
newpath
61397.3 70363.4 moveto
61240.9 70207 lineto
stroke
newpath
62730.1 75078.9 moveto
62886.4 74922.5 lineto
stroke
newpath
62886.4 75078.9 moveto
62730.1 74922.5 lineto
stroke
newpath
64219.2 70363.4 moveto
64375.5 70207 lineto
stroke
newpath
64375.5 70363.4 moveto
64219.2 70207 lineto
stroke
newpath
65211.9 68377.9 moveto
65368.2 68221.6 lineto
stroke
newpath
65368.2 68377.9 moveto
65211.9 68221.6 lineto
stroke
newpath
65632 71432.4 moveto
65788.3 71276 lineto
stroke
newpath
65788.3 71432.4 moveto
65632 71276 lineto
stroke
newpath
65708.3 70611.5 moveto
65864.6 70455.2 lineto
stroke
newpath
65864.6 70611.5 moveto
65708.3 70455.2 lineto
stroke
newpath
66701 69122.4 moveto
66857.3 68966.1 lineto
stroke
newpath
66857.3 69122.4 moveto
66701 68966.1 lineto
stroke
newpath
73153.8 56216.9 moveto
73310.1 56060.5 lineto
stroke
newpath
73310.1 56216.9 moveto
73153.8 56060.5 lineto
stroke
newpath
73402 74334.3 moveto
73558.3 74178 lineto
stroke
newpath
73558.3 74334.3 moveto
73402 74178 lineto
stroke
newpath
73898.3 56961.4 moveto
74054.7 56805.1 lineto
stroke
newpath
74054.7 56961.4 moveto
73898.3 56805.1 lineto
stroke
newpath
74891.1 73341.6 moveto
75047.4 73185.2 lineto
stroke
newpath
75047.4 73341.6 moveto
74891.1 73185.2 lineto
stroke
76706.5 67555.2 136.794 cir0
79684.7 67555.2 136.794 cir0
76706.5 66066.1 136.794 cir0
79684.7 66066.1 136.794 cir0
76706.5 46707.7 136.794 cir0
79684.7 46707.7 136.794 cir0
76706.5 51175 136.794 cir0
79684.7 51175 136.794 cir0
76706.5 52664.1 136.794 cir0
79684.7 52664.1 136.794 cir0
76706.5 45218.6 136.794 cir0
79684.7 45218.6 136.794 cir0
76706.5 49685.9 136.794 cir0
79684.7 49685.9 136.794 cir0
76706.5 72022.5 136.794 cir0
79684.7 72022.5 136.794 cir0
76706.5 70533.4 136.794 cir0
79684.7 70533.4 136.794 cir0
76706.5 48196.8 136.794 cir0
79684.7 48196.8 136.794 cir0
76706.5 64577 136.794 cir0
79684.7 64577 136.794 cir0
76706.5 69044.3 136.794 cir0
79684.7 69044.3 136.794 cir0
newpath
68268.3 69689.6 moveto
68268.3 69391.7 lineto
stroke
newpath
68119.4 69540.6 moveto
68417.2 69540.6 lineto
stroke
newpath
68268.3 68696.8 moveto
68268.3 68399 lineto
stroke
newpath
68119.4 68547.9 moveto
68417.2 68547.9 lineto
stroke
newpath
68268.3 64725.9 moveto
68268.3 64428.1 lineto
stroke
newpath
68119.4 64577 moveto
68417.2 64577 lineto
stroke
newpath
68268.3 63733.1 moveto
68268.3 63435.3 lineto
stroke
newpath
68119.4 63584.2 moveto
68417.2 63584.2 lineto
stroke
newpath
68268.3 56784 moveto
68268.3 56486.2 lineto
stroke
newpath
68119.4 56635.1 moveto
68417.2 56635.1 lineto
stroke
newpath
68268.3 55791.3 moveto
68268.3 55493.4 lineto
stroke
newpath
68119.4 55642.3 moveto
68417.2 55642.3 lineto
stroke
newpath
68268.3 54798.5 moveto
68268.3 54500.7 lineto
stroke
newpath
68119.4 54649.6 moveto
68417.2 54649.6 lineto
stroke
newpath
74224.7 69689.6 moveto
74224.7 69391.7 lineto
stroke
newpath
74075.8 69540.6 moveto
74373.6 69540.6 lineto
stroke
newpath
74224.7 68696.8 moveto
74224.7 68399 lineto
stroke
newpath
74075.8 68547.9 moveto
74373.6 68547.9 lineto
stroke
newpath
74224.7 67704.1 moveto
74224.7 67406.3 lineto
stroke
newpath
74075.8 67555.2 moveto
74373.6 67555.2 lineto
stroke
newpath
74224.7 66711.3 moveto
74224.7 66413.5 lineto
stroke
newpath
74075.8 66562.4 moveto
74373.6 66562.4 lineto
stroke
newpath
74224.7 64725.9 moveto
74224.7 64428.1 lineto
stroke
newpath
74075.8 64577 moveto
74373.6 64577 lineto
stroke
newpath
74224.7 63733.1 moveto
74224.7 63435.3 lineto
stroke
newpath
74075.8 63584.2 moveto
74373.6 63584.2 lineto
stroke
newpath
74224.7 59762.2 moveto
74224.7 59464.4 lineto
stroke
newpath
74075.8 59613.3 moveto
74373.6 59613.3 lineto
stroke
newpath
74224.7 58769.5 moveto
74224.7 58471.6 lineto
stroke
newpath
74075.8 58620.6 moveto
74373.6 58620.6 lineto
stroke
newpath
74224.7 55791.3 moveto
74224.7 55493.4 lineto
stroke
newpath
74075.8 55642.3 moveto
74373.6 55642.3 lineto
stroke
newpath
74224.7 54798.5 moveto
74224.7 54500.7 lineto
stroke
newpath
74075.8 54649.6 moveto
74373.6 54649.6 lineto
stroke
newpath
29551.6 49834.8 moveto
29551.6 49537 lineto
stroke
newpath
29402.7 49685.9 moveto
29700.5 49685.9 lineto
stroke
newpath
29551.6 43878.4 moveto
29551.6 43580.6 lineto
stroke
newpath
29402.7 43729.5 moveto
29700.5 43729.5 lineto
stroke
newpath
30544.3 49834.8 moveto
30544.3 49537 lineto
stroke
newpath
30395.4 49685.9 moveto
30693.2 49685.9 lineto
stroke
newpath
30544.3 43878.4 moveto
30544.3 43580.6 lineto
stroke
newpath
30395.4 43729.5 moveto
30693.2 43729.5 lineto
stroke
newpath
31537 49834.8 moveto
31537 49537 lineto
stroke
newpath
31388.1 49685.9 moveto
31686 49685.9 lineto
stroke
newpath
32529.8 49834.8 moveto
32529.8 49537 lineto
stroke
newpath
32380.9 49685.9 moveto
32678.7 49685.9 lineto
stroke
newpath
34515.3 49834.8 moveto
34515.3 49537 lineto
stroke
newpath
34366.3 49685.9 moveto
34664.2 49685.9 lineto
stroke
newpath
34515.3 43878.4 moveto
34515.3 43580.6 lineto
stroke
newpath
34366.3 43729.5 moveto
34664.2 43729.5 lineto
stroke
newpath
35508 49834.8 moveto
35508 49537 lineto
stroke
newpath
35359.1 49685.9 moveto
35656.9 49685.9 lineto
stroke
newpath
35508 43878.4 moveto
35508 43580.6 lineto
stroke
newpath
35359.1 43729.5 moveto
35656.9 43729.5 lineto
stroke
newpath
39478.9 49834.8 moveto
39478.9 49537 lineto
stroke
newpath
39330 49685.9 moveto
39627.8 49685.9 lineto
stroke
newpath
40471.7 49834.8 moveto
40471.7 49537 lineto
stroke
newpath
40322.8 49685.9 moveto
40620.6 49685.9 lineto
stroke
newpath
42457.1 43878.4 moveto
42457.1 43580.6 lineto
stroke
newpath
42308.2 43729.5 moveto
42606 43729.5 lineto
stroke
newpath
43449.9 49834.8 moveto
43449.9 49537 lineto
stroke
newpath
43301 49685.9 moveto
43598.8 49685.9 lineto
stroke
newpath
43449.9 43878.4 moveto
43449.9 43580.6 lineto
stroke
newpath
43301 43729.5 moveto
43598.8 43729.5 lineto
stroke
newpath
44442.6 49834.8 moveto
44442.6 49537 lineto
stroke
newpath
44293.7 49685.9 moveto
44591.5 49685.9 lineto
stroke
newpath
44442.6 43878.4 moveto
44442.6 43580.6 lineto
stroke
newpath
44293.7 43729.5 moveto
44591.5 43729.5 lineto
stroke
newpath
56851.8 49834.8 moveto
56851.8 49537 lineto
stroke
newpath
56702.9 49685.9 moveto
57000.7 49685.9 lineto
stroke
newpath
56851.8 43878.4 moveto
56851.8 43580.6 lineto
stroke
newpath
56702.9 43729.5 moveto
57000.7 43729.5 lineto
stroke
newpath
57844.5 49834.8 moveto
57844.5 49537 lineto
stroke
newpath
57695.6 49685.9 moveto
57993.5 49685.9 lineto
stroke
newpath
57844.5 43878.4 moveto
57844.5 43580.6 lineto
stroke
newpath
57695.6 43729.5 moveto
57993.5 43729.5 lineto
stroke
newpath
58837.3 49834.8 moveto
58837.3 49537 lineto
stroke
newpath
58688.4 49685.9 moveto
58986.2 49685.9 lineto
stroke
newpath
60822.7 43878.4 moveto
60822.7 43580.6 lineto
stroke
newpath
60673.8 43729.5 moveto
60971.7 43729.5 lineto
stroke
newpath
61815.5 43878.4 moveto
61815.5 43580.6 lineto
stroke
newpath
61666.6 43729.5 moveto
61964.4 43729.5 lineto
stroke
newpath
65786.4 49834.8 moveto
65786.4 49537 lineto
stroke
newpath
65637.5 49685.9 moveto
65935.3 49685.9 lineto
stroke
newpath
65786.4 43878.4 moveto
65786.4 43580.6 lineto
stroke
newpath
65637.5 43729.5 moveto
65935.3 43729.5 lineto
stroke
newpath
66779.2 49834.8 moveto
66779.2 49537 lineto
stroke
newpath
66630.3 49685.9 moveto
66928.1 49685.9 lineto
stroke
newpath
66779.2 43878.4 moveto
66779.2 43580.6 lineto
stroke
newpath
66630.3 43729.5 moveto
66928.1 43729.5 lineto
stroke
newpath
68764.6 43878.4 moveto
68764.6 43580.6 lineto
stroke
newpath
68615.7 43729.5 moveto
68913.5 43729.5 lineto
stroke
newpath
69757.4 43878.4 moveto
69757.4 43580.6 lineto
stroke
newpath
69608.5 43729.5 moveto
69906.3 43729.5 lineto
stroke
newpath
70750.1 49834.8 moveto
70750.1 49537 lineto
stroke
newpath
70601.2 49685.9 moveto
70899 49685.9 lineto
stroke
newpath
70750.1 43878.4 moveto
70750.1 43580.6 lineto
stroke
newpath
70601.2 43729.5 moveto
70899 43729.5 lineto
stroke
newpath
71742.8 49834.8 moveto
71742.8 49537 lineto
stroke
newpath
71593.9 49685.9 moveto
71891.8 49685.9 lineto
stroke
newpath
71742.8 43878.4 moveto
71742.8 43580.6 lineto
stroke
newpath
71593.9 43729.5 moveto
71891.8 43729.5 lineto
stroke
newpath
70888.3 40296.5 moveto
70888.3 40572.9 lineto
70611.9 40572.9 lineto
70611.9 40296.5 lineto
70888.3 40296.5 lineto
poly0
newpath
70888.3 39124 moveto
70888.3 39400.4 lineto
70611.9 39400.4 lineto
70611.9 39124 lineto
70888.3 39124 lineto
poly0
newpath
83117.7 76848 moveto
83117.7 77124.3 lineto
82841.3 77124.3 lineto
82841.3 76848 lineto
83117.7 76848 lineto
poly0
newpath
84290.2 76848 moveto
84290.2 77124.3 lineto
84013.9 77124.3 lineto
84013.9 76848 lineto
84290.2 76848 lineto
poly0
newpath
62450 76848 moveto
62450 77124.3 lineto
62173.7 77124.3 lineto
62173.7 76848 lineto
62450 76848 lineto
poly0
newpath
62450 75675.5 moveto
62450 75951.8 lineto
62173.7 75951.8 lineto
62173.7 75675.5 lineto
62450 75675.5 lineto
poly0
newpath
63622.6 76848 moveto
63622.6 77124.3 lineto
63346.2 77124.3 lineto
63346.2 76848 lineto
63622.6 76848 lineto
poly0
newpath
63622.6 75675.5 moveto
63622.6 75951.8 lineto
63346.2 75951.8 lineto
63346.2 75675.5 lineto
63622.6 75675.5 lineto
poly0
newpath
44580.8 76848 moveto
44580.8 77124.3 lineto
44304.4 77124.3 lineto
44304.4 76848 lineto
44580.8 76848 lineto
poly0
newpath
44580.8 75675.5 moveto
44580.8 75951.8 lineto
44304.4 75951.8 lineto
44304.4 75675.5 lineto
44580.8 75675.5 lineto
poly0
newpath
45753.3 76848 moveto
45753.3 77124.3 lineto
45476.9 77124.3 lineto
45476.9 76848 lineto
45753.3 76848 lineto
poly0
newpath
45753.3 75675.5 moveto
45753.3 75951.8 lineto
45476.9 75951.8 lineto
45476.9 75675.5 lineto
45753.3 75675.5 lineto
poly0
newpath
83117.7 56000.5 moveto
83117.7 56276.9 lineto
82841.3 56276.9 lineto
82841.3 56000.5 lineto
83117.7 56000.5 lineto
poly0
newpath
84290.2 56000.5 moveto
84290.2 56276.9 lineto
84013.9 56276.9 lineto
84013.9 56000.5 lineto
84290.2 56000.5 lineto
poly0
newpath
56990 40296.5 moveto
56990 40572.9 lineto
56713.6 40572.9 lineto
56713.6 40296.5 lineto
56990 40296.5 lineto
poly0
newpath
56990 39124 moveto
56990 39400.4 lineto
56713.6 39400.4 lineto
56713.6 39124 lineto
56990 39124 lineto
poly0
newpath
39865.3 40296.5 moveto
39865.3 40572.9 lineto
39588.9 40572.9 lineto
39588.9 40296.5 lineto
39865.3 40296.5 lineto
poly0
newpath
39865.3 39124 moveto
39865.3 39400.4 lineto
39588.9 39400.4 lineto
39588.9 39124 lineto
39865.3 39124 lineto
poly0
newpath
53515.4 76848 moveto
53515.4 77124.3 lineto
53239 77124.3 lineto
53239 76848 lineto
53515.4 76848 lineto
poly0
newpath
53515.4 75675.5 moveto
53515.4 75951.8 lineto
53239 75951.8 lineto
53239 75675.5 lineto
53515.4 75675.5 lineto
poly0
newpath
54687.9 76848 moveto
54687.9 77124.3 lineto
54411.6 77124.3 lineto
54411.6 76848 lineto
54687.9 76848 lineto
poly0
newpath
54687.9 75675.5 moveto
54687.9 75951.8 lineto
54411.6 75951.8 lineto
54411.6 75675.5 lineto
54687.9 75675.5 lineto
poly0
newpath
83117.7 62949.7 moveto
83117.7 63226 lineto
82841.3 63226 lineto
82841.3 62949.7 lineto
83117.7 62949.7 lineto
poly0
newpath
84290.2 62949.7 moveto
84290.2 63226 lineto
84013.9 63226 lineto
84013.9 62949.7 lineto
84290.2 62949.7 lineto
poly0
newpath
83117.7 42102.2 moveto
83117.7 42378.6 lineto
82841.3 42378.6 lineto
82841.3 42102.2 lineto
83117.7 42102.2 lineto
poly0
newpath
84290.2 42102.2 moveto
84290.2 42378.6 lineto
84013.9 42378.6 lineto
84013.9 42102.2 lineto
84290.2 42102.2 lineto
poly0
newpath
47875.6 40296.5 moveto
47875.6 40572.9 lineto
47599.2 40572.9 lineto
47599.2 40296.5 lineto
47875.6 40296.5 lineto
poly0
newpath
47875.6 39124 moveto
47875.6 39400.4 lineto
47599.2 39400.4 lineto
47599.2 39124 lineto
47875.6 39124 lineto
poly0
newpath
49048.1 40296.5 moveto
49048.1 40572.9 lineto
48771.7 40572.9 lineto
48771.7 40296.5 lineto
49048.1 40296.5 lineto
poly0
newpath
49048.1 39124 moveto
49048.1 39400.4 lineto
48771.7 39400.4 lineto
48771.7 39124 lineto
49048.1 39124 lineto
poly0
newpath
43408.3 40296.5 moveto
43408.3 40572.9 lineto
43131.9 40572.9 lineto
43131.9 40296.5 lineto
43408.3 40296.5 lineto
poly0
newpath
43408.3 39124 moveto
43408.3 39400.4 lineto
43131.9 39400.4 lineto
43131.9 39124 lineto
43408.3 39124 lineto
poly0
newpath
44580.8 40296.5 moveto
44580.8 40572.9 lineto
44304.4 40572.9 lineto
44304.4 40296.5 lineto
44580.8 40296.5 lineto
poly0
newpath
44580.8 39124 moveto
44580.8 39400.4 lineto
44304.4 39400.4 lineto
44304.4 39124 lineto
44580.8 39124 lineto
poly0
newpath
83117.7 73373.4 moveto
83117.7 73649.8 lineto
82841.3 73649.8 lineto
82841.3 73373.4 lineto
83117.7 73373.4 lineto
poly0
newpath
84290.2 73373.4 moveto
84290.2 73649.8 lineto
84013.9 73649.8 lineto
84013.9 73373.4 lineto
84290.2 73373.4 lineto
poly0
newpath
52342.9 40296.5 moveto
52342.9 40572.9 lineto
52066.5 40572.9 lineto
52066.5 40296.5 lineto
52342.9 40296.5 lineto
poly0
newpath
52342.9 39124 moveto
52342.9 39400.4 lineto
52066.5 39400.4 lineto
52066.5 39124 lineto
52342.9 39124 lineto
poly0
newpath
53515.4 40296.5 moveto
53515.4 40572.9 lineto
53239 40572.9 lineto
53239 40296.5 lineto
53515.4 40296.5 lineto
poly0
newpath
53515.4 39124 moveto
53515.4 39400.4 lineto
53239 39400.4 lineto
53239 39124 lineto
53515.4 39124 lineto
poly0
newpath
30006.3 40296.5 moveto
30006.3 40572.9 lineto
29730 40572.9 lineto
29730 40296.5 lineto
30006.3 40296.5 lineto
poly0
newpath
30006.3 39124 moveto
30006.3 39400.4 lineto
29730 39400.4 lineto
29730 39124 lineto
30006.3 39124 lineto
poly0
newpath
31178.9 40296.5 moveto
31178.9 40572.9 lineto
30902.5 40572.9 lineto
30902.5 40296.5 lineto
31178.9 40296.5 lineto
poly0
newpath
31178.9 39124 moveto
31178.9 39400.4 lineto
30902.5 39400.4 lineto
30902.5 39124 lineto
31178.9 39124 lineto
poly0
newpath
88261.2 57489.6 moveto
88261.2 57766 lineto
87984.8 57766 lineto
87984.8 57489.6 lineto
88261.2 57489.6 lineto
poly0
newpath
89433.7 57489.6 moveto
89433.7 57766 lineto
89157.3 57766 lineto
89157.3 57489.6 lineto
89433.7 57489.6 lineto
poly0
newpath
31178.9 76848 moveto
31178.9 77124.3 lineto
30902.5 77124.3 lineto
30902.5 76848 lineto
31178.9 76848 lineto
poly0
newpath
31178.9 75675.5 moveto
31178.9 75951.8 lineto
30902.5 75951.8 lineto
30902.5 75675.5 lineto
31178.9 75675.5 lineto
poly0
newpath
32351.4 76848 moveto
32351.4 77124.3 lineto
32075 77124.3 lineto
32075 76848 lineto
32351.4 76848 lineto
poly0
newpath
32351.4 75675.5 moveto
32351.4 75951.8 lineto
32075 75951.8 lineto
32075 75675.5 lineto
32351.4 75675.5 lineto
poly0
newpath
57982.7 76848 moveto
57982.7 77124.3 lineto
57706.4 77124.3 lineto
57706.4 76848 lineto
57982.7 76848 lineto
poly0
newpath
57982.7 75675.5 moveto
57982.7 75951.8 lineto
57706.4 75951.8 lineto
57706.4 75675.5 lineto
57982.7 75675.5 lineto
poly0
newpath
59155.2 76848 moveto
59155.2 77124.3 lineto
58878.9 77124.3 lineto
58878.9 76848 lineto
59155.2 76848 lineto
poly0
newpath
59155.2 75675.5 moveto
59155.2 75951.8 lineto
58878.9 75951.8 lineto
58878.9 75675.5 lineto
59155.2 75675.5 lineto
poly0
newpath
35646.2 76848 moveto
35646.2 77124.3 lineto
35369.8 77124.3 lineto
35369.8 76848 lineto
35646.2 76848 lineto
poly0
newpath
35646.2 75675.5 moveto
35646.2 75951.8 lineto
35369.8 75951.8 lineto
35369.8 75675.5 lineto
35646.2 75675.5 lineto
poly0
newpath
36818.7 76848 moveto
36818.7 77124.3 lineto
36542.3 77124.3 lineto
36542.3 76848 lineto
36818.7 76848 lineto
poly0
newpath
36818.7 75675.5 moveto
36818.7 75951.8 lineto
36542.3 75951.8 lineto
36542.3 75675.5 lineto
36818.7 75675.5 lineto
poly0
newpath
83117.7 52526 moveto
83117.7 52802.3 lineto
82841.3 52802.3 lineto
82841.3 52526 lineto
83117.7 52526 lineto
poly0
newpath
84290.2 52526 moveto
84290.2 52802.3 lineto
84013.9 52802.3 lineto
84013.9 52526 lineto
84290.2 52526 lineto
poly0
newpath
83117.7 38627.7 moveto
83117.7 38904 lineto
82841.3 38904 lineto
82841.3 38627.7 lineto
83117.7 38627.7 lineto
poly0
newpath
84290.2 38627.7 moveto
84290.2 38904 lineto
84013.9 38904 lineto
84013.9 38627.7 lineto
84290.2 38627.7 lineto
poly0
newpath
88261.2 73373.4 moveto
88261.2 73649.8 lineto
87984.8 73649.8 lineto
87984.8 73373.4 lineto
88261.2 73373.4 lineto
poly0
newpath
89433.7 73373.4 moveto
89433.7 73649.8 lineto
89157.3 73649.8 lineto
89157.3 73373.4 lineto
89433.7 73373.4 lineto
poly0
newpath
77589.3 59406.7 moveto
77589.3 59683.1 lineto
77312.9 59683.1 lineto
77312.9 59406.7 lineto
77589.3 59406.7 lineto
poly0
newpath
77589.3 58234.2 moveto
77589.3 58510.6 lineto
77312.9 58510.6 lineto
77312.9 58234.2 lineto
77589.3 58234.2 lineto
poly0
newpath
78761.8 59406.7 moveto
78761.8 59683.1 lineto
78485.4 59683.1 lineto
78485.4 59406.7 lineto
78761.8 59406.7 lineto
poly0
newpath
78761.8 58234.2 moveto
78761.8 58510.6 lineto
78485.4 58510.6 lineto
78485.4 58234.2 lineto
78761.8 58234.2 lineto
poly0
newpath
40113.5 76848 moveto
40113.5 77124.3 lineto
39837.1 77124.3 lineto
39837.1 76848 lineto
40113.5 76848 lineto
poly0
newpath
40113.5 75675.5 moveto
40113.5 75951.8 lineto
39837.1 75951.8 lineto
39837.1 75675.5 lineto
40113.5 75675.5 lineto
poly0
newpath
41286 76848 moveto
41286 77124.3 lineto
41009.6 77124.3 lineto
41009.6 76848 lineto
41286 76848 lineto
poly0
newpath
41286 75675.5 moveto
41286 75951.8 lineto
41009.6 75951.8 lineto
41009.6 75675.5 lineto
41286 75675.5 lineto
poly0
newpath
63939.1 40296.5 moveto
63939.1 40572.9 lineto
63662.8 40572.9 lineto
63662.8 40296.5 lineto
63939.1 40296.5 lineto
poly0
newpath
63939.1 39124 moveto
63939.1 39400.4 lineto
63662.8 39400.4 lineto
63662.8 39124 lineto
63939.1 39124 lineto
poly0
newpath
76416.7 40296.5 moveto
76416.7 40572.9 lineto
76140.4 40572.9 lineto
76140.4 40296.5 lineto
76416.7 40296.5 lineto
poly0
newpath
76416.7 39124 moveto
76416.7 39400.4 lineto
76140.4 39400.4 lineto
76140.4 39124 lineto
76416.7 39124 lineto
poly0
newpath
77589.3 40296.5 moveto
77589.3 40572.9 lineto
77312.9 40572.9 lineto
77312.9 40296.5 lineto
77589.3 40296.5 lineto
poly0
newpath
77589.3 39124 moveto
77589.3 39400.4 lineto
77312.9 39400.4 lineto
77312.9 39124 lineto
77589.3 39124 lineto
poly0
newpath
83117.7 49051.4 moveto
83117.7 49327.7 lineto
82841.3 49327.7 lineto
82841.3 49051.4 lineto
83117.7 49051.4 lineto
poly0
newpath
84290.2 49051.4 moveto
84290.2 49327.7 lineto
84013.9 49327.7 lineto
84013.9 49051.4 lineto
84290.2 49051.4 lineto
poly0
newpath
88261.2 42102.2 moveto
88261.2 42378.6 lineto
87984.8 42378.6 lineto
87984.8 42102.2 lineto
88261.2 42102.2 lineto
poly0
newpath
89433.7 42102.2 moveto
89433.7 42378.6 lineto
89157.3 42378.6 lineto
89157.3 42102.2 lineto
89433.7 42102.2 lineto
poly0
newpath
67413.7 40296.5 moveto
67413.7 40572.9 lineto
67137.3 40572.9 lineto
67137.3 40296.5 lineto
67413.7 40296.5 lineto
poly0
newpath
67413.7 39124 moveto
67413.7 39400.4 lineto
67137.3 39400.4 lineto
67137.3 39124 lineto
67413.7 39124 lineto
poly0
newpath
76844.7 76848 moveto
76844.7 77124.3 lineto
76568.3 77124.3 lineto
76568.3 76848 lineto
76844.7 76848 lineto
poly0
newpath
76844.7 75675.5 moveto
76844.7 75951.8 lineto
76568.3 75951.8 lineto
76568.3 75675.5 lineto
76844.7 75675.5 lineto
poly0
newpath
78017.2 76848 moveto
78017.2 77124.3 lineto
77740.9 77124.3 lineto
77740.9 76848 lineto
78017.2 76848 lineto
poly0
newpath
78017.2 75675.5 moveto
78017.2 75951.8 lineto
77740.9 75951.8 lineto
77740.9 75675.5 lineto
78017.2 75675.5 lineto
poly0
newpath
27952.5 77096.2 moveto
27952.5 77372.5 lineto
27676.1 77372.5 lineto
27676.1 77096.2 lineto
27952.5 77096.2 lineto
poly0
newpath
27952.5 76103.4 moveto
27952.5 76379.8 lineto
27676.1 76379.8 lineto
27676.1 76103.4 lineto
27952.5 76103.4 lineto
poly0
newpath
27952.5 75110.7 moveto
27952.5 75387.1 lineto
27676.1 75387.1 lineto
27676.1 75110.7 lineto
27952.5 75110.7 lineto
poly0
newpath
66917.3 76848 moveto
66917.3 77124.3 lineto
66641 77124.3 lineto
66641 76848 lineto
66917.3 76848 lineto
poly0
newpath
66917.3 75675.5 moveto
66917.3 75951.8 lineto
66641 75951.8 lineto
66641 75675.5 lineto
66917.3 75675.5 lineto
poly0
newpath
68089.9 76848 moveto
68089.9 77124.3 lineto
67813.5 77124.3 lineto
67813.5 76848 lineto
68089.9 76848 lineto
poly0
newpath
68089.9 75675.5 moveto
68089.9 75951.8 lineto
67813.5 75951.8 lineto
67813.5 75675.5 lineto
68089.9 75675.5 lineto
poly0
newpath
71881 76848 moveto
71881 77124.3 lineto
71604.7 77124.3 lineto
71604.7 76848 lineto
71881 76848 lineto
poly0
newpath
71881 75675.5 moveto
71881 75951.8 lineto
71604.7 75951.8 lineto
71604.7 75675.5 lineto
71881 75675.5 lineto
poly0
newpath
73053.5 76848 moveto
73053.5 77124.3 lineto
72777.2 77124.3 lineto
72777.2 76848 lineto
73053.5 76848 lineto
poly0
newpath
73053.5 75675.5 moveto
73053.5 75951.8 lineto
72777.2 75951.8 lineto
72777.2 75675.5 lineto
73053.5 75675.5 lineto
poly0
newpath
83117.7 59475.1 moveto
83117.7 59751.5 lineto
82841.3 59751.5 lineto
82841.3 59475.1 lineto
83117.7 59475.1 lineto
poly0
newpath
84290.2 59475.1 moveto
84290.2 59751.5 lineto
84013.9 59751.5 lineto
84013.9 59475.1 lineto
84290.2 59475.1 lineto
poly0
newpath
49048.1 76848 moveto
49048.1 77124.3 lineto
48771.7 77124.3 lineto
48771.7 76848 lineto
49048.1 76848 lineto
poly0
newpath
49048.1 75675.5 moveto
49048.1 75951.8 lineto
48771.7 75951.8 lineto
48771.7 75675.5 lineto
49048.1 75675.5 lineto
poly0
newpath
50220.6 76848 moveto
50220.6 77124.3 lineto
49944.3 77124.3 lineto
49944.3 76848 lineto
50220.6 76848 lineto
poly0
newpath
50220.6 75675.5 moveto
50220.6 75951.8 lineto
49944.3 75951.8 lineto
49944.3 75675.5 lineto
50220.6 75675.5 lineto
poly0
newpath
60464.6 40296.5 moveto
60464.6 40572.9 lineto
60188.2 40572.9 lineto
60188.2 40296.5 lineto
60464.6 40296.5 lineto
poly0
newpath
60464.6 39124 moveto
60464.6 39400.4 lineto
60188.2 39400.4 lineto
60188.2 39124 lineto
60464.6 39124 lineto
poly0
newpath
36390.7 40296.5 moveto
36390.7 40572.9 lineto
36114.4 40572.9 lineto
36114.4 40296.5 lineto
36390.7 40296.5 lineto
poly0
newpath
36390.7 39124 moveto
36390.7 39400.4 lineto
36114.4 39400.4 lineto
36114.4 39124 lineto
36390.7 39124 lineto
poly0
newpath
83117.7 69898.8 moveto
83117.7 70175.2 lineto
82841.3 70175.2 lineto
82841.3 69898.8 lineto
83117.7 69898.8 lineto
poly0
newpath
84290.2 69898.8 moveto
84290.2 70175.2 lineto
84013.9 70175.2 lineto
84013.9 69898.8 lineto
84290.2 69898.8 lineto
poly0
newpath
83117.7 66424.3 moveto
83117.7 66700.6 lineto
82841.3 66700.6 lineto
82841.3 66424.3 lineto
83117.7 66424.3 lineto
poly0
newpath
84290.2 66424.3 moveto
84290.2 66700.6 lineto
84013.9 66700.6 lineto
84013.9 66424.3 lineto
84290.2 66424.3 lineto
poly0
newpath
83117.7 45576.8 moveto
83117.7 45853.2 lineto
82841.3 45853.2 lineto
82841.3 45576.8 lineto
83117.7 45576.8 lineto
poly0
newpath
84290.2 45576.8 moveto
84290.2 45853.2 lineto
84013.9 45853.2 lineto
84013.9 45576.8 lineto
84290.2 45576.8 lineto
poly0
newpath
33919.6 52465.6 moveto
34118.2 52664.1 lineto
33919.6 52862.7 lineto
33721.1 52664.1 lineto
33919.6 52465.6 lineto
poly0
newpath
34912.3 52465.6 moveto
35110.9 52664.1 lineto
34912.3 52862.7 lineto
34713.8 52664.1 lineto
34912.3 52465.6 lineto
poly0
newpath
35905.1 52465.6 moveto
36103.6 52664.1 lineto
35905.1 52862.7 lineto
35706.5 52664.1 lineto
35905.1 52465.6 lineto
poly0
newpath
36897.8 52465.6 moveto
37096.4 52664.1 lineto
36897.8 52862.7 lineto
36699.3 52664.1 lineto
36897.8 52465.6 lineto
poly0
newpath
37493.5 71327.6 moveto
37692 71526.1 lineto
37493.5 71724.7 lineto
37294.9 71526.1 lineto
37493.5 71327.6 lineto
poly0
newpath
37890.6 52465.6 moveto
38089.1 52664.1 lineto
37890.6 52862.7 lineto
37692 52664.1 lineto
37890.6 52465.6 lineto
poly0
newpath
38486.2 71327.6 moveto
38684.7 71526.1 lineto
38486.2 71724.7 lineto
38287.6 71526.1 lineto
38486.2 71327.6 lineto
poly0
newpath
38883.3 52465.6 moveto
39081.8 52664.1 lineto
38883.3 52862.7 lineto
38684.7 52664.1 lineto
38883.3 52465.6 lineto
poly0
newpath
39478.9 71327.6 moveto
39677.5 71526.1 lineto
39478.9 71724.7 lineto
39280.4 71526.1 lineto
39478.9 71327.6 lineto
poly0
newpath
39876 52465.6 moveto
40074.6 52664.1 lineto
39876 52862.7 lineto
39677.5 52664.1 lineto
39876 52465.6 lineto
poly0
newpath
40471.7 71327.6 moveto
40670.2 71526.1 lineto
40471.7 71724.7 lineto
40273.1 71526.1 lineto
40471.7 71327.6 lineto
poly0
newpath
40868.8 52465.6 moveto
41067.3 52664.1 lineto
40868.8 52862.7 lineto
40670.2 52664.1 lineto
40868.8 52465.6 lineto
poly0
newpath
41464.4 71327.6 moveto
41662.9 71526.1 lineto
41464.4 71724.7 lineto
41265.9 71526.1 lineto
41464.4 71327.6 lineto
poly0
newpath
41861.5 52465.6 moveto
42060 52664.1 lineto
41861.5 52862.7 lineto
41662.9 52664.1 lineto
41861.5 52465.6 lineto
poly0
newpath
42457.1 71327.6 moveto
42655.7 71526.1 lineto
42457.1 71724.7 lineto
42258.6 71526.1 lineto
42457.1 71327.6 lineto
poly0
newpath
42854.2 52465.6 moveto
43052.8 52664.1 lineto
42854.2 52862.7 lineto
42655.7 52664.1 lineto
42854.2 52465.6 lineto
poly0
newpath
43449.9 71327.6 moveto
43648.4 71526.1 lineto
43449.9 71724.7 lineto
43251.3 71526.1 lineto
43449.9 71327.6 lineto
poly0
newpath
44442.6 71327.6 moveto
44641.2 71526.1 lineto
44442.6 71724.7 lineto
44244.1 71526.1 lineto
44442.6 71327.6 lineto
poly0
newpath
44442.6 52465.6 moveto
44641.2 52664.1 lineto
44442.6 52862.7 lineto
44244.1 52664.1 lineto
44442.6 52465.6 lineto
poly0
newpath
45435.3 52465.6 moveto
45633.9 52664.1 lineto
45435.3 52862.7 lineto
45236.8 52664.1 lineto
45435.3 52465.6 lineto
poly0
newpath
46428.1 71327.6 moveto
46626.6 71526.1 lineto
46428.1 71724.7 lineto
46229.5 71526.1 lineto
46428.1 71327.6 lineto
poly0
newpath
46428.1 52465.6 moveto
46626.6 52664.1 lineto
46428.1 52862.7 lineto
46229.5 52664.1 lineto
46428.1 52465.6 lineto
poly0
newpath
47420.8 71327.6 moveto
47619.4 71526.1 lineto
47420.8 71724.7 lineto
47222.3 71526.1 lineto
47420.8 71327.6 lineto
poly0
newpath
47420.8 52465.6 moveto
47619.4 52664.1 lineto
47420.8 52862.7 lineto
47222.3 52664.1 lineto
47420.8 52465.6 lineto
poly0
newpath
48413.6 71327.6 moveto
48612.1 71526.1 lineto
48413.6 71724.7 lineto
48215 71526.1 lineto
48413.6 71327.6 lineto
poly0
newpath
48413.6 52465.6 moveto
48612.1 52664.1 lineto
48413.6 52862.7 lineto
48215 52664.1 lineto
48413.6 52465.6 lineto
poly0
newpath
49406.3 71327.6 moveto
49604.8 71526.1 lineto
49406.3 71724.7 lineto
49207.7 71526.1 lineto
49406.3 71327.6 lineto
poly0
newpath
49406.3 52465.6 moveto
49604.8 52664.1 lineto
49406.3 52862.7 lineto
49207.7 52664.1 lineto
49406.3 52465.6 lineto
poly0
newpath
50399 71327.6 moveto
50597.6 71526.1 lineto
50399 71724.7 lineto
50200.5 71526.1 lineto
50399 71327.6 lineto
poly0
newpath
50399 52465.6 moveto
50597.6 52664.1 lineto
50399 52862.7 lineto
50200.5 52664.1 lineto
50399 52465.6 lineto
poly0
newpath
51391.8 71327.6 moveto
51590.3 71526.1 lineto
51391.8 71724.7 lineto
51193.2 71526.1 lineto
51391.8 71327.6 lineto
poly0
newpath
51391.8 52465.6 moveto
51590.3 52664.1 lineto
51391.8 52862.7 lineto
51193.2 52664.1 lineto
51391.8 52465.6 lineto
poly0
newpath
51441.4 62392.9 moveto
51639.9 62591.5 lineto
51441.4 62790 lineto
51242.8 62591.5 lineto
51441.4 62392.9 lineto
poly0
newpath
51441.4 61400.2 moveto
51639.9 61598.8 lineto
51441.4 61797.3 lineto
51242.8 61598.8 lineto
51441.4 61400.2 lineto
poly0
newpath
51441.4 60407.5 moveto
51639.9 60606 lineto
51441.4 60804.6 lineto
51242.8 60606 lineto
51441.4 60407.5 lineto
poly0
newpath
52384.5 71327.6 moveto
52583 71526.1 lineto
52384.5 71724.7 lineto
52185.9 71526.1 lineto
52384.5 71327.6 lineto
poly0
newpath
52434.1 62392.9 moveto
52632.7 62591.5 lineto
52434.1 62790 lineto
52235.6 62591.5 lineto
52434.1 62392.9 lineto
poly0
newpath
52434.1 61400.2 moveto
52632.7 61598.8 lineto
52434.1 61797.3 lineto
52235.6 61598.8 lineto
52434.1 61400.2 lineto
poly0
newpath
52434.1 60407.5 moveto
52632.7 60606 lineto
52434.1 60804.6 lineto
52235.6 60606 lineto
52434.1 60407.5 lineto
poly0
newpath
53377.2 71327.6 moveto
53575.8 71526.1 lineto
53377.2 71724.7 lineto
53178.7 71526.1 lineto
53377.2 71327.6 lineto
poly0
newpath
53377.2 52465.6 moveto
53575.8 52664.1 lineto
53377.2 52862.7 lineto
53178.7 52664.1 lineto
53377.2 52465.6 lineto
poly0
newpath
54370 52465.6 moveto
54568.5 52664.1 lineto
54370 52862.7 lineto
54171.4 52664.1 lineto
54370 52465.6 lineto
poly0
newpath
55362.7 71327.6 moveto
55561.2 71526.1 lineto
55362.7 71724.7 lineto
55164.2 71526.1 lineto
55362.7 71327.6 lineto
poly0
newpath
55362.7 52465.6 moveto
55561.2 52664.1 lineto
55362.7 52862.7 lineto
55164.2 52664.1 lineto
55362.7 52465.6 lineto
poly0
newpath
56355.4 71327.6 moveto
56554 71526.1 lineto
56355.4 71724.7 lineto
56156.9 71526.1 lineto
56355.4 71327.6 lineto
poly0
newpath
56355.4 52465.6 moveto
56554 52664.1 lineto
56355.4 52862.7 lineto
56156.9 52664.1 lineto
56355.4 52465.6 lineto
poly0
newpath
57348.2 71327.6 moveto
57546.7 71526.1 lineto
57348.2 71724.7 lineto
57149.6 71526.1 lineto
57348.2 71327.6 lineto
poly0
newpath
57348.2 52465.6 moveto
57546.7 52664.1 lineto
57348.2 52862.7 lineto
57149.6 52664.1 lineto
57348.2 52465.6 lineto
poly0
newpath
58340.9 71327.6 moveto
58539.5 71526.1 lineto
58340.9 71724.7 lineto
58142.4 71526.1 lineto
58340.9 71327.6 lineto
poly0
newpath
58340.9 52465.6 moveto
58539.5 52664.1 lineto
58340.9 52862.7 lineto
58142.4 52664.1 lineto
58340.9 52465.6 lineto
poly0
newpath
59333.6 71327.6 moveto
59532.2 71526.1 lineto
59333.6 71724.7 lineto
59135.1 71526.1 lineto
59333.6 71327.6 lineto
poly0
newpath
59333.6 52465.6 moveto
59532.2 52664.1 lineto
59333.6 52862.7 lineto
59135.1 52664.1 lineto
59333.6 52465.6 lineto
poly0
newpath
60326.4 71327.6 moveto
60524.9 71526.1 lineto
60326.4 71724.7 lineto
60127.8 71526.1 lineto
60326.4 71327.6 lineto
poly0
newpath
60326.4 52465.6 moveto
60524.9 52664.1 lineto
60326.4 52862.7 lineto
60127.8 52664.1 lineto
60326.4 52465.6 lineto
poly0
newpath
61319.1 71327.6 moveto
61517.7 71526.1 lineto
61319.1 71724.7 lineto
61120.6 71526.1 lineto
61319.1 71327.6 lineto
poly0
newpath
62311.9 71327.6 moveto
62510.4 71526.1 lineto
62311.9 71724.7 lineto
62113.3 71526.1 lineto
62311.9 71327.6 lineto
poly0
newpath
63304.6 69342.1 moveto
63503.1 69540.6 lineto
63304.6 69739.2 lineto
63106 69540.6 lineto
63304.6 69342.1 lineto
poly0
newpath
63304.6 68349.4 moveto
63503.1 68547.9 lineto
63304.6 68746.5 lineto
63106 68547.9 lineto
63304.6 68349.4 lineto
poly0
newpath
63304.6 67356.6 moveto
63503.1 67555.2 lineto
63304.6 67753.7 lineto
63106 67555.2 lineto
63304.6 67356.6 lineto
poly0
newpath
63304.6 66363.9 moveto
63503.1 66562.4 lineto
63304.6 66761 lineto
63106 66562.4 lineto
63304.6 66363.9 lineto
poly0
newpath
63304.6 65371.2 moveto
63503.1 65569.7 lineto
63304.6 65768.2 lineto
63106 65569.7 lineto
63304.6 65371.2 lineto
poly0
newpath
63304.6 64378.4 moveto
63503.1 64577 lineto
63304.6 64775.5 lineto
63106 64577 lineto
63304.6 64378.4 lineto
poly0
newpath
63304.6 63385.7 moveto
63503.1 63584.2 lineto
63304.6 63782.8 lineto
63106 63584.2 lineto
63304.6 63385.7 lineto
poly0
newpath
63304.6 62392.9 moveto
63503.1 62591.5 lineto
63304.6 62790 lineto
63106 62591.5 lineto
63304.6 62392.9 lineto
poly0
newpath
63304.6 61400.2 moveto
63503.1 61598.8 lineto
63304.6 61797.3 lineto
63106 61598.8 lineto
63304.6 61400.2 lineto
poly0
newpath
63304.6 60407.5 moveto
63503.1 60606 lineto
63304.6 60804.6 lineto
63106 60606 lineto
63304.6 60407.5 lineto
poly0
newpath
63304.6 59414.7 moveto
63503.1 59613.3 lineto
63304.6 59811.8 lineto
63106 59613.3 lineto
63304.6 59414.7 lineto
poly0
newpath
63304.6 58422 moveto
63503.1 58620.6 lineto
63304.6 58819.1 lineto
63106 58620.6 lineto
63304.6 58422 lineto
poly0
newpath
63304.6 57429.3 moveto
63503.1 57627.8 lineto
63304.6 57826.4 lineto
63106 57627.8 lineto
63304.6 57429.3 lineto
poly0
newpath
63304.6 56436.5 moveto
63503.1 56635.1 lineto
63304.6 56833.6 lineto
63106 56635.1 lineto
63304.6 56436.5 lineto
poly0
newpath
63304.6 55443.8 moveto
63503.1 55642.3 lineto
63304.6 55840.9 lineto
63106 55642.3 lineto
63304.6 55443.8 lineto
poly0
newpath
63304.6 54451.1 moveto
63503.1 54649.6 lineto
63304.6 54848.2 lineto
63106 54649.6 lineto
63304.6 54451.1 lineto
poly0
newpath
63304.6 53458.3 moveto
63503.1 53656.9 lineto
63304.6 53855.4 lineto
63106 53656.9 lineto
63304.6 53458.3 lineto
poly0
newpath
63304.6 52465.6 moveto
63503.1 52664.1 lineto
63304.6 52862.7 lineto
63106 52664.1 lineto
63304.6 52465.6 lineto
poly0
newpath
64297.3 69342.1 moveto
64495.9 69540.6 lineto
64297.3 69739.2 lineto
64098.8 69540.6 lineto
64297.3 69342.1 lineto
poly0
newpath
64297.3 68349.4 moveto
64495.9 68547.9 lineto
64297.3 68746.5 lineto
64098.8 68547.9 lineto
64297.3 68349.4 lineto
poly0
newpath
64297.3 67356.6 moveto
64495.9 67555.2 lineto
64297.3 67753.7 lineto
64098.8 67555.2 lineto
64297.3 67356.6 lineto
poly0
newpath
64297.3 66363.9 moveto
64495.9 66562.4 lineto
64297.3 66761 lineto
64098.8 66562.4 lineto
64297.3 66363.9 lineto
poly0
newpath
64297.3 65371.2 moveto
64495.9 65569.7 lineto
64297.3 65768.2 lineto
64098.8 65569.7 lineto
64297.3 65371.2 lineto
poly0
newpath
64297.3 64378.4 moveto
64495.9 64577 lineto
64297.3 64775.5 lineto
64098.8 64577 lineto
64297.3 64378.4 lineto
poly0
newpath
64297.3 63385.7 moveto
64495.9 63584.2 lineto
64297.3 63782.8 lineto
64098.8 63584.2 lineto
64297.3 63385.7 lineto
poly0
newpath
64297.3 62392.9 moveto
64495.9 62591.5 lineto
64297.3 62790 lineto
64098.8 62591.5 lineto
64297.3 62392.9 lineto
poly0
newpath
64297.3 61400.2 moveto
64495.9 61598.8 lineto
64297.3 61797.3 lineto
64098.8 61598.8 lineto
64297.3 61400.2 lineto
poly0
newpath
64297.3 60407.5 moveto
64495.9 60606 lineto
64297.3 60804.6 lineto
64098.8 60606 lineto
64297.3 60407.5 lineto
poly0
newpath
64297.3 59414.7 moveto
64495.9 59613.3 lineto
64297.3 59811.8 lineto
64098.8 59613.3 lineto
64297.3 59414.7 lineto
poly0
newpath
64297.3 58422 moveto
64495.9 58620.6 lineto
64297.3 58819.1 lineto
64098.8 58620.6 lineto
64297.3 58422 lineto
poly0
newpath
64297.3 57429.3 moveto
64495.9 57627.8 lineto
64297.3 57826.4 lineto
64098.8 57627.8 lineto
64297.3 57429.3 lineto
poly0
newpath
64297.3 56436.5 moveto
64495.9 56635.1 lineto
64297.3 56833.6 lineto
64098.8 56635.1 lineto
64297.3 56436.5 lineto
poly0
newpath
64297.3 55443.8 moveto
64495.9 55642.3 lineto
64297.3 55840.9 lineto
64098.8 55642.3 lineto
64297.3 55443.8 lineto
poly0
newpath
64297.3 54451.1 moveto
64495.9 54649.6 lineto
64297.3 54848.2 lineto
64098.8 54649.6 lineto
64297.3 54451.1 lineto
poly0
newpath
64297.3 53458.3 moveto
64495.9 53656.9 lineto
64297.3 53855.4 lineto
64098.8 53656.9 lineto
64297.3 53458.3 lineto
poly0
newpath
64297.3 52465.6 moveto
64495.9 52664.1 lineto
64297.3 52862.7 lineto
64098.8 52664.1 lineto
64297.3 52465.6 lineto
poly0
newpath
87693.1 51108.6 moveto
88552.9 50248.7 lineto
stroke
newpath
88552.9 51108.6 moveto
87693.1 50248.7 lineto
stroke
88123 50678.7 429.925 cir0
newpath
29121.6 73941.5 moveto
29981.5 73081.7 lineto
stroke
newpath
29981.5 73941.5 moveto
29121.6 73081.7 lineto
stroke
29551.6 73511.6 429.925 cir0
newpath
66099.1 52007.5 moveto
66958.9 51147.7 lineto
stroke
newpath
66958.9 52007.5 moveto
66099.1 51147.7 lineto
stroke
66529 51577.6 429.925 cir0
newpath
87693.1 65999.6 moveto
88552.9 65139.8 lineto
stroke
newpath
88552.9 65999.6 moveto
87693.1 65139.8 lineto
stroke
88123 65569.7 429.925 cir0
newpath
26639.8 38699.4 moveto
27499.7 37839.5 lineto
stroke
newpath
27499.7 38699.4 moveto
26639.8 37839.5 lineto
stroke
27069.7 38269.5 429.925 cir0
newpath
89182.2 77912.5 moveto
90042 77052.6 lineto
stroke
newpath
90042 77912.5 moveto
89182.2 77052.6 lineto
stroke
89612.1 77482.5 429.925 cir0
newpath
89182.2 38699.4 moveto
90042 37839.5 lineto
stroke
newpath
90042 38699.4 moveto
89182.2 37839.5 lineto
stroke
89612.1 38269.5 429.925 cir0
118.11 setlinewidth
0 0 0 setrgbcolor
0 0 0 setrgbcolor
newpath
26936.9 35175.5 moveto
26936.9 36356.6 lineto
27218.2 36356.6 lineto
27386.9 36300.3 lineto
27499.4 36187.9 lineto
27555.6 36075.4 lineto
27611.9 35850.4 lineto
27611.9 35681.7 lineto
27555.6 35456.7 lineto
27499.4 35344.2 lineto
27386.9 35231.7 lineto
27218.2 35175.5 lineto
26936.9 35175.5 lineto
stroke
newpath
28118 35175.5 moveto
28118 35962.9 lineto
stroke
newpath
28118 35737.9 moveto
28174.3 35850.4 lineto
28230.5 35906.6 lineto
28343 35962.9 lineto
28455.5 35962.9 lineto
stroke
newpath
28849.2 35175.5 moveto
28849.2 35962.9 lineto
stroke
newpath
28849.2 36356.6 moveto
28793 36300.3 lineto
28849.2 36244.1 lineto
28905.4 36300.3 lineto
28849.2 36356.6 lineto
28849.2 36244.1 lineto
stroke
newpath
29580.4 35175.5 moveto
29467.9 35231.7 lineto
29411.6 35344.2 lineto
29411.6 36356.6 lineto
stroke
newpath
30199 35175.5 moveto
30086.5 35231.7 lineto
30030.3 35344.2 lineto
30030.3 36356.6 lineto
stroke
newpath
31548.9 35175.5 moveto
31548.9 36356.6 lineto
31942.6 35512.9 lineto
32336.3 36356.6 lineto
32336.3 35175.5 lineto
stroke
newpath
33404.9 35175.5 moveto
33404.9 35794.2 lineto
33348.6 35906.6 lineto
33236.2 35962.9 lineto
33011.2 35962.9 lineto
32898.7 35906.6 lineto
stroke
newpath
33404.9 35231.7 moveto
33292.4 35175.5 lineto
33011.2 35175.5 lineto
32898.7 35231.7 lineto
32842.5 35344.2 lineto
32842.5 35456.7 lineto
32898.7 35569.2 lineto
33011.2 35625.4 lineto
33292.4 35625.4 lineto
33404.9 35681.7 lineto
stroke
newpath
33967.3 35962.9 moveto
33967.3 34781.8 lineto
stroke
newpath
33967.3 35906.6 moveto
34079.8 35962.9 lineto
34304.8 35962.9 lineto
34417.3 35906.6 lineto
34473.5 35850.4 lineto
34529.7 35737.9 lineto
34529.7 35400.5 lineto
34473.5 35288 lineto
34417.3 35231.7 lineto
34304.8 35175.5 lineto
34079.8 35175.5 lineto
33967.3 35231.7 lineto
stroke
newpath
35035.9 35288 moveto
35092.2 35231.7 lineto
35035.9 35175.5 lineto
34979.7 35231.7 lineto
35035.9 35288 lineto
35035.9 35175.5 lineto
stroke
newpath
35035.9 35906.6 moveto
35092.2 35850.4 lineto
35035.9 35794.2 lineto
34979.7 35850.4 lineto
35035.9 35906.6 lineto
35035.9 35794.2 lineto
stroke
newpath
25652.9 33307.6 moveto
25809.3 33151.3 lineto
stroke
newpath
25809.3 33307.6 moveto
25652.9 33151.3 lineto
stroke
0 0 0 setrgbcolor
0 0 0 setrgbcolor
newpath
27161.9 33876.3 moveto
27274.4 33876.3 lineto
27386.9 33820 lineto
27443.1 33763.8 lineto
27499.4 33651.3 lineto
27555.6 33426.3 lineto
27555.6 33145.1 lineto
27499.4 32920.1 lineto
27443.1 32807.7 lineto
27386.9 32751.4 lineto
27274.4 32695.2 lineto
27161.9 32695.2 lineto
27049.4 32751.4 lineto
26993.2 32807.7 lineto
26936.9 32920.1 lineto
26880.7 33145.1 lineto
26880.7 33426.3 lineto
26936.9 33651.3 lineto
26993.2 33763.8 lineto
27049.4 33820 lineto
27161.9 33876.3 lineto
stroke
newpath
28061.8 32807.7 moveto
28118 32751.4 lineto
28061.8 32695.2 lineto
28005.6 32751.4 lineto
28061.8 32807.7 lineto
28061.8 32695.2 lineto
stroke
newpath
29130.4 33482.6 moveto
29130.4 32695.2 lineto
stroke
newpath
28849.2 33932.5 moveto
28568 33088.9 lineto
29299.1 33088.9 lineto
stroke
newpath
29974.1 33876.3 moveto
30086.5 33876.3 lineto
30199 33820 lineto
30255.3 33763.8 lineto
30311.5 33651.3 lineto
30367.8 33426.3 lineto
30367.8 33145.1 lineto
30311.5 32920.1 lineto
30255.3 32807.7 lineto
30199 32751.4 lineto
30086.5 32695.2 lineto
29974.1 32695.2 lineto
29861.6 32751.4 lineto
29805.3 32807.7 lineto
29749.1 32920.1 lineto
29692.8 33145.1 lineto
29692.8 33426.3 lineto
29749.1 33651.3 lineto
29805.3 33763.8 lineto
29861.6 33820 lineto
29974.1 33876.3 lineto
stroke
newpath
30874 32695.2 moveto
30874 33482.6 lineto
stroke
newpath
30874 33370.1 moveto
30930.2 33426.3 lineto
31042.7 33482.6 lineto
31211.4 33482.6 lineto
31323.9 33426.3 lineto
31380.1 33313.8 lineto
31380.1 32695.2 lineto
stroke
newpath
31380.1 33313.8 moveto
31436.4 33426.3 lineto
31548.9 33482.6 lineto
31717.6 33482.6 lineto
31830.1 33426.3 lineto
31886.3 33313.8 lineto
31886.3 32695.2 lineto
stroke
newpath
32448.8 32695.2 moveto
32448.8 33482.6 lineto
stroke
newpath
32448.8 33370.1 moveto
32505 33426.3 lineto
32617.5 33482.6 lineto
32786.2 33482.6 lineto
32898.7 33426.3 lineto
32954.9 33313.8 lineto
32954.9 32695.2 lineto
stroke
newpath
32954.9 33313.8 moveto
33011.2 33426.3 lineto
33123.7 33482.6 lineto
33292.4 33482.6 lineto
33404.9 33426.3 lineto
33461.1 33313.8 lineto
33461.1 32695.2 lineto
stroke
newpath
35767.1 33932.5 moveto
34754.7 32414 lineto
stroke
newpath
37285.6 33876.3 moveto
37398.1 33876.3 lineto
37510.6 33820 lineto
37566.9 33763.8 lineto
37623.1 33651.3 lineto
37679.3 33426.3 lineto
37679.3 33145.1 lineto
37623.1 32920.1 lineto
37566.9 32807.7 lineto
37510.6 32751.4 lineto
37398.1 32695.2 lineto
37285.6 32695.2 lineto
37173.2 32751.4 lineto
37116.9 32807.7 lineto
37060.7 32920.1 lineto
37004.4 33145.1 lineto
37004.4 33426.3 lineto
37060.7 33651.3 lineto
37116.9 33763.8 lineto
37173.2 33820 lineto
37285.6 33876.3 lineto
stroke
newpath
38185.5 32807.7 moveto
38241.8 32751.4 lineto
38185.5 32695.2 lineto
38129.3 32751.4 lineto
38185.5 32807.7 lineto
38185.5 32695.2 lineto
stroke
newpath
38972.9 33876.3 moveto
39085.4 33876.3 lineto
39197.9 33820 lineto
39254.2 33763.8 lineto
39310.4 33651.3 lineto
39366.6 33426.3 lineto
39366.6 33145.1 lineto
39310.4 32920.1 lineto
39254.2 32807.7 lineto
39197.9 32751.4 lineto
39085.4 32695.2 lineto
38972.9 32695.2 lineto
38860.5 32751.4 lineto
38804.2 32807.7 lineto
38748 32920.1 lineto
38691.7 33145.1 lineto
38691.7 33426.3 lineto
38748 33651.3 lineto
38804.2 33763.8 lineto
38860.5 33820 lineto
38972.9 33876.3 lineto
stroke
newpath
40491.5 32695.2 moveto
39816.6 32695.2 lineto
stroke
newpath
40154 32695.2 moveto
40154 33876.3 lineto
40041.6 33707.5 lineto
39929.1 33595.1 lineto
39816.6 33538.8 lineto
stroke
newpath
41503.9 33876.3 moveto
41278.9 33876.3 lineto
41166.4 33820 lineto
41110.2 33763.8 lineto
40997.7 33595.1 lineto
40941.4 33370.1 lineto
40941.4 32920.1 lineto
40997.7 32807.7 lineto
41053.9 32751.4 lineto
41166.4 32695.2 lineto
41391.4 32695.2 lineto
41503.9 32751.4 lineto
41560.1 32807.7 lineto
41616.4 32920.1 lineto
41616.4 33201.4 lineto
41560.1 33313.8 lineto
41503.9 33370.1 lineto
41391.4 33426.3 lineto
41166.4 33426.3 lineto
41053.9 33370.1 lineto
40997.7 33313.8 lineto
40941.4 33201.4 lineto
stroke
newpath
42066.3 33876.3 moveto
42066.3 33651.3 lineto
stroke
newpath
42516.2 33876.3 moveto
42516.2 33651.3 lineto
stroke
newpath
44259.8 32245.2 moveto
44203.5 32301.5 lineto
44091 32470.2 lineto
44034.8 32582.7 lineto
43978.6 32751.4 lineto
43922.3 33032.6 lineto
43922.3 33257.6 lineto
43978.6 33538.8 lineto
44034.8 33707.5 lineto
44091 33820 lineto
44203.5 33988.8 lineto
44259.8 34045 lineto
stroke
newpath
45328.4 32695.2 moveto
44653.5 32695.2 lineto
stroke
newpath
44990.9 32695.2 moveto
44990.9 33876.3 lineto
44878.4 33707.5 lineto
44766 33595.1 lineto
44653.5 33538.8 lineto
stroke
newpath
46003.3 33370.1 moveto
45890.8 33426.3 lineto
45834.6 33482.6 lineto
45778.3 33595.1 lineto
45778.3 33651.3 lineto
45834.6 33763.8 lineto
45890.8 33820 lineto
46003.3 33876.3 lineto
46228.3 33876.3 lineto
46340.8 33820 lineto
46397 33763.8 lineto
46453.3 33651.3 lineto
46453.3 33595.1 lineto
46397 33482.6 lineto
46340.8 33426.3 lineto
46228.3 33370.1 lineto
46003.3 33370.1 lineto
45890.8 33313.8 lineto
45834.6 33257.6 lineto
45778.3 33145.1 lineto
45778.3 32920.1 lineto
45834.6 32807.7 lineto
45890.8 32751.4 lineto
46003.3 32695.2 lineto
46228.3 32695.2 lineto
46340.8 32751.4 lineto
46397 32807.7 lineto
46453.3 32920.1 lineto
46453.3 33145.1 lineto
46397 33257.6 lineto
46340.8 33313.8 lineto
46228.3 33370.1 lineto
stroke
newpath
47859.3 32695.2 moveto
47859.3 33876.3 lineto
stroke
newpath
48365.5 32695.2 moveto
48365.5 33313.8 lineto
48309.3 33426.3 lineto
48196.8 33482.6 lineto
48028.1 33482.6 lineto
47915.6 33426.3 lineto
47859.3 33370.1 lineto
stroke
newpath
49096.7 32695.2 moveto
48984.2 32751.4 lineto
48927.9 32807.7 lineto
48871.7 32920.1 lineto
48871.7 33257.6 lineto
48927.9 33370.1 lineto
48984.2 33426.3 lineto
49096.7 33482.6 lineto
49265.4 33482.6 lineto
49377.9 33426.3 lineto
49434.1 33370.1 lineto
49490.4 33257.6 lineto
49490.4 32920.1 lineto
49434.1 32807.7 lineto
49377.9 32751.4 lineto
49265.4 32695.2 lineto
49096.7 32695.2 lineto
stroke
newpath
50165.3 32695.2 moveto
50052.8 32751.4 lineto
49996.6 32863.9 lineto
49996.6 33876.3 lineto
stroke
newpath
51065.2 32751.4 moveto
50952.7 32695.2 lineto
50727.7 32695.2 lineto
50615.2 32751.4 lineto
50559 32863.9 lineto
50559 33313.8 lineto
50615.2 33426.3 lineto
50727.7 33482.6 lineto
50952.7 33482.6 lineto
51065.2 33426.3 lineto
51121.4 33313.8 lineto
51121.4 33201.4 lineto
50559 33088.9 lineto
stroke
newpath
51571.4 32751.4 moveto
51683.8 32695.2 lineto
51908.8 32695.2 lineto
52021.3 32751.4 lineto
52077.5 32863.9 lineto
52077.5 32920.1 lineto
52021.3 33032.6 lineto
51908.8 33088.9 lineto
51740.1 33088.9 lineto
51627.6 33145.1 lineto
51571.4 33257.6 lineto
51571.4 33313.8 lineto
51627.6 33426.3 lineto
51740.1 33482.6 lineto
51908.8 33482.6 lineto
52021.3 33426.3 lineto
stroke
newpath
52471.2 32245.2 moveto
52527.5 32301.5 lineto
52640 32470.2 lineto
52696.2 32582.7 lineto
52752.5 32751.4 lineto
52808.7 33032.6 lineto
52808.7 33257.6 lineto
52752.5 33538.8 lineto
52696.2 33707.5 lineto
52640 33820 lineto
52527.5 33988.8 lineto
52471.2 34045 lineto
stroke
25672.5 31670.4 136.794 cir0
0 0 0 setrgbcolor
0 0 0 setrgbcolor
newpath
27161.9 32317.2 moveto
27274.4 32317.2 lineto
27386.9 32261 lineto
27443.1 32204.7 lineto
27499.4 32092.2 lineto
27555.6 31867.3 lineto
27555.6 31586.1 lineto
27499.4 31361.1 lineto
27443.1 31248.6 lineto
27386.9 31192.4 lineto
27274.4 31136.1 lineto
27161.9 31136.1 lineto
27049.4 31192.4 lineto
26993.2 31248.6 lineto
26936.9 31361.1 lineto
26880.7 31586.1 lineto
26880.7 31867.3 lineto
26936.9 32092.2 lineto
26993.2 32204.7 lineto
27049.4 32261 lineto
27161.9 32317.2 lineto
stroke
newpath
28061.8 31248.6 moveto
28118 31192.4 lineto
28061.8 31136.1 lineto
28005.6 31192.4 lineto
28061.8 31248.6 lineto
28061.8 31136.1 lineto
stroke
newpath
28511.7 32317.2 moveto
29299.1 32317.2 lineto
28793 31136.1 lineto
stroke
newpath
29974.1 32317.2 moveto
30086.5 32317.2 lineto
30199 32261 lineto
30255.3 32204.7 lineto
30311.5 32092.2 lineto
30367.8 31867.3 lineto
30367.8 31586.1 lineto
30311.5 31361.1 lineto
30255.3 31248.6 lineto
30199 31192.4 lineto
30086.5 31136.1 lineto
29974.1 31136.1 lineto
29861.6 31192.4 lineto
29805.3 31248.6 lineto
29749.1 31361.1 lineto
29692.8 31586.1 lineto
29692.8 31867.3 lineto
29749.1 32092.2 lineto
29805.3 32204.7 lineto
29861.6 32261 lineto
29974.1 32317.2 lineto
stroke
newpath
30874 31136.1 moveto
30874 31923.5 lineto
stroke
newpath
30874 31811 moveto
30930.2 31867.3 lineto
31042.7 31923.5 lineto
31211.4 31923.5 lineto
31323.9 31867.3 lineto
31380.1 31754.8 lineto
31380.1 31136.1 lineto
stroke
newpath
31380.1 31754.8 moveto
31436.4 31867.3 lineto
31548.9 31923.5 lineto
31717.6 31923.5 lineto
31830.1 31867.3 lineto
31886.3 31754.8 lineto
31886.3 31136.1 lineto
stroke
newpath
32448.8 31136.1 moveto
32448.8 31923.5 lineto
stroke
newpath
32448.8 31811 moveto
32505 31867.3 lineto
32617.5 31923.5 lineto
32786.2 31923.5 lineto
32898.7 31867.3 lineto
32954.9 31754.8 lineto
32954.9 31136.1 lineto
stroke
newpath
32954.9 31754.8 moveto
33011.2 31867.3 lineto
33123.7 31923.5 lineto
33292.4 31923.5 lineto
33404.9 31867.3 lineto
33461.1 31754.8 lineto
33461.1 31136.1 lineto
stroke
newpath
35767.1 32373.5 moveto
34754.7 30854.9 lineto
stroke
newpath
37285.6 32317.2 moveto
37398.1 32317.2 lineto
37510.6 32261 lineto
37566.9 32204.7 lineto
37623.1 32092.2 lineto
37679.3 31867.3 lineto
37679.3 31586.1 lineto
37623.1 31361.1 lineto
37566.9 31248.6 lineto
37510.6 31192.4 lineto
37398.1 31136.1 lineto
37285.6 31136.1 lineto
37173.2 31192.4 lineto
37116.9 31248.6 lineto
37060.7 31361.1 lineto
37004.4 31586.1 lineto
37004.4 31867.3 lineto
37060.7 32092.2 lineto
37116.9 32204.7 lineto
37173.2 32261 lineto
37285.6 32317.2 lineto
stroke
newpath
38185.5 31248.6 moveto
38241.8 31192.4 lineto
38185.5 31136.1 lineto
38129.3 31192.4 lineto
38185.5 31248.6 lineto
38185.5 31136.1 lineto
stroke
newpath
38972.9 32317.2 moveto
39085.4 32317.2 lineto
39197.9 32261 lineto
39254.2 32204.7 lineto
39310.4 32092.2 lineto
39366.6 31867.3 lineto
39366.6 31586.1 lineto
39310.4 31361.1 lineto
39254.2 31248.6 lineto
39197.9 31192.4 lineto
39085.4 31136.1 lineto
38972.9 31136.1 lineto
38860.5 31192.4 lineto
38804.2 31248.6 lineto
38748 31361.1 lineto
38691.7 31586.1 lineto
38691.7 31867.3 lineto
38748 32092.2 lineto
38804.2 32204.7 lineto
38860.5 32261 lineto
38972.9 32317.2 lineto
stroke
newpath
39816.6 32204.7 moveto
39872.8 32261 lineto
39985.3 32317.2 lineto
40266.5 32317.2 lineto
40379 32261 lineto
40435.3 32204.7 lineto
40491.5 32092.2 lineto
40491.5 31979.8 lineto
40435.3 31811 lineto
39760.3 31136.1 lineto
40491.5 31136.1 lineto
stroke
newpath
41166.4 31811 moveto
41053.9 31867.3 lineto
40997.7 31923.5 lineto
40941.4 32036 lineto
40941.4 32092.2 lineto
40997.7 32204.7 lineto
41053.9 32261 lineto
41166.4 32317.2 lineto
41391.4 32317.2 lineto
41503.9 32261 lineto
41560.1 32204.7 lineto
41616.4 32092.2 lineto
41616.4 32036 lineto
41560.1 31923.5 lineto
41503.9 31867.3 lineto
41391.4 31811 lineto
41166.4 31811 lineto
41053.9 31754.8 lineto
40997.7 31698.5 lineto
40941.4 31586.1 lineto
40941.4 31361.1 lineto
40997.7 31248.6 lineto
41053.9 31192.4 lineto
41166.4 31136.1 lineto
41391.4 31136.1 lineto
41503.9 31192.4 lineto
41560.1 31248.6 lineto
41616.4 31361.1 lineto
41616.4 31586.1 lineto
41560.1 31698.5 lineto
41503.9 31754.8 lineto
41391.4 31811 lineto
stroke
newpath
42066.3 32317.2 moveto
42066.3 32092.2 lineto
stroke
newpath
42516.2 32317.2 moveto
42516.2 32092.2 lineto
stroke
newpath
44259.8 30686.2 moveto
44203.5 30742.4 lineto
44091 30911.1 lineto
44034.8 31023.6 lineto
43978.6 31192.4 lineto
43922.3 31473.6 lineto
43922.3 31698.5 lineto
43978.6 31979.8 lineto
44034.8 32148.5 lineto
44091 32261 lineto
44203.5 32429.7 lineto
44259.8 32485.9 lineto
stroke
newpath
44653.5 32204.7 moveto
44709.7 32261 lineto
44822.2 32317.2 lineto
45103.4 32317.2 lineto
45215.9 32261 lineto
45272.1 32204.7 lineto
45328.4 32092.2 lineto
45328.4 31979.8 lineto
45272.1 31811 lineto
44597.2 31136.1 lineto
45328.4 31136.1 lineto
stroke
newpath
46340.8 31923.5 moveto
46340.8 31136.1 lineto
stroke
newpath
46059.5 32373.5 moveto
45778.3 31529.8 lineto
46509.5 31529.8 lineto
stroke
newpath
47859.3 31136.1 moveto
47859.3 32317.2 lineto
stroke
newpath
48365.5 31136.1 moveto
48365.5 31754.8 lineto
48309.3 31867.3 lineto
48196.8 31923.5 lineto
48028.1 31923.5 lineto
47915.6 31867.3 lineto
47859.3 31811 lineto
stroke
newpath
49096.7 31136.1 moveto
48984.2 31192.4 lineto
48927.9 31248.6 lineto
48871.7 31361.1 lineto
48871.7 31698.5 lineto
48927.9 31811 lineto
48984.2 31867.3 lineto
49096.7 31923.5 lineto
49265.4 31923.5 lineto
49377.9 31867.3 lineto
49434.1 31811 lineto
49490.4 31698.5 lineto
49490.4 31361.1 lineto
49434.1 31248.6 lineto
49377.9 31192.4 lineto
49265.4 31136.1 lineto
49096.7 31136.1 lineto
stroke
newpath
50165.3 31136.1 moveto
50052.8 31192.4 lineto
49996.6 31304.8 lineto
49996.6 32317.2 lineto
stroke
newpath
51065.2 31192.4 moveto
50952.7 31136.1 lineto
50727.7 31136.1 lineto
50615.2 31192.4 lineto
50559 31304.8 lineto
50559 31754.8 lineto
50615.2 31867.3 lineto
50727.7 31923.5 lineto
50952.7 31923.5 lineto
51065.2 31867.3 lineto
51121.4 31754.8 lineto
51121.4 31642.3 lineto
50559 31529.8 lineto
stroke
newpath
51571.4 31192.4 moveto
51683.8 31136.1 lineto
51908.8 31136.1 lineto
52021.3 31192.4 lineto
52077.5 31304.8 lineto
52077.5 31361.1 lineto
52021.3 31473.6 lineto
51908.8 31529.8 lineto
51740.1 31529.8 lineto
51627.6 31586.1 lineto
51571.4 31698.5 lineto
51571.4 31754.8 lineto
51627.6 31867.3 lineto
51740.1 31923.5 lineto
51908.8 31923.5 lineto
52021.3 31867.3 lineto
stroke
newpath
52471.2 30686.2 moveto
52527.5 30742.4 lineto
52640 30911.1 lineto
52696.2 31023.6 lineto
52752.5 31192.4 lineto
52808.7 31473.6 lineto
52808.7 31698.5 lineto
52752.5 31979.8 lineto
52696.2 32148.5 lineto
52640 32261 lineto
52527.5 32429.7 lineto
52471.2 32485.9 lineto
stroke
newpath
25660.4 30260.3 moveto
25660.4 29962.5 lineto
stroke
newpath
25511.5 30111.4 moveto
25809.3 30111.4 lineto
stroke
0 0 0 setrgbcolor
0 0 0 setrgbcolor
newpath
27161.9 30758.2 moveto
27274.4 30758.2 lineto
27386.9 30701.9 lineto
27443.1 30645.7 lineto
27499.4 30533.2 lineto
27555.6 30308.2 lineto
27555.6 30027 lineto
27499.4 29802 lineto
27443.1 29689.5 lineto
27386.9 29633.3 lineto
27274.4 29577.1 lineto
27161.9 29577.1 lineto
27049.4 29633.3 lineto
26993.2 29689.5 lineto
26936.9 29802 lineto
26880.7 30027 lineto
26880.7 30308.2 lineto
26936.9 30533.2 lineto
26993.2 30645.7 lineto
27049.4 30701.9 lineto
27161.9 30758.2 lineto
stroke
newpath
28061.8 29689.5 moveto
28118 29633.3 lineto
28061.8 29577.1 lineto
28005.6 29633.3 lineto
28061.8 29689.5 lineto
28061.8 29577.1 lineto
stroke
newpath
28511.7 30758.2 moveto
29299.1 30758.2 lineto
28793 29577.1 lineto
stroke
newpath
30255.3 30758.2 moveto
30030.3 30758.2 lineto
29917.8 30701.9 lineto
29861.6 30645.7 lineto
29749.1 30477 lineto
29692.8 30252 lineto
29692.8 29802 lineto
29749.1 29689.5 lineto
29805.3 29633.3 lineto
29917.8 29577.1 lineto
30142.8 29577.1 lineto
30255.3 29633.3 lineto
30311.5 29689.5 lineto
30367.8 29802 lineto
30367.8 30083.2 lineto
30311.5 30195.7 lineto
30255.3 30252 lineto
30142.8 30308.2 lineto
29917.8 30308.2 lineto
29805.3 30252 lineto
29749.1 30195.7 lineto
29692.8 30083.2 lineto
stroke
newpath
30874 29577.1 moveto
30874 30364.5 lineto
stroke
newpath
30874 30252 moveto
30930.2 30308.2 lineto
31042.7 30364.5 lineto
31211.4 30364.5 lineto
31323.9 30308.2 lineto
31380.1 30195.7 lineto
31380.1 29577.1 lineto
stroke
newpath
31380.1 30195.7 moveto
31436.4 30308.2 lineto
31548.9 30364.5 lineto
31717.6 30364.5 lineto
31830.1 30308.2 lineto
31886.3 30195.7 lineto
31886.3 29577.1 lineto
stroke
newpath
32448.8 29577.1 moveto
32448.8 30364.5 lineto
stroke
newpath
32448.8 30252 moveto
32505 30308.2 lineto
32617.5 30364.5 lineto
32786.2 30364.5 lineto
32898.7 30308.2 lineto
32954.9 30195.7 lineto
32954.9 29577.1 lineto
stroke
newpath
32954.9 30195.7 moveto
33011.2 30308.2 lineto
33123.7 30364.5 lineto
33292.4 30364.5 lineto
33404.9 30308.2 lineto
33461.1 30195.7 lineto
33461.1 29577.1 lineto
stroke
newpath
35767.1 30814.4 moveto
34754.7 29295.8 lineto
stroke
newpath
37285.6 30758.2 moveto
37398.1 30758.2 lineto
37510.6 30701.9 lineto
37566.9 30645.7 lineto
37623.1 30533.2 lineto
37679.3 30308.2 lineto
37679.3 30027 lineto
37623.1 29802 lineto
37566.9 29689.5 lineto
37510.6 29633.3 lineto
37398.1 29577.1 lineto
37285.6 29577.1 lineto
37173.2 29633.3 lineto
37116.9 29689.5 lineto
37060.7 29802 lineto
37004.4 30027 lineto
37004.4 30308.2 lineto
37060.7 30533.2 lineto
37116.9 30645.7 lineto
37173.2 30701.9 lineto
37285.6 30758.2 lineto
stroke
newpath
38185.5 29689.5 moveto
38241.8 29633.3 lineto
38185.5 29577.1 lineto
38129.3 29633.3 lineto
38185.5 29689.5 lineto
38185.5 29577.1 lineto
stroke
newpath
38972.9 30758.2 moveto
39085.4 30758.2 lineto
39197.9 30701.9 lineto
39254.2 30645.7 lineto
39310.4 30533.2 lineto
39366.6 30308.2 lineto
39366.6 30027 lineto
39310.4 29802 lineto
39254.2 29689.5 lineto
39197.9 29633.3 lineto
39085.4 29577.1 lineto
38972.9 29577.1 lineto
38860.5 29633.3 lineto
38804.2 29689.5 lineto
38748 29802 lineto
38691.7 30027 lineto
38691.7 30308.2 lineto
38748 30533.2 lineto
38804.2 30645.7 lineto
38860.5 30701.9 lineto
38972.9 30758.2 lineto
stroke
newpath
39760.3 30758.2 moveto
40491.5 30758.2 lineto
40097.8 30308.2 lineto
40266.5 30308.2 lineto
40379 30252 lineto
40435.3 30195.7 lineto
40491.5 30083.2 lineto
40491.5 29802 lineto
40435.3 29689.5 lineto
40379 29633.3 lineto
40266.5 29577.1 lineto
39929.1 29577.1 lineto
39816.6 29633.3 lineto
39760.3 29689.5 lineto
stroke
newpath
41222.7 30758.2 moveto
41335.1 30758.2 lineto
41447.6 30701.9 lineto
41503.9 30645.7 lineto
41560.1 30533.2 lineto
41616.4 30308.2 lineto
41616.4 30027 lineto
41560.1 29802 lineto
41503.9 29689.5 lineto
41447.6 29633.3 lineto
41335.1 29577.1 lineto
41222.7 29577.1 lineto
41110.2 29633.3 lineto
41053.9 29689.5 lineto
40997.7 29802 lineto
40941.4 30027 lineto
40941.4 30308.2 lineto
40997.7 30533.2 lineto
41053.9 30645.7 lineto
41110.2 30701.9 lineto
41222.7 30758.2 lineto
stroke
newpath
42066.3 30758.2 moveto
42066.3 30533.2 lineto
stroke
newpath
42516.2 30758.2 moveto
42516.2 30533.2 lineto
stroke
newpath
44259.8 29127.1 moveto
44203.5 29183.4 lineto
44091 29352.1 lineto
44034.8 29464.6 lineto
43978.6 29633.3 lineto
43922.3 29914.5 lineto
43922.3 30139.5 lineto
43978.6 30420.7 lineto
44034.8 30589.4 lineto
44091 30701.9 lineto
44203.5 30870.7 lineto
44259.8 30926.9 lineto
stroke
newpath
45272.1 30758.2 moveto
44709.7 30758.2 lineto
44653.5 30195.7 lineto
44709.7 30252 lineto
44822.2 30308.2 lineto
45103.4 30308.2 lineto
45215.9 30252 lineto
45272.1 30195.7 lineto
45328.4 30083.2 lineto
45328.4 29802 lineto
45272.1 29689.5 lineto
45215.9 29633.3 lineto
45103.4 29577.1 lineto
44822.2 29577.1 lineto
44709.7 29633.3 lineto
44653.5 29689.5 lineto
stroke
newpath
46453.3 29577.1 moveto
45778.3 29577.1 lineto
stroke
newpath
46115.8 29577.1 moveto
46115.8 30758.2 lineto
46003.3 30589.4 lineto
45890.8 30477 lineto
45778.3 30420.7 lineto
stroke
newpath
47859.3 29577.1 moveto
47859.3 30758.2 lineto
stroke
newpath
48365.5 29577.1 moveto
48365.5 30195.7 lineto
48309.3 30308.2 lineto
48196.8 30364.5 lineto
48028.1 30364.5 lineto
47915.6 30308.2 lineto
47859.3 30252 lineto
stroke
newpath
49096.7 29577.1 moveto
48984.2 29633.3 lineto
48927.9 29689.5 lineto
48871.7 29802 lineto
48871.7 30139.5 lineto
48927.9 30252 lineto
48984.2 30308.2 lineto
49096.7 30364.5 lineto
49265.4 30364.5 lineto
49377.9 30308.2 lineto
49434.1 30252 lineto
49490.4 30139.5 lineto
49490.4 29802 lineto
49434.1 29689.5 lineto
49377.9 29633.3 lineto
49265.4 29577.1 lineto
49096.7 29577.1 lineto
stroke
newpath
50165.3 29577.1 moveto
50052.8 29633.3 lineto
49996.6 29745.8 lineto
49996.6 30758.2 lineto
stroke
newpath
51065.2 29633.3 moveto
50952.7 29577.1 lineto
50727.7 29577.1 lineto
50615.2 29633.3 lineto
50559 29745.8 lineto
50559 30195.7 lineto
50615.2 30308.2 lineto
50727.7 30364.5 lineto
50952.7 30364.5 lineto
51065.2 30308.2 lineto
51121.4 30195.7 lineto
51121.4 30083.2 lineto
50559 29970.8 lineto
stroke
newpath
51571.4 29633.3 moveto
51683.8 29577.1 lineto
51908.8 29577.1 lineto
52021.3 29633.3 lineto
52077.5 29745.8 lineto
52077.5 29802 lineto
52021.3 29914.5 lineto
51908.8 29970.8 lineto
51740.1 29970.8 lineto
51627.6 30027 lineto
51571.4 30139.5 lineto
51571.4 30195.7 lineto
51627.6 30308.2 lineto
51740.1 30364.5 lineto
51908.8 30364.5 lineto
52021.3 30308.2 lineto
stroke
newpath
52471.2 29127.1 moveto
52527.5 29183.4 lineto
52640 29352.1 lineto
52696.2 29464.6 lineto
52752.5 29633.3 lineto
52808.7 29914.5 lineto
52808.7 30139.5 lineto
52752.5 30420.7 lineto
52696.2 30589.4 lineto
52640 30701.9 lineto
52527.5 30870.7 lineto
52471.2 30926.9 lineto
stroke
newpath
25752 28414.1 moveto
25752 28690.5 lineto
25475.7 28690.5 lineto
25475.7 28414.1 lineto
25752 28414.1 lineto
poly0
0 0 0 setrgbcolor
0 0 0 setrgbcolor
newpath
27555.6 28018 moveto
26880.7 28018 lineto
stroke
newpath
27218.2 28018 moveto
27218.2 29199.1 lineto
27105.7 29030.4 lineto
26993.2 28917.9 lineto
26880.7 28861.7 lineto
stroke
newpath
28061.8 28130.5 moveto
28118 28074.3 lineto
28061.8 28018 lineto
28005.6 28074.3 lineto
28061.8 28130.5 lineto
28061.8 28018 lineto
stroke
newpath
28849.2 29199.1 moveto
28961.7 29199.1 lineto
29074.2 29142.9 lineto
29130.4 29086.6 lineto
29186.7 28974.1 lineto
29242.9 28749.2 lineto
29242.9 28468 lineto
29186.7 28243 lineto
29130.4 28130.5 lineto
29074.2 28074.3 lineto
28961.7 28018 lineto
28849.2 28018 lineto
28736.7 28074.3 lineto
28680.5 28130.5 lineto
28624.2 28243 lineto
28568 28468 lineto
28568 28749.2 lineto
28624.2 28974.1 lineto
28680.5 29086.6 lineto
28736.7 29142.9 lineto
28849.2 29199.1 lineto
stroke
newpath
29974.1 29199.1 moveto
30086.5 29199.1 lineto
30199 29142.9 lineto
30255.3 29086.6 lineto
30311.5 28974.1 lineto
30367.8 28749.2 lineto
30367.8 28468 lineto
30311.5 28243 lineto
30255.3 28130.5 lineto
30199 28074.3 lineto
30086.5 28018 lineto
29974.1 28018 lineto
29861.6 28074.3 lineto
29805.3 28130.5 lineto
29749.1 28243 lineto
29692.8 28468 lineto
29692.8 28749.2 lineto
29749.1 28974.1 lineto
29805.3 29086.6 lineto
29861.6 29142.9 lineto
29974.1 29199.1 lineto
stroke
newpath
30874 28018 moveto
30874 28805.4 lineto
stroke
newpath
30874 28692.9 moveto
30930.2 28749.2 lineto
31042.7 28805.4 lineto
31211.4 28805.4 lineto
31323.9 28749.2 lineto
31380.1 28636.7 lineto
31380.1 28018 lineto
stroke
newpath
31380.1 28636.7 moveto
31436.4 28749.2 lineto
31548.9 28805.4 lineto
31717.6 28805.4 lineto
31830.1 28749.2 lineto
31886.3 28636.7 lineto
31886.3 28018 lineto
stroke
newpath
32448.8 28018 moveto
32448.8 28805.4 lineto
stroke
newpath
32448.8 28692.9 moveto
32505 28749.2 lineto
32617.5 28805.4 lineto
32786.2 28805.4 lineto
32898.7 28749.2 lineto
32954.9 28636.7 lineto
32954.9 28018 lineto
stroke
newpath
32954.9 28636.7 moveto
33011.2 28749.2 lineto
33123.7 28805.4 lineto
33292.4 28805.4 lineto
33404.9 28749.2 lineto
33461.1 28636.7 lineto
33461.1 28018 lineto
stroke
newpath
35767.1 29255.4 moveto
34754.7 27736.8 lineto
stroke
newpath
37285.6 29199.1 moveto
37398.1 29199.1 lineto
37510.6 29142.9 lineto
37566.9 29086.6 lineto
37623.1 28974.1 lineto
37679.3 28749.2 lineto
37679.3 28468 lineto
37623.1 28243 lineto
37566.9 28130.5 lineto
37510.6 28074.3 lineto
37398.1 28018 lineto
37285.6 28018 lineto
37173.2 28074.3 lineto
37116.9 28130.5 lineto
37060.7 28243 lineto
37004.4 28468 lineto
37004.4 28749.2 lineto
37060.7 28974.1 lineto
37116.9 29086.6 lineto
37173.2 29142.9 lineto
37285.6 29199.1 lineto
stroke
newpath
38185.5 28130.5 moveto
38241.8 28074.3 lineto
38185.5 28018 lineto
38129.3 28074.3 lineto
38185.5 28130.5 lineto
38185.5 28018 lineto
stroke
newpath
38972.9 29199.1 moveto
39085.4 29199.1 lineto
39197.9 29142.9 lineto
39254.2 29086.6 lineto
39310.4 28974.1 lineto
39366.6 28749.2 lineto
39366.6 28468 lineto
39310.4 28243 lineto
39254.2 28130.5 lineto
39197.9 28074.3 lineto
39085.4 28018 lineto
38972.9 28018 lineto
38860.5 28074.3 lineto
38804.2 28130.5 lineto
38748 28243 lineto
38691.7 28468 lineto
38691.7 28749.2 lineto
38748 28974.1 lineto
38804.2 29086.6 lineto
38860.5 29142.9 lineto
38972.9 29199.1 lineto
stroke
newpath
39760.3 29199.1 moveto
40491.5 29199.1 lineto
40097.8 28749.2 lineto
40266.5 28749.2 lineto
40379 28692.9 lineto
40435.3 28636.7 lineto
40491.5 28524.2 lineto
40491.5 28243 lineto
40435.3 28130.5 lineto
40379 28074.3 lineto
40266.5 28018 lineto
39929.1 28018 lineto
39816.6 28074.3 lineto
39760.3 28130.5 lineto
stroke
newpath
41053.9 28018 moveto
41278.9 28018 lineto
41391.4 28074.3 lineto
41447.6 28130.5 lineto
41560.1 28299.2 lineto
41616.4 28524.2 lineto
41616.4 28974.1 lineto
41560.1 29086.6 lineto
41503.9 29142.9 lineto
41391.4 29199.1 lineto
41166.4 29199.1 lineto
41053.9 29142.9 lineto
40997.7 29086.6 lineto
40941.4 28974.1 lineto
40941.4 28692.9 lineto
40997.7 28580.4 lineto
41053.9 28524.2 lineto
41166.4 28468 lineto
41391.4 28468 lineto
41503.9 28524.2 lineto
41560.1 28580.4 lineto
41616.4 28692.9 lineto
stroke
newpath
42066.3 29199.1 moveto
42066.3 28974.1 lineto
stroke
newpath
42516.2 29199.1 moveto
42516.2 28974.1 lineto
stroke
newpath
44259.8 27568.1 moveto
44203.5 27624.3 lineto
44091 27793 lineto
44034.8 27905.5 lineto
43978.6 28074.3 lineto
43922.3 28355.5 lineto
43922.3 28580.4 lineto
43978.6 28861.7 lineto
44034.8 29030.4 lineto
44091 29142.9 lineto
44203.5 29311.6 lineto
44259.8 29367.8 lineto
stroke
newpath
45328.4 28018 moveto
44653.5 28018 lineto
stroke
newpath
44990.9 28018 moveto
44990.9 29199.1 lineto
44878.4 29030.4 lineto
44766 28917.9 lineto
44653.5 28861.7 lineto
stroke
newpath
46453.3 28018 moveto
45778.3 28018 lineto
stroke
newpath
46115.8 28018 moveto
46115.8 29199.1 lineto
46003.3 29030.4 lineto
45890.8 28917.9 lineto
45778.3 28861.7 lineto
stroke
newpath
47521.9 29199.1 moveto
46959.4 29199.1 lineto
46903.2 28636.7 lineto
46959.4 28692.9 lineto
47071.9 28749.2 lineto
47353.1 28749.2 lineto
47465.6 28692.9 lineto
47521.9 28636.7 lineto
47578.1 28524.2 lineto
47578.1 28243 lineto
47521.9 28130.5 lineto
47465.6 28074.3 lineto
47353.1 28018 lineto
47071.9 28018 lineto
46959.4 28074.3 lineto
46903.2 28130.5 lineto
stroke
newpath
48984.2 28018 moveto
48984.2 29199.1 lineto
stroke
newpath
49490.4 28018 moveto
49490.4 28636.7 lineto
49434.1 28749.2 lineto
49321.6 28805.4 lineto
49152.9 28805.4 lineto
49040.4 28749.2 lineto
48984.2 28692.9 lineto
stroke
newpath
50221.5 28018 moveto
50109 28074.3 lineto
50052.8 28130.5 lineto
49996.6 28243 lineto
49996.6 28580.4 lineto
50052.8 28692.9 lineto
50109 28749.2 lineto
50221.5 28805.4 lineto
50390.3 28805.4 lineto
50502.7 28749.2 lineto
50559 28692.9 lineto
50615.2 28580.4 lineto
50615.2 28243 lineto
50559 28130.5 lineto
50502.7 28074.3 lineto
50390.3 28018 lineto
50221.5 28018 lineto
stroke
newpath
51290.1 28018 moveto
51177.7 28074.3 lineto
51121.4 28186.7 lineto
51121.4 29199.1 lineto
stroke
newpath
52190 28074.3 moveto
52077.5 28018 lineto
51852.6 28018 lineto
51740.1 28074.3 lineto
51683.8 28186.7 lineto
51683.8 28636.7 lineto
51740.1 28749.2 lineto
51852.6 28805.4 lineto
52077.5 28805.4 lineto
52190 28749.2 lineto
52246.3 28636.7 lineto
52246.3 28524.2 lineto
51683.8 28411.7 lineto
stroke
newpath
52696.2 28074.3 moveto
52808.7 28018 lineto
53033.7 28018 lineto
53146.2 28074.3 lineto
53202.4 28186.7 lineto
53202.4 28243 lineto
53146.2 28355.5 lineto
53033.7 28411.7 lineto
52864.9 28411.7 lineto
52752.5 28468 lineto
52696.2 28580.4 lineto
52696.2 28636.7 lineto
52752.5 28749.2 lineto
52864.9 28805.4 lineto
53033.7 28805.4 lineto
53146.2 28749.2 lineto
stroke
newpath
53596.1 27568.1 moveto
53652.4 27624.3 lineto
53764.8 27793 lineto
53821.1 27905.5 lineto
53877.3 28074.3 lineto
53933.6 28355.5 lineto
53933.6 28580.4 lineto
53877.3 28861.7 lineto
53821.1 29030.4 lineto
53764.8 29142.9 lineto
53652.4 29311.6 lineto
53596.1 29367.8 lineto
stroke
newpath
25610.7 26794.7 moveto
25809.3 26993.3 lineto
25610.7 27191.8 lineto
25412.2 26993.3 lineto
25610.7 26794.7 lineto
poly0
0 0 0 setrgbcolor
0 0 0 setrgbcolor
newpath
27555.6 26459 moveto
26880.7 26459 lineto
stroke
newpath
27218.2 26459 moveto
27218.2 27640.1 lineto
27105.7 27471.3 lineto
26993.2 27358.8 lineto
26880.7 27302.6 lineto
stroke
newpath
28061.8 26571.4 moveto
28118 26515.2 lineto
28061.8 26459 lineto
28005.6 26515.2 lineto
28061.8 26571.4 lineto
28061.8 26459 lineto
stroke
newpath
28849.2 27640.1 moveto
28961.7 27640.1 lineto
29074.2 27583.8 lineto
29130.4 27527.6 lineto
29186.7 27415.1 lineto
29242.9 27190.1 lineto
29242.9 26908.9 lineto
29186.7 26683.9 lineto
29130.4 26571.4 lineto
29074.2 26515.2 lineto
28961.7 26459 lineto
28849.2 26459 lineto
28736.7 26515.2 lineto
28680.5 26571.4 lineto
28624.2 26683.9 lineto
28568 26908.9 lineto
28568 27190.1 lineto
28624.2 27415.1 lineto
28680.5 27527.6 lineto
28736.7 27583.8 lineto
28849.2 27640.1 lineto
stroke
newpath
29692.8 27527.6 moveto
29749.1 27583.8 lineto
29861.6 27640.1 lineto
30142.8 27640.1 lineto
30255.3 27583.8 lineto
30311.5 27527.6 lineto
30367.8 27415.1 lineto
30367.8 27302.6 lineto
30311.5 27133.9 lineto
29636.6 26459 lineto
30367.8 26459 lineto
stroke
newpath
30874 26459 moveto
30874 27246.4 lineto
stroke
newpath
30874 27133.9 moveto
30930.2 27190.1 lineto
31042.7 27246.4 lineto
31211.4 27246.4 lineto
31323.9 27190.1 lineto
31380.1 27077.6 lineto
31380.1 26459 lineto
stroke
newpath
31380.1 27077.6 moveto
31436.4 27190.1 lineto
31548.9 27246.4 lineto
31717.6 27246.4 lineto
31830.1 27190.1 lineto
31886.3 27077.6 lineto
31886.3 26459 lineto
stroke
newpath
32448.8 26459 moveto
32448.8 27246.4 lineto
stroke
newpath
32448.8 27133.9 moveto
32505 27190.1 lineto
32617.5 27246.4 lineto
32786.2 27246.4 lineto
32898.7 27190.1 lineto
32954.9 27077.6 lineto
32954.9 26459 lineto
stroke
newpath
32954.9 27077.6 moveto
33011.2 27190.1 lineto
33123.7 27246.4 lineto
33292.4 27246.4 lineto
33404.9 27190.1 lineto
33461.1 27077.6 lineto
33461.1 26459 lineto
stroke
newpath
35767.1 27696.3 moveto
34754.7 26177.7 lineto
stroke
newpath
37285.6 27640.1 moveto
37398.1 27640.1 lineto
37510.6 27583.8 lineto
37566.9 27527.6 lineto
37623.1 27415.1 lineto
37679.3 27190.1 lineto
37679.3 26908.9 lineto
37623.1 26683.9 lineto
37566.9 26571.4 lineto
37510.6 26515.2 lineto
37398.1 26459 lineto
37285.6 26459 lineto
37173.2 26515.2 lineto
37116.9 26571.4 lineto
37060.7 26683.9 lineto
37004.4 26908.9 lineto
37004.4 27190.1 lineto
37060.7 27415.1 lineto
37116.9 27527.6 lineto
37173.2 27583.8 lineto
37285.6 27640.1 lineto
stroke
newpath
38185.5 26571.4 moveto
38241.8 26515.2 lineto
38185.5 26459 lineto
38129.3 26515.2 lineto
38185.5 26571.4 lineto
38185.5 26459 lineto
stroke
newpath
38972.9 27640.1 moveto
39085.4 27640.1 lineto
39197.9 27583.8 lineto
39254.2 27527.6 lineto
39310.4 27415.1 lineto
39366.6 27190.1 lineto
39366.6 26908.9 lineto
39310.4 26683.9 lineto
39254.2 26571.4 lineto
39197.9 26515.2 lineto
39085.4 26459 lineto
38972.9 26459 lineto
38860.5 26515.2 lineto
38804.2 26571.4 lineto
38748 26683.9 lineto
38691.7 26908.9 lineto
38691.7 27190.1 lineto
38748 27415.1 lineto
38804.2 27527.6 lineto
38860.5 27583.8 lineto
38972.9 27640.1 lineto
stroke
newpath
40379 27246.4 moveto
40379 26459 lineto
stroke
newpath
40097.8 27696.3 moveto
39816.6 26852.7 lineto
40547.7 26852.7 lineto
stroke
newpath
41222.7 27640.1 moveto
41335.1 27640.1 lineto
41447.6 27583.8 lineto
41503.9 27527.6 lineto
41560.1 27415.1 lineto
41616.4 27190.1 lineto
41616.4 26908.9 lineto
41560.1 26683.9 lineto
41503.9 26571.4 lineto
41447.6 26515.2 lineto
41335.1 26459 lineto
41222.7 26459 lineto
41110.2 26515.2 lineto
41053.9 26571.4 lineto
40997.7 26683.9 lineto
40941.4 26908.9 lineto
40941.4 27190.1 lineto
40997.7 27415.1 lineto
41053.9 27527.6 lineto
41110.2 27583.8 lineto
41222.7 27640.1 lineto
stroke
newpath
42066.3 27640.1 moveto
42066.3 27415.1 lineto
stroke
newpath
42516.2 27640.1 moveto
42516.2 27415.1 lineto
stroke
newpath
44259.8 26009 moveto
44203.5 26065.3 lineto
44091 26234 lineto
44034.8 26346.5 lineto
43978.6 26515.2 lineto
43922.3 26796.4 lineto
43922.3 27021.4 lineto
43978.6 27302.6 lineto
44034.8 27471.3 lineto
44091 27583.8 lineto
44203.5 27752.5 lineto
44259.8 27808.8 lineto
stroke
newpath
44766 26459 moveto
44990.9 26459 lineto
45103.4 26515.2 lineto
45159.7 26571.4 lineto
45272.1 26740.2 lineto
45328.4 26965.1 lineto
45328.4 27415.1 lineto
45272.1 27527.6 lineto
45215.9 27583.8 lineto
45103.4 27640.1 lineto
44878.4 27640.1 lineto
44766 27583.8 lineto
44709.7 27527.6 lineto
44653.5 27415.1 lineto
44653.5 27133.9 lineto
44709.7 27021.4 lineto
44766 26965.1 lineto
44878.4 26908.9 lineto
45103.4 26908.9 lineto
45215.9 26965.1 lineto
45272.1 27021.4 lineto
45328.4 27133.9 lineto
stroke
newpath
45778.3 27527.6 moveto
45834.6 27583.8 lineto
45947.1 27640.1 lineto
46228.3 27640.1 lineto
46340.8 27583.8 lineto
46397 27527.6 lineto
46453.3 27415.1 lineto
46453.3 27302.6 lineto
46397 27133.9 lineto
45722.1 26459 lineto
46453.3 26459 lineto
stroke
newpath
47859.3 26459 moveto
47859.3 27640.1 lineto
stroke
newpath
48365.5 26459 moveto
48365.5 27077.6 lineto
48309.3 27190.1 lineto
48196.8 27246.4 lineto
48028.1 27246.4 lineto
47915.6 27190.1 lineto
47859.3 27133.9 lineto
stroke
newpath
49096.7 26459 moveto
48984.2 26515.2 lineto
48927.9 26571.4 lineto
48871.7 26683.9 lineto
48871.7 27021.4 lineto
48927.9 27133.9 lineto
48984.2 27190.1 lineto
49096.7 27246.4 lineto
49265.4 27246.4 lineto
49377.9 27190.1 lineto
49434.1 27133.9 lineto
49490.4 27021.4 lineto
49490.4 26683.9 lineto
49434.1 26571.4 lineto
49377.9 26515.2 lineto
49265.4 26459 lineto
49096.7 26459 lineto
stroke
newpath
50165.3 26459 moveto
50052.8 26515.2 lineto
49996.6 26627.7 lineto
49996.6 27640.1 lineto
stroke
newpath
51065.2 26515.2 moveto
50952.7 26459 lineto
50727.7 26459 lineto
50615.2 26515.2 lineto
50559 26627.7 lineto
50559 27077.6 lineto
50615.2 27190.1 lineto
50727.7 27246.4 lineto
50952.7 27246.4 lineto
51065.2 27190.1 lineto
51121.4 27077.6 lineto
51121.4 26965.1 lineto
50559 26852.7 lineto
stroke
newpath
51571.4 26515.2 moveto
51683.8 26459 lineto
51908.8 26459 lineto
52021.3 26515.2 lineto
52077.5 26627.7 lineto
52077.5 26683.9 lineto
52021.3 26796.4 lineto
51908.8 26852.7 lineto
51740.1 26852.7 lineto
51627.6 26908.9 lineto
51571.4 27021.4 lineto
51571.4 27077.6 lineto
51627.6 27190.1 lineto
51740.1 27246.4 lineto
51908.8 27246.4 lineto
52021.3 27190.1 lineto
stroke
newpath
52471.2 26009 moveto
52527.5 26065.3 lineto
52640 26234 lineto
52696.2 26346.5 lineto
52752.5 26515.2 lineto
52808.7 26796.4 lineto
52808.7 27021.4 lineto
52752.5 27302.6 lineto
52696.2 27471.3 lineto
52640 27583.8 lineto
52527.5 27752.5 lineto
52471.2 27808.8 lineto
stroke
newpath
24949.4 25864.1 moveto
25809.3 25004.3 lineto
stroke
newpath
25809.3 25864.1 moveto
24949.4 25004.3 lineto
stroke
25379.3 25434.2 429.925 cir0
0 0 0 setrgbcolor
0 0 0 setrgbcolor
newpath
26880.7 25968.5 moveto
26936.9 26024.8 lineto
27049.4 26081 lineto
27330.6 26081 lineto
27443.1 26024.8 lineto
27499.4 25968.5 lineto
27555.6 25856 lineto
27555.6 25743.5 lineto
27499.4 25574.8 lineto
26824.5 24899.9 lineto
27555.6 24899.9 lineto
stroke
newpath
28061.8 25012.4 moveto
28118 24956.1 lineto
28061.8 24899.9 lineto
28005.6 24956.1 lineto
28061.8 25012.4 lineto
28061.8 24899.9 lineto
stroke
newpath
28568 25968.5 moveto
28624.2 26024.8 lineto
28736.7 26081 lineto
29017.9 26081 lineto
29130.4 26024.8 lineto
29186.7 25968.5 lineto
29242.9 25856 lineto
29242.9 25743.5 lineto
29186.7 25574.8 lineto
28511.7 24899.9 lineto
29242.9 24899.9 lineto
stroke
newpath
29974.1 26081 moveto
30086.5 26081 lineto
30199 26024.8 lineto
30255.3 25968.5 lineto
30311.5 25856 lineto
30367.8 25631.1 lineto
30367.8 25349.8 lineto
30311.5 25124.9 lineto
30255.3 25012.4 lineto
30199 24956.1 lineto
30086.5 24899.9 lineto
29974.1 24899.9 lineto
29861.6 24956.1 lineto
29805.3 25012.4 lineto
29749.1 25124.9 lineto
29692.8 25349.8 lineto
29692.8 25631.1 lineto
29749.1 25856 lineto
29805.3 25968.5 lineto
29861.6 26024.8 lineto
29974.1 26081 lineto
stroke
newpath
30874 24899.9 moveto
30874 25687.3 lineto
stroke
newpath
30874 25574.8 moveto
30930.2 25631.1 lineto
31042.7 25687.3 lineto
31211.4 25687.3 lineto
31323.9 25631.1 lineto
31380.1 25518.6 lineto
31380.1 24899.9 lineto
stroke
newpath
31380.1 25518.6 moveto
31436.4 25631.1 lineto
31548.9 25687.3 lineto
31717.6 25687.3 lineto
31830.1 25631.1 lineto
31886.3 25518.6 lineto
31886.3 24899.9 lineto
stroke
newpath
32448.8 24899.9 moveto
32448.8 25687.3 lineto
stroke
newpath
32448.8 25574.8 moveto
32505 25631.1 lineto
32617.5 25687.3 lineto
32786.2 25687.3 lineto
32898.7 25631.1 lineto
32954.9 25518.6 lineto
32954.9 24899.9 lineto
stroke
newpath
32954.9 25518.6 moveto
33011.2 25631.1 lineto
33123.7 25687.3 lineto
33292.4 25687.3 lineto
33404.9 25631.1 lineto
33461.1 25518.6 lineto
33461.1 24899.9 lineto
stroke
newpath
35767.1 26137.2 moveto
34754.7 24618.7 lineto
stroke
newpath
37285.6 26081 moveto
37398.1 26081 lineto
37510.6 26024.8 lineto
37566.9 25968.5 lineto
37623.1 25856 lineto
37679.3 25631.1 lineto
37679.3 25349.8 lineto
37623.1 25124.9 lineto
37566.9 25012.4 lineto
37510.6 24956.1 lineto
37398.1 24899.9 lineto
37285.6 24899.9 lineto
37173.2 24956.1 lineto
37116.9 25012.4 lineto
37060.7 25124.9 lineto
37004.4 25349.8 lineto
37004.4 25631.1 lineto
37060.7 25856 lineto
37116.9 25968.5 lineto
37173.2 26024.8 lineto
37285.6 26081 lineto
stroke
newpath
38185.5 25012.4 moveto
38241.8 24956.1 lineto
38185.5 24899.9 lineto
38129.3 24956.1 lineto
38185.5 25012.4 lineto
38185.5 24899.9 lineto
stroke
newpath
38972.9 26081 moveto
39085.4 26081 lineto
39197.9 26024.8 lineto
39254.2 25968.5 lineto
39310.4 25856 lineto
39366.6 25631.1 lineto
39366.6 25349.8 lineto
39310.4 25124.9 lineto
39254.2 25012.4 lineto
39197.9 24956.1 lineto
39085.4 24899.9 lineto
38972.9 24899.9 lineto
38860.5 24956.1 lineto
38804.2 25012.4 lineto
38748 25124.9 lineto
38691.7 25349.8 lineto
38691.7 25631.1 lineto
38748 25856 lineto
38804.2 25968.5 lineto
38860.5 26024.8 lineto
38972.9 26081 lineto
stroke
newpath
40041.6 25574.8 moveto
39929.1 25631.1 lineto
39872.8 25687.3 lineto
39816.6 25799.8 lineto
39816.6 25856 lineto
39872.8 25968.5 lineto
39929.1 26024.8 lineto
40041.6 26081 lineto
40266.5 26081 lineto
40379 26024.8 lineto
40435.3 25968.5 lineto
40491.5 25856 lineto
40491.5 25799.8 lineto
40435.3 25687.3 lineto
40379 25631.1 lineto
40266.5 25574.8 lineto
40041.6 25574.8 lineto
39929.1 25518.6 lineto
39872.8 25462.3 lineto
39816.6 25349.8 lineto
39816.6 25124.9 lineto
39872.8 25012.4 lineto
39929.1 24956.1 lineto
40041.6 24899.9 lineto
40266.5 24899.9 lineto
40379 24956.1 lineto
40435.3 25012.4 lineto
40491.5 25124.9 lineto
40491.5 25349.8 lineto
40435.3 25462.3 lineto
40379 25518.6 lineto
40266.5 25574.8 lineto
stroke
newpath
40885.2 26081 moveto
41672.6 26081 lineto
41166.4 24899.9 lineto
stroke
newpath
42066.3 26081 moveto
42066.3 25856 lineto
stroke
newpath
42516.2 26081 moveto
42516.2 25856 lineto
stroke
newpath
44259.8 24450 moveto
44203.5 24506.2 lineto
44091 24674.9 lineto
44034.8 24787.4 lineto
43978.6 24956.1 lineto
43922.3 25237.4 lineto
43922.3 25462.3 lineto
43978.6 25743.5 lineto
44034.8 25912.3 lineto
44091 26024.8 lineto
44203.5 26193.5 lineto
44259.8 26249.7 lineto
stroke
newpath
44597.2 26081 moveto
45384.6 26081 lineto
44878.4 24899.9 lineto
stroke
newpath
46734.5 24899.9 moveto
46734.5 26081 lineto
stroke
newpath
47240.7 24899.9 moveto
47240.7 25518.6 lineto
47184.4 25631.1 lineto
47071.9 25687.3 lineto
46903.2 25687.3 lineto
46790.7 25631.1 lineto
46734.5 25574.8 lineto
stroke
newpath
47971.8 24899.9 moveto
47859.3 24956.1 lineto
47803.1 25012.4 lineto
47746.8 25124.9 lineto
47746.8 25462.3 lineto
47803.1 25574.8 lineto
47859.3 25631.1 lineto
47971.8 25687.3 lineto
48140.5 25687.3 lineto
48253 25631.1 lineto
48309.3 25574.8 lineto
48365.5 25462.3 lineto
48365.5 25124.9 lineto
48309.3 25012.4 lineto
48253 24956.1 lineto
48140.5 24899.9 lineto
47971.8 24899.9 lineto
stroke
newpath
49040.4 24899.9 moveto
48927.9 24956.1 lineto
48871.7 25068.6 lineto
48871.7 26081 lineto
stroke
newpath
49940.3 24956.1 moveto
49827.8 24899.9 lineto
49602.9 24899.9 lineto
49490.4 24956.1 lineto
49434.1 25068.6 lineto
49434.1 25518.6 lineto
49490.4 25631.1 lineto
49602.9 25687.3 lineto
49827.8 25687.3 lineto
49940.3 25631.1 lineto
49996.6 25518.6 lineto
49996.6 25406.1 lineto
49434.1 25293.6 lineto
stroke
newpath
50446.5 24956.1 moveto
50559 24899.9 lineto
50784 24899.9 lineto
50896.4 24956.1 lineto
50952.7 25068.6 lineto
50952.7 25124.9 lineto
50896.4 25237.4 lineto
50784 25293.6 lineto
50615.2 25293.6 lineto
50502.7 25349.8 lineto
50446.5 25462.3 lineto
50446.5 25518.6 lineto
50502.7 25631.1 lineto
50615.2 25687.3 lineto
50784 25687.3 lineto
50896.4 25631.1 lineto
stroke
newpath
51346.4 24450 moveto
51402.6 24506.2 lineto
51515.1 24674.9 lineto
51571.4 24787.4 lineto
51627.6 24956.1 lineto
51683.8 25237.4 lineto
51683.8 25462.3 lineto
51627.6 25743.5 lineto
51571.4 25912.3 lineto
51515.1 26024.8 lineto
51402.6 26193.5 lineto
51346.4 26249.7 lineto
stroke
showpage
grestore
%%EOF
