%!PS-Adobe-3.0
%%Creator: PCBNEW
%%CreationDate: Sat Feb 06 22:00:02 2021
%%Title: C:\Users\Genesis\Desktop\ArmRev02\PCB_and_Schematic\Arm02\gerber\Arm02-NPTH-drl_map.ps
%%Pages: 1
%%PageOrder: Ascend
%%BoundingBox: 0 0 596 842
%%DocumentMedia: A4 595 842 0 () ()
%%Orientation: Landscape
%%EndComments
%%BeginProlog
/line { newpath moveto lineto stroke } bind def
/cir0 { newpath 0 360 arc stroke } bind def
/cir1 { newpath 0 360 arc gsave fill grestore stroke } bind def
/cir2 { newpath 0 360 arc gsave fill grestore stroke } bind def
/arc0 { newpath arc stroke } bind def
/arc1 { newpath 4 index 4 index moveto arc closepath gsave fill
    grestore stroke } bind def
/arc2 { newpath 4 index 4 index moveto arc closepath gsave fill
    grestore stroke } bind def
/poly0 { stroke } bind def
/poly1 { closepath gsave fill grestore stroke } bind def
/poly2 { closepath gsave fill grestore stroke } bind def
/rect0 { rectstroke } bind def
/rect1 { rectfill } bind def
/rect2 { rectfill } bind def
/linemode0 { 0 setlinecap 0 setlinejoin 0 setlinewidth } bind def
/linemode1 { 1 setlinecap 1 setlinejoin } bind def
/dashedline { [200] 100 setdash } bind def
/solidline { [] 0 setdash } bind def
/phantomshow { moveto
    /KicadFont findfont 0.000001 scalefont setfont
    show } bind def
/textshow { gsave
    findfont exch scalefont setfont concat 1 scale 0 0 moveto show
    } bind def
/reencodefont {
  findfont dup length dict begin
  { 1 index /FID ne
    { def }
    { pop pop } ifelse
  } forall
  /Encoding ISOLatin1Encoding def
  currentdict
  end } bind def
/KicadFont /Helvetica reencodefont definefont pop
/KicadFont-Bold /Helvetica-Bold reencodefont definefont pop
/KicadFont-Oblique /Helvetica-Oblique reencodefont definefont pop
/KicadFont-BoldOblique /Helvetica-BoldOblique reencodefont definefont pop
%%EndProlog
%%Page: 1 1
%%BeginPageSetup
gsave
0.0072 0.0072 scale
linemode1
82680 0 translate 90 rotate
49.6368 setlinewidth
%%EndPageSetup
0 0 0 setrgbcolor
39.0841 setlinewidth
newpath
91101.2 78723.4 moveto
91101.2 37028.6 lineto
stroke
0 0 0 setrgbcolor
newpath
25828.8 78723.4 moveto
91101.2 78723.4 lineto
stroke
0 0 0 setrgbcolor
newpath
25828.8 37028.6 moveto
25828.8 78723.4 lineto
stroke
0 0 0 setrgbcolor
newpath
91101.2 37028.6 moveto
25828.8 37028.6 lineto
stroke
78.74 setlinewidth
newpath
89467.5 74879.5 moveto
89858.3 74488.7 lineto
stroke
newpath
89858.3 74879.5 moveto
89467.5 74488.7 lineto
stroke
newpath
89467.5 72534.5 moveto
89858.3 72143.6 lineto
stroke
newpath
89858.3 72534.5 moveto
89467.5 72143.6 lineto
stroke
newpath
78795.6 60912.8 moveto
79186.4 60522 lineto
stroke
newpath
79186.4 60912.8 moveto
78795.6 60522 lineto
stroke
newpath
78795.6 57395.3 moveto
79186.4 57004.4 lineto
stroke
newpath
79186.4 57395.3 moveto
78795.6 57004.4 lineto
stroke
newpath
38607.4 75641.7 moveto
38998.2 75250.8 lineto
stroke
newpath
38998.2 75641.7 moveto
38607.4 75250.8 lineto
stroke
newpath
42124.9 75641.7 moveto
42515.8 75250.8 lineto
stroke
newpath
42515.8 75641.7 moveto
42124.9 75250.8 lineto
stroke
newpath
62433 40997.5 moveto
62823.9 40606.7 lineto
stroke
newpath
62823.9 40997.5 moveto
62433 40606.7 lineto
stroke
newpath
64778.1 40997.5 moveto
65168.9 40606.7 lineto
stroke
newpath
65168.9 40997.5 moveto
64778.1 40606.7 lineto
stroke
newpath
74910.6 40997.5 moveto
75301.4 40606.7 lineto
stroke
newpath
75301.4 40997.5 moveto
74910.6 40606.7 lineto
stroke
newpath
78428.2 40997.5 moveto
78819 40606.7 lineto
stroke
newpath
78819 40997.5 moveto
78428.2 40606.7 lineto
stroke
newpath
82416.7 50557.5 moveto
82807.5 50166.7 lineto
stroke
newpath
82807.5 50557.5 moveto
82416.7 50166.7 lineto
stroke
newpath
82416.7 48212.5 moveto
82807.5 47821.6 lineto
stroke
newpath
82807.5 48212.5 moveto
82416.7 47821.6 lineto
stroke
newpath
89467.5 43608.4 moveto
89858.3 43217.5 lineto
stroke
newpath
89858.3 43608.4 moveto
89467.5 43217.5 lineto
stroke
newpath
89467.5 41263.3 moveto
89858.3 40872.5 lineto
stroke
newpath
89858.3 41263.3 moveto
89467.5 40872.5 lineto
stroke
newpath
65907.6 40997.5 moveto
66298.4 40606.7 lineto
stroke
newpath
66298.4 40997.5 moveto
65907.6 40606.7 lineto
stroke
newpath
68252.6 40997.5 moveto
68643.5 40606.7 lineto
stroke
newpath
68643.5 40997.5 moveto
68252.6 40606.7 lineto
stroke
newpath
75338.6 75641.7 moveto
75729.4 75250.8 lineto
stroke
newpath
75729.4 75641.7 moveto
75338.6 75250.8 lineto
stroke
newpath
78856.1 75641.7 moveto
79247 75250.8 lineto
stroke
newpath
79247 75641.7 moveto
78856.1 75250.8 lineto
stroke
newpath
65411.2 75641.7 moveto
65802.1 75250.8 lineto
stroke
newpath
65802.1 75641.7 moveto
65411.2 75250.8 lineto
stroke
newpath
68928.8 75641.7 moveto
69319.6 75250.8 lineto
stroke
newpath
69319.6 75641.7 moveto
68928.8 75250.8 lineto
stroke
newpath
70374.9 75641.7 moveto
70765.7 75250.8 lineto
stroke
newpath
70765.7 75641.7 moveto
70374.9 75250.8 lineto
stroke
newpath
73892.5 75641.7 moveto
74283.3 75250.8 lineto
stroke
newpath
74283.3 75641.7 moveto
73892.5 75250.8 lineto
stroke
newpath
82416.7 60981.2 moveto
82807.5 60590.4 lineto
stroke
newpath
82807.5 60981.2 moveto
82416.7 60590.4 lineto
stroke
newpath
82416.7 58636.2 moveto
82807.5 58245.3 lineto
stroke
newpath
82807.5 58636.2 moveto
82416.7 58245.3 lineto
stroke
newpath
47542 75641.7 moveto
47932.8 75250.8 lineto
stroke
newpath
47932.8 75641.7 moveto
47542 75250.8 lineto
stroke
newpath
51059.5 75641.7 moveto
51450.4 75250.8 lineto
stroke
newpath
51450.4 75641.7 moveto
51059.5 75250.8 lineto
stroke
newpath
58958.4 40997.5 moveto
59349.3 40606.7 lineto
stroke
newpath
59349.3 40997.5 moveto
58958.4 40606.7 lineto
stroke
newpath
61303.5 40997.5 moveto
61694.3 40606.7 lineto
stroke
newpath
61694.3 40997.5 moveto
61303.5 40606.7 lineto
stroke
newpath
34884.6 40997.5 moveto
35275.4 40606.7 lineto
stroke
newpath
35275.4 40997.5 moveto
34884.6 40606.7 lineto
stroke
newpath
37229.6 40997.5 moveto
37620.5 40606.7 lineto
stroke
newpath
37620.5 40997.5 moveto
37229.6 40606.7 lineto
stroke
newpath
82416.7 71405 moveto
82807.5 71014.1 lineto
stroke
newpath
82807.5 71405 moveto
82416.7 71014.1 lineto
stroke
newpath
82416.7 69059.9 moveto
82807.5 68669.1 lineto
stroke
newpath
82807.5 69059.9 moveto
82416.7 68669.1 lineto
stroke
newpath
82416.7 67930.4 moveto
82807.5 67539.5 lineto
stroke
newpath
82807.5 67930.4 moveto
82416.7 67539.5 lineto
stroke
newpath
82416.7 65585.3 moveto
82807.5 65194.5 lineto
stroke
newpath
82807.5 65585.3 moveto
82416.7 65194.5 lineto
stroke
newpath
82416.7 47082.9 moveto
82807.5 46692.1 lineto
stroke
newpath
82807.5 47082.9 moveto
82416.7 46692.1 lineto
stroke
newpath
82416.7 44737.9 moveto
82807.5 44347 lineto
stroke
newpath
82807.5 44737.9 moveto
82416.7 44347 lineto
stroke
newpath
69382.2 40997.5 moveto
69773 40606.7 lineto
stroke
newpath
69773 40997.5 moveto
69382.2 40606.7 lineto
stroke
newpath
71727.2 40997.5 moveto
72118 40606.7 lineto
stroke
newpath
72118 40997.5 moveto
71727.2 40606.7 lineto
stroke
newpath
82416.7 78354.1 moveto
82807.5 77963.3 lineto
stroke
newpath
82807.5 78354.1 moveto
82416.7 77963.3 lineto
stroke
newpath
82416.7 76009.1 moveto
82807.5 75618.2 lineto
stroke
newpath
82807.5 76009.1 moveto
82416.7 75618.2 lineto
stroke
newpath
60943.9 75641.7 moveto
61334.7 75250.8 lineto
stroke
newpath
61334.7 75641.7 moveto
60943.9 75250.8 lineto
stroke
newpath
64461.5 75641.7 moveto
64852.3 75250.8 lineto
stroke
newpath
64852.3 75641.7 moveto
64461.5 75250.8 lineto
stroke
newpath
43074.7 75641.7 moveto
43465.5 75250.8 lineto
stroke
newpath
43465.5 75641.7 moveto
43074.7 75250.8 lineto
stroke
newpath
46592.2 75641.7 moveto
46983.1 75250.8 lineto
stroke
newpath
46983.1 75641.7 moveto
46592.2 75250.8 lineto
stroke
newpath
82416.7 57506.7 moveto
82807.5 57115.8 lineto
stroke
newpath
82807.5 57506.7 moveto
82416.7 57115.8 lineto
stroke
newpath
82416.7 55161.6 moveto
82807.5 54770.8 lineto
stroke
newpath
82807.5 55161.6 moveto
82416.7 54770.8 lineto
stroke
newpath
55483.9 40997.5 moveto
55874.7 40606.7 lineto
stroke
newpath
55874.7 40997.5 moveto
55483.9 40606.7 lineto
stroke
newpath
57828.9 40997.5 moveto
58219.7 40606.7 lineto
stroke
newpath
58219.7 40997.5 moveto
57828.9 40606.7 lineto
stroke
newpath
38359.2 40997.5 moveto
38750 40606.7 lineto
stroke
newpath
38750 40997.5 moveto
38359.2 40606.7 lineto
stroke
newpath
40704.2 40997.5 moveto
41095.1 40606.7 lineto
stroke
newpath
41095.1 40997.5 moveto
40704.2 40606.7 lineto
stroke
newpath
52009.3 75641.7 moveto
52400.1 75250.8 lineto
stroke
newpath
52400.1 75641.7 moveto
52009.3 75250.8 lineto
stroke
newpath
55526.9 75641.7 moveto
55917.7 75250.8 lineto
stroke
newpath
55917.7 75641.7 moveto
55526.9 75250.8 lineto
stroke
newpath
82416.7 64455.8 moveto
82807.5 64065 lineto
stroke
newpath
82807.5 64455.8 moveto
82416.7 64065 lineto
stroke
newpath
82416.7 62110.8 moveto
82807.5 61719.9 lineto
stroke
newpath
82807.5 62110.8 moveto
82416.7 61719.9 lineto
stroke
newpath
82416.7 43608.4 moveto
82807.5 43217.5 lineto
stroke
newpath
82807.5 43608.4 moveto
82416.7 43217.5 lineto
stroke
newpath
82416.7 41263.3 moveto
82807.5 40872.5 lineto
stroke
newpath
82807.5 41263.3 moveto
82416.7 40872.5 lineto
stroke
newpath
46369.5 40997.5 moveto
46760.3 40606.7 lineto
stroke
newpath
46760.3 40997.5 moveto
46369.5 40606.7 lineto
stroke
newpath
49887 40997.5 moveto
50277.9 40606.7 lineto
stroke
newpath
50277.9 40997.5 moveto
49887 40606.7 lineto
stroke
newpath
41902.1 40997.5 moveto
42293 40606.7 lineto
stroke
newpath
42293 40997.5 moveto
41902.1 40606.7 lineto
stroke
newpath
45419.7 40997.5 moveto
45810.6 40606.7 lineto
stroke
newpath
45810.6 40997.5 moveto
45419.7 40606.7 lineto
stroke
newpath
82416.7 74879.5 moveto
82807.5 74488.7 lineto
stroke
newpath
82807.5 74879.5 moveto
82416.7 74488.7 lineto
stroke
newpath
82416.7 72534.5 moveto
82807.5 72143.6 lineto
stroke
newpath
82807.5 72534.5 moveto
82416.7 72143.6 lineto
stroke
newpath
50836.8 40997.5 moveto
51227.6 40606.7 lineto
stroke
newpath
51227.6 40997.5 moveto
50836.8 40606.7 lineto
stroke
newpath
54354.3 40997.5 moveto
54745.2 40606.7 lineto
stroke
newpath
54745.2 40997.5 moveto
54354.3 40606.7 lineto
stroke
newpath
28500.2 40997.5 moveto
28891.1 40606.7 lineto
stroke
newpath
28891.1 40997.5 moveto
28500.2 40606.7 lineto
stroke
newpath
32017.8 40997.5 moveto
32408.6 40606.7 lineto
stroke
newpath
32408.6 40997.5 moveto
32017.8 40606.7 lineto
stroke
newpath
89467.5 58995.8 moveto
89858.3 58604.9 lineto
stroke
newpath
89858.3 58995.8 moveto
89467.5 58604.9 lineto
stroke
newpath
89467.5 56650.7 moveto
89858.3 56259.9 lineto
stroke
newpath
89858.3 56650.7 moveto
89467.5 56259.9 lineto
stroke
newpath
29672.7 75641.7 moveto
30063.6 75250.8 lineto
stroke
newpath
30063.6 75641.7 moveto
29672.7 75250.8 lineto
stroke
newpath
33190.3 75641.7 moveto
33581.1 75250.8 lineto
stroke
newpath
33581.1 75641.7 moveto
33190.3 75250.8 lineto
stroke
newpath
56476.6 75641.7 moveto
56867.4 75250.8 lineto
stroke
newpath
56867.4 75641.7 moveto
56476.6 75250.8 lineto
stroke
newpath
59994.2 75641.7 moveto
60385 75250.8 lineto
stroke
newpath
60385 75641.7 moveto
59994.2 75250.8 lineto
stroke
newpath
34140 75641.7 moveto
34530.9 75250.8 lineto
stroke
newpath
34530.9 75641.7 moveto
34140 75250.8 lineto
stroke
newpath
37657.6 75641.7 moveto
38048.5 75250.8 lineto
stroke
newpath
38048.5 75641.7 moveto
37657.6 75250.8 lineto
stroke
newpath
82416.7 54032.1 moveto
82807.5 53641.2 lineto
stroke
newpath
82807.5 54032.1 moveto
82416.7 53641.2 lineto
stroke
newpath
82416.7 51687 moveto
82807.5 51296.2 lineto
stroke
newpath
82807.5 51687 moveto
82416.7 51296.2 lineto
stroke
newpath
82416.7 40133.8 moveto
82807.5 39742.9 lineto
stroke
newpath
82807.5 40133.8 moveto
82416.7 39742.9 lineto
stroke
newpath
82416.7 37788.7 moveto
82807.5 37397.9 lineto
stroke
newpath
82807.5 37788.7 moveto
82416.7 37397.9 lineto
stroke
32033.4 71526.1 625.345 cir0
32529.8 52664.1 625.345 cir0
52384.5 69540.6 625.345 cir0
52384.5 58620.6 625.345 cir0
61815.5 52664.1 625.345 cir0
64297.3 71526.1 625.345 cir0
118.11 setlinewidth
0 0 0 setrgbcolor
0 0 0 setrgbcolor
newpath
26936.9 35175.5 moveto
26936.9 36356.6 lineto
27218.2 36356.6 lineto
27386.9 36300.3 lineto
27499.4 36187.9 lineto
27555.6 36075.4 lineto
27611.9 35850.4 lineto
27611.9 35681.7 lineto
27555.6 35456.7 lineto
27499.4 35344.2 lineto
27386.9 35231.7 lineto
27218.2 35175.5 lineto
26936.9 35175.5 lineto
stroke
newpath
28118 35175.5 moveto
28118 35962.9 lineto
stroke
newpath
28118 35737.9 moveto
28174.3 35850.4 lineto
28230.5 35906.6 lineto
28343 35962.9 lineto
28455.5 35962.9 lineto
stroke
newpath
28849.2 35175.5 moveto
28849.2 35962.9 lineto
stroke
newpath
28849.2 36356.6 moveto
28793 36300.3 lineto
28849.2 36244.1 lineto
28905.4 36300.3 lineto
28849.2 36356.6 lineto
28849.2 36244.1 lineto
stroke
newpath
29580.4 35175.5 moveto
29467.9 35231.7 lineto
29411.6 35344.2 lineto
29411.6 36356.6 lineto
stroke
newpath
30199 35175.5 moveto
30086.5 35231.7 lineto
30030.3 35344.2 lineto
30030.3 36356.6 lineto
stroke
newpath
31548.9 35175.5 moveto
31548.9 36356.6 lineto
31942.6 35512.9 lineto
32336.3 36356.6 lineto
32336.3 35175.5 lineto
stroke
newpath
33404.9 35175.5 moveto
33404.9 35794.2 lineto
33348.6 35906.6 lineto
33236.2 35962.9 lineto
33011.2 35962.9 lineto
32898.7 35906.6 lineto
stroke
newpath
33404.9 35231.7 moveto
33292.4 35175.5 lineto
33011.2 35175.5 lineto
32898.7 35231.7 lineto
32842.5 35344.2 lineto
32842.5 35456.7 lineto
32898.7 35569.2 lineto
33011.2 35625.4 lineto
33292.4 35625.4 lineto
33404.9 35681.7 lineto
stroke
newpath
33967.3 35962.9 moveto
33967.3 34781.8 lineto
stroke
newpath
33967.3 35906.6 moveto
34079.8 35962.9 lineto
34304.8 35962.9 lineto
34417.3 35906.6 lineto
34473.5 35850.4 lineto
34529.7 35737.9 lineto
34529.7 35400.5 lineto
34473.5 35288 lineto
34417.3 35231.7 lineto
34304.8 35175.5 lineto
34079.8 35175.5 lineto
33967.3 35231.7 lineto
stroke
newpath
35035.9 35288 moveto
35092.2 35231.7 lineto
35035.9 35175.5 lineto
34979.7 35231.7 lineto
35035.9 35288 lineto
35035.9 35175.5 lineto
stroke
newpath
35035.9 35906.6 moveto
35092.2 35850.4 lineto
35035.9 35794.2 lineto
34979.7 35850.4 lineto
35035.9 35906.6 lineto
35035.9 35794.2 lineto
stroke
newpath
25418.4 33424.9 moveto
25809.3 33034.1 lineto
stroke
newpath
25809.3 33424.9 moveto
25418.4 33034.1 lineto
stroke
0 0 0 setrgbcolor
0 0 0 setrgbcolor
newpath
27555.6 32695.2 moveto
26880.7 32695.2 lineto
stroke
newpath
27218.2 32695.2 moveto
27218.2 33876.3 lineto
27105.7 33707.5 lineto
26993.2 33595.1 lineto
26880.7 33538.8 lineto
stroke
newpath
28061.8 32807.7 moveto
28118 32751.4 lineto
28061.8 32695.2 lineto
28005.6 32751.4 lineto
28061.8 32807.7 lineto
28061.8 32695.2 lineto
stroke
newpath
28849.2 33876.3 moveto
28961.7 33876.3 lineto
29074.2 33820 lineto
29130.4 33763.8 lineto
29186.7 33651.3 lineto
29242.9 33426.3 lineto
29242.9 33145.1 lineto
29186.7 32920.1 lineto
29130.4 32807.7 lineto
29074.2 32751.4 lineto
28961.7 32695.2 lineto
28849.2 32695.2 lineto
28736.7 32751.4 lineto
28680.5 32807.7 lineto
28624.2 32920.1 lineto
28568 33145.1 lineto
28568 33426.3 lineto
28624.2 33651.3 lineto
28680.5 33763.8 lineto
28736.7 33820 lineto
28849.2 33876.3 lineto
stroke
newpath
29974.1 33876.3 moveto
30086.5 33876.3 lineto
30199 33820 lineto
30255.3 33763.8 lineto
30311.5 33651.3 lineto
30367.8 33426.3 lineto
30367.8 33145.1 lineto
30311.5 32920.1 lineto
30255.3 32807.7 lineto
30199 32751.4 lineto
30086.5 32695.2 lineto
29974.1 32695.2 lineto
29861.6 32751.4 lineto
29805.3 32807.7 lineto
29749.1 32920.1 lineto
29692.8 33145.1 lineto
29692.8 33426.3 lineto
29749.1 33651.3 lineto
29805.3 33763.8 lineto
29861.6 33820 lineto
29974.1 33876.3 lineto
stroke
newpath
30874 32695.2 moveto
30874 33482.6 lineto
stroke
newpath
30874 33370.1 moveto
30930.2 33426.3 lineto
31042.7 33482.6 lineto
31211.4 33482.6 lineto
31323.9 33426.3 lineto
31380.1 33313.8 lineto
31380.1 32695.2 lineto
stroke
newpath
31380.1 33313.8 moveto
31436.4 33426.3 lineto
31548.9 33482.6 lineto
31717.6 33482.6 lineto
31830.1 33426.3 lineto
31886.3 33313.8 lineto
31886.3 32695.2 lineto
stroke
newpath
32448.8 32695.2 moveto
32448.8 33482.6 lineto
stroke
newpath
32448.8 33370.1 moveto
32505 33426.3 lineto
32617.5 33482.6 lineto
32786.2 33482.6 lineto
32898.7 33426.3 lineto
32954.9 33313.8 lineto
32954.9 32695.2 lineto
stroke
newpath
32954.9 33313.8 moveto
33011.2 33426.3 lineto
33123.7 33482.6 lineto
33292.4 33482.6 lineto
33404.9 33426.3 lineto
33461.1 33313.8 lineto
33461.1 32695.2 lineto
stroke
newpath
35767.1 33932.5 moveto
34754.7 32414 lineto
stroke
newpath
37285.6 33876.3 moveto
37398.1 33876.3 lineto
37510.6 33820 lineto
37566.9 33763.8 lineto
37623.1 33651.3 lineto
37679.3 33426.3 lineto
37679.3 33145.1 lineto
37623.1 32920.1 lineto
37566.9 32807.7 lineto
37510.6 32751.4 lineto
37398.1 32695.2 lineto
37285.6 32695.2 lineto
37173.2 32751.4 lineto
37116.9 32807.7 lineto
37060.7 32920.1 lineto
37004.4 33145.1 lineto
37004.4 33426.3 lineto
37060.7 33651.3 lineto
37116.9 33763.8 lineto
37173.2 33820 lineto
37285.6 33876.3 lineto
stroke
newpath
38185.5 32807.7 moveto
38241.8 32751.4 lineto
38185.5 32695.2 lineto
38129.3 32751.4 lineto
38185.5 32807.7 lineto
38185.5 32695.2 lineto
stroke
newpath
38972.9 33876.3 moveto
39085.4 33876.3 lineto
39197.9 33820 lineto
39254.2 33763.8 lineto
39310.4 33651.3 lineto
39366.6 33426.3 lineto
39366.6 33145.1 lineto
39310.4 32920.1 lineto
39254.2 32807.7 lineto
39197.9 32751.4 lineto
39085.4 32695.2 lineto
38972.9 32695.2 lineto
38860.5 32751.4 lineto
38804.2 32807.7 lineto
38748 32920.1 lineto
38691.7 33145.1 lineto
38691.7 33426.3 lineto
38748 33651.3 lineto
38804.2 33763.8 lineto
38860.5 33820 lineto
38972.9 33876.3 lineto
stroke
newpath
39760.3 33876.3 moveto
40491.5 33876.3 lineto
40097.8 33426.3 lineto
40266.5 33426.3 lineto
40379 33370.1 lineto
40435.3 33313.8 lineto
40491.5 33201.4 lineto
40491.5 32920.1 lineto
40435.3 32807.7 lineto
40379 32751.4 lineto
40266.5 32695.2 lineto
39929.1 32695.2 lineto
39816.6 32751.4 lineto
39760.3 32807.7 lineto
stroke
newpath
41053.9 32695.2 moveto
41278.9 32695.2 lineto
41391.4 32751.4 lineto
41447.6 32807.7 lineto
41560.1 32976.4 lineto
41616.4 33201.4 lineto
41616.4 33651.3 lineto
41560.1 33763.8 lineto
41503.9 33820 lineto
41391.4 33876.3 lineto
41166.4 33876.3 lineto
41053.9 33820 lineto
40997.7 33763.8 lineto
40941.4 33651.3 lineto
40941.4 33370.1 lineto
40997.7 33257.6 lineto
41053.9 33201.4 lineto
41166.4 33145.1 lineto
41391.4 33145.1 lineto
41503.9 33201.4 lineto
41560.1 33257.6 lineto
41616.4 33370.1 lineto
stroke
newpath
42066.3 33876.3 moveto
42066.3 33651.3 lineto
stroke
newpath
42516.2 33876.3 moveto
42516.2 33651.3 lineto
stroke
newpath
44259.8 32245.2 moveto
44203.5 32301.5 lineto
44091 32470.2 lineto
44034.8 32582.7 lineto
43978.6 32751.4 lineto
43922.3 33032.6 lineto
43922.3 33257.6 lineto
43978.6 33538.8 lineto
44034.8 33707.5 lineto
44091 33820 lineto
44203.5 33988.8 lineto
44259.8 34045 lineto
stroke
newpath
44597.2 33876.3 moveto
45384.6 33876.3 lineto
44878.4 32695.2 lineto
stroke
newpath
46003.3 33370.1 moveto
45890.8 33426.3 lineto
45834.6 33482.6 lineto
45778.3 33595.1 lineto
45778.3 33651.3 lineto
45834.6 33763.8 lineto
45890.8 33820 lineto
46003.3 33876.3 lineto
46228.3 33876.3 lineto
46340.8 33820 lineto
46397 33763.8 lineto
46453.3 33651.3 lineto
46453.3 33595.1 lineto
46397 33482.6 lineto
46340.8 33426.3 lineto
46228.3 33370.1 lineto
46003.3 33370.1 lineto
45890.8 33313.8 lineto
45834.6 33257.6 lineto
45778.3 33145.1 lineto
45778.3 32920.1 lineto
45834.6 32807.7 lineto
45890.8 32751.4 lineto
46003.3 32695.2 lineto
46228.3 32695.2 lineto
46340.8 32751.4 lineto
46397 32807.7 lineto
46453.3 32920.1 lineto
46453.3 33145.1 lineto
46397 33257.6 lineto
46340.8 33313.8 lineto
46228.3 33370.1 lineto
stroke
newpath
47859.3 32695.2 moveto
47859.3 33876.3 lineto
stroke
newpath
48365.5 32695.2 moveto
48365.5 33313.8 lineto
48309.3 33426.3 lineto
48196.8 33482.6 lineto
48028.1 33482.6 lineto
47915.6 33426.3 lineto
47859.3 33370.1 lineto
stroke
newpath
49096.7 32695.2 moveto
48984.2 32751.4 lineto
48927.9 32807.7 lineto
48871.7 32920.1 lineto
48871.7 33257.6 lineto
48927.9 33370.1 lineto
48984.2 33426.3 lineto
49096.7 33482.6 lineto
49265.4 33482.6 lineto
49377.9 33426.3 lineto
49434.1 33370.1 lineto
49490.4 33257.6 lineto
49490.4 32920.1 lineto
49434.1 32807.7 lineto
49377.9 32751.4 lineto
49265.4 32695.2 lineto
49096.7 32695.2 lineto
stroke
newpath
50165.3 32695.2 moveto
50052.8 32751.4 lineto
49996.6 32863.9 lineto
49996.6 33876.3 lineto
stroke
newpath
51065.2 32751.4 moveto
50952.7 32695.2 lineto
50727.7 32695.2 lineto
50615.2 32751.4 lineto
50559 32863.9 lineto
50559 33313.8 lineto
50615.2 33426.3 lineto
50727.7 33482.6 lineto
50952.7 33482.6 lineto
51065.2 33426.3 lineto
51121.4 33313.8 lineto
51121.4 33201.4 lineto
50559 33088.9 lineto
stroke
newpath
51571.4 32751.4 moveto
51683.8 32695.2 lineto
51908.8 32695.2 lineto
52021.3 32751.4 lineto
52077.5 32863.9 lineto
52077.5 32920.1 lineto
52021.3 33032.6 lineto
51908.8 33088.9 lineto
51740.1 33088.9 lineto
51627.6 33145.1 lineto
51571.4 33257.6 lineto
51571.4 33313.8 lineto
51627.6 33426.3 lineto
51740.1 33482.6 lineto
51908.8 33482.6 lineto
52021.3 33426.3 lineto
stroke
newpath
52471.2 32245.2 moveto
52527.5 32301.5 lineto
52640 32470.2 lineto
52696.2 32582.7 lineto
52752.5 32751.4 lineto
52808.7 33032.6 lineto
52808.7 33257.6 lineto
52752.5 33538.8 lineto
52696.2 33707.5 lineto
52640 33820 lineto
52527.5 33988.8 lineto
52471.2 34045 lineto
stroke
newpath
54608.5 32245.2 moveto
54552.2 32301.5 lineto
54439.8 32470.2 lineto
54383.5 32582.7 lineto
54327.3 32751.4 lineto
54271 33032.6 lineto
54271 33257.6 lineto
54327.3 33538.8 lineto
54383.5 33707.5 lineto
54439.8 33820 lineto
54552.2 33988.8 lineto
54608.5 34045 lineto
stroke
newpath
55058.4 33482.6 moveto
55058.4 32695.2 lineto
stroke
newpath
55058.4 33370.1 moveto
55114.7 33426.3 lineto
55227.2 33482.6 lineto
55395.9 33482.6 lineto
55508.4 33426.3 lineto
55564.6 33313.8 lineto
55564.6 32695.2 lineto
stroke
newpath
56295.8 32695.2 moveto
56183.3 32751.4 lineto
56127 32807.7 lineto
56070.8 32920.1 lineto
56070.8 33257.6 lineto
56127 33370.1 lineto
56183.3 33426.3 lineto
56295.8 33482.6 lineto
56464.5 33482.6 lineto
56577 33426.3 lineto
56633.2 33370.1 lineto
56689.5 33257.6 lineto
56689.5 32920.1 lineto
56633.2 32807.7 lineto
56577 32751.4 lineto
56464.5 32695.2 lineto
56295.8 32695.2 lineto
stroke
newpath
57026.9 33482.6 moveto
57476.9 33482.6 lineto
stroke
newpath
57195.7 33876.3 moveto
57195.7 32863.9 lineto
57251.9 32751.4 lineto
57364.4 32695.2 lineto
57476.9 32695.2 lineto
stroke
newpath
58770.5 33482.6 moveto
58770.5 32301.5 lineto
stroke
newpath
58770.5 33426.3 moveto
58882.9 33482.6 lineto
59107.9 33482.6 lineto
59220.4 33426.3 lineto
59276.6 33370.1 lineto
59332.9 33257.6 lineto
59332.9 32920.1 lineto
59276.6 32807.7 lineto
59220.4 32751.4 lineto
59107.9 32695.2 lineto
58882.9 32695.2 lineto
58770.5 32751.4 lineto
stroke
newpath
60007.8 32695.2 moveto
59895.3 32751.4 lineto
59839.1 32863.9 lineto
59839.1 33876.3 lineto
stroke
newpath
60963.9 32695.2 moveto
60963.9 33313.8 lineto
60907.7 33426.3 lineto
60795.2 33482.6 lineto
60570.2 33482.6 lineto
60457.7 33426.3 lineto
stroke
newpath
60963.9 32751.4 moveto
60851.4 32695.2 lineto
60570.2 32695.2 lineto
60457.7 32751.4 lineto
60401.5 32863.9 lineto
60401.5 32976.4 lineto
60457.7 33088.9 lineto
60570.2 33145.1 lineto
60851.4 33145.1 lineto
60963.9 33201.4 lineto
stroke
newpath
61357.6 33482.6 moveto
61807.6 33482.6 lineto
stroke
newpath
61526.4 33876.3 moveto
61526.4 32863.9 lineto
61582.6 32751.4 lineto
61695.1 32695.2 lineto
61807.6 32695.2 lineto
stroke
newpath
62651.2 32751.4 moveto
62538.7 32695.2 lineto
62313.8 32695.2 lineto
62201.3 32751.4 lineto
62145 32863.9 lineto
62145 33313.8 lineto
62201.3 33426.3 lineto
62313.8 33482.6 lineto
62538.7 33482.6 lineto
62651.2 33426.3 lineto
62707.5 33313.8 lineto
62707.5 33201.4 lineto
62145 33088.9 lineto
stroke
newpath
63719.8 32695.2 moveto
63719.8 33876.3 lineto
stroke
newpath
63719.8 32751.4 moveto
63607.4 32695.2 lineto
63382.4 32695.2 lineto
63269.9 32751.4 lineto
63213.7 32807.7 lineto
63157.4 32920.1 lineto
63157.4 33257.6 lineto
63213.7 33370.1 lineto
63269.9 33426.3 lineto
63382.4 33482.6 lineto
63607.4 33482.6 lineto
63719.8 33426.3 lineto
stroke
newpath
64169.8 32245.2 moveto
64226 32301.5 lineto
64338.5 32470.2 lineto
64394.8 32582.7 lineto
64451 32751.4 lineto
64507.2 33032.6 lineto
64507.2 33257.6 lineto
64451 33538.8 lineto
64394.8 33707.5 lineto
64338.5 33820 lineto
64226 33988.8 lineto
64169.8 34045 lineto
stroke
25183.9 31670.4 625.345 cir0
0 0 0 setrgbcolor
0 0 0 setrgbcolor
newpath
26824.5 32317.2 moveto
27555.6 32317.2 lineto
27161.9 31867.3 lineto
27330.6 31867.3 lineto
27443.1 31811 lineto
27499.4 31754.8 lineto
27555.6 31642.3 lineto
27555.6 31361.1 lineto
27499.4 31248.6 lineto
27443.1 31192.4 lineto
27330.6 31136.1 lineto
26993.2 31136.1 lineto
26880.7 31192.4 lineto
26824.5 31248.6 lineto
stroke
newpath
28061.8 31248.6 moveto
28118 31192.4 lineto
28061.8 31136.1 lineto
28005.6 31192.4 lineto
28061.8 31248.6 lineto
28061.8 31136.1 lineto
stroke
newpath
28568 32204.7 moveto
28624.2 32261 lineto
28736.7 32317.2 lineto
29017.9 32317.2 lineto
29130.4 32261 lineto
29186.7 32204.7 lineto
29242.9 32092.2 lineto
29242.9 31979.8 lineto
29186.7 31811 lineto
28511.7 31136.1 lineto
29242.9 31136.1 lineto
stroke
newpath
29974.1 32317.2 moveto
30086.5 32317.2 lineto
30199 32261 lineto
30255.3 32204.7 lineto
30311.5 32092.2 lineto
30367.8 31867.3 lineto
30367.8 31586.1 lineto
30311.5 31361.1 lineto
30255.3 31248.6 lineto
30199 31192.4 lineto
30086.5 31136.1 lineto
29974.1 31136.1 lineto
29861.6 31192.4 lineto
29805.3 31248.6 lineto
29749.1 31361.1 lineto
29692.8 31586.1 lineto
29692.8 31867.3 lineto
29749.1 32092.2 lineto
29805.3 32204.7 lineto
29861.6 32261 lineto
29974.1 32317.2 lineto
stroke
newpath
30874 31136.1 moveto
30874 31923.5 lineto
stroke
newpath
30874 31811 moveto
30930.2 31867.3 lineto
31042.7 31923.5 lineto
31211.4 31923.5 lineto
31323.9 31867.3 lineto
31380.1 31754.8 lineto
31380.1 31136.1 lineto
stroke
newpath
31380.1 31754.8 moveto
31436.4 31867.3 lineto
31548.9 31923.5 lineto
31717.6 31923.5 lineto
31830.1 31867.3 lineto
31886.3 31754.8 lineto
31886.3 31136.1 lineto
stroke
newpath
32448.8 31136.1 moveto
32448.8 31923.5 lineto
stroke
newpath
32448.8 31811 moveto
32505 31867.3 lineto
32617.5 31923.5 lineto
32786.2 31923.5 lineto
32898.7 31867.3 lineto
32954.9 31754.8 lineto
32954.9 31136.1 lineto
stroke
newpath
32954.9 31754.8 moveto
33011.2 31867.3 lineto
33123.7 31923.5 lineto
33292.4 31923.5 lineto
33404.9 31867.3 lineto
33461.1 31754.8 lineto
33461.1 31136.1 lineto
stroke
newpath
35767.1 32373.5 moveto
34754.7 30854.9 lineto
stroke
newpath
37285.6 32317.2 moveto
37398.1 32317.2 lineto
37510.6 32261 lineto
37566.9 32204.7 lineto
37623.1 32092.2 lineto
37679.3 31867.3 lineto
37679.3 31586.1 lineto
37623.1 31361.1 lineto
37566.9 31248.6 lineto
37510.6 31192.4 lineto
37398.1 31136.1 lineto
37285.6 31136.1 lineto
37173.2 31192.4 lineto
37116.9 31248.6 lineto
37060.7 31361.1 lineto
37004.4 31586.1 lineto
37004.4 31867.3 lineto
37060.7 32092.2 lineto
37116.9 32204.7 lineto
37173.2 32261 lineto
37285.6 32317.2 lineto
stroke
newpath
38185.5 31248.6 moveto
38241.8 31192.4 lineto
38185.5 31136.1 lineto
38129.3 31192.4 lineto
38185.5 31248.6 lineto
38185.5 31136.1 lineto
stroke
newpath
39366.6 31136.1 moveto
38691.7 31136.1 lineto
stroke
newpath
39029.2 31136.1 moveto
39029.2 32317.2 lineto
38916.7 32148.5 lineto
38804.2 32036 lineto
38691.7 31979.8 lineto
stroke
newpath
39816.6 32204.7 moveto
39872.8 32261 lineto
39985.3 32317.2 lineto
40266.5 32317.2 lineto
40379 32261 lineto
40435.3 32204.7 lineto
40491.5 32092.2 lineto
40491.5 31979.8 lineto
40435.3 31811 lineto
39760.3 31136.1 lineto
40491.5 31136.1 lineto
stroke
newpath
41503.9 32317.2 moveto
41278.9 32317.2 lineto
41166.4 32261 lineto
41110.2 32204.7 lineto
40997.7 32036 lineto
40941.4 31811 lineto
40941.4 31361.1 lineto
40997.7 31248.6 lineto
41053.9 31192.4 lineto
41166.4 31136.1 lineto
41391.4 31136.1 lineto
41503.9 31192.4 lineto
41560.1 31248.6 lineto
41616.4 31361.1 lineto
41616.4 31642.3 lineto
41560.1 31754.8 lineto
41503.9 31811 lineto
41391.4 31867.3 lineto
41166.4 31867.3 lineto
41053.9 31811 lineto
40997.7 31754.8 lineto
40941.4 31642.3 lineto
stroke
newpath
42066.3 32317.2 moveto
42066.3 32092.2 lineto
stroke
newpath
42516.2 32317.2 moveto
42516.2 32092.2 lineto
stroke
newpath
44259.8 30686.2 moveto
44203.5 30742.4 lineto
44091 30911.1 lineto
44034.8 31023.6 lineto
43978.6 31192.4 lineto
43922.3 31473.6 lineto
43922.3 31698.5 lineto
43978.6 31979.8 lineto
44034.8 32148.5 lineto
44091 32261 lineto
44203.5 32429.7 lineto
44259.8 32485.9 lineto
stroke
newpath
45215.9 32317.2 moveto
44990.9 32317.2 lineto
44878.4 32261 lineto
44822.2 32204.7 lineto
44709.7 32036 lineto
44653.5 31811 lineto
44653.5 31361.1 lineto
44709.7 31248.6 lineto
44766 31192.4 lineto
44878.4 31136.1 lineto
45103.4 31136.1 lineto
45215.9 31192.4 lineto
45272.1 31248.6 lineto
45328.4 31361.1 lineto
45328.4 31642.3 lineto
45272.1 31754.8 lineto
45215.9 31811 lineto
45103.4 31867.3 lineto
44878.4 31867.3 lineto
44766 31811 lineto
44709.7 31754.8 lineto
44653.5 31642.3 lineto
stroke
newpath
46734.5 31136.1 moveto
46734.5 32317.2 lineto
stroke
newpath
47240.7 31136.1 moveto
47240.7 31754.8 lineto
47184.4 31867.3 lineto
47071.9 31923.5 lineto
46903.2 31923.5 lineto
46790.7 31867.3 lineto
46734.5 31811 lineto
stroke
newpath
47971.8 31136.1 moveto
47859.3 31192.4 lineto
47803.1 31248.6 lineto
47746.8 31361.1 lineto
47746.8 31698.5 lineto
47803.1 31811 lineto
47859.3 31867.3 lineto
47971.8 31923.5 lineto
48140.5 31923.5 lineto
48253 31867.3 lineto
48309.3 31811 lineto
48365.5 31698.5 lineto
48365.5 31361.1 lineto
48309.3 31248.6 lineto
48253 31192.4 lineto
48140.5 31136.1 lineto
47971.8 31136.1 lineto
stroke
newpath
49040.4 31136.1 moveto
48927.9 31192.4 lineto
48871.7 31304.8 lineto
48871.7 32317.2 lineto
stroke
newpath
49940.3 31192.4 moveto
49827.8 31136.1 lineto
49602.9 31136.1 lineto
49490.4 31192.4 lineto
49434.1 31304.8 lineto
49434.1 31754.8 lineto
49490.4 31867.3 lineto
49602.9 31923.5 lineto
49827.8 31923.5 lineto
49940.3 31867.3 lineto
49996.6 31754.8 lineto
49996.6 31642.3 lineto
49434.1 31529.8 lineto
stroke
newpath
50446.5 31192.4 moveto
50559 31136.1 lineto
50784 31136.1 lineto
50896.4 31192.4 lineto
50952.7 31304.8 lineto
50952.7 31361.1 lineto
50896.4 31473.6 lineto
50784 31529.8 lineto
50615.2 31529.8 lineto
50502.7 31586.1 lineto
50446.5 31698.5 lineto
50446.5 31754.8 lineto
50502.7 31867.3 lineto
50615.2 31923.5 lineto
50784 31923.5 lineto
50896.4 31867.3 lineto
stroke
newpath
51346.4 30686.2 moveto
51402.6 30742.4 lineto
51515.1 30911.1 lineto
51571.4 31023.6 lineto
51627.6 31192.4 lineto
51683.8 31473.6 lineto
51683.8 31698.5 lineto
51627.6 31979.8 lineto
51571.4 32148.5 lineto
51515.1 32261 lineto
51402.6 32429.7 lineto
51346.4 32485.9 lineto
stroke
newpath
53483.6 30686.2 moveto
53427.4 30742.4 lineto
53314.9 30911.1 lineto
53258.6 31023.6 lineto
53202.4 31192.4 lineto
53146.2 31473.6 lineto
53146.2 31698.5 lineto
53202.4 31979.8 lineto
53258.6 32148.5 lineto
53314.9 32261 lineto
53427.4 32429.7 lineto
53483.6 32485.9 lineto
stroke
newpath
53933.6 31923.5 moveto
53933.6 31136.1 lineto
stroke
newpath
53933.6 31811 moveto
53989.8 31867.3 lineto
54102.3 31923.5 lineto
54271 31923.5 lineto
54383.5 31867.3 lineto
54439.8 31754.8 lineto
54439.8 31136.1 lineto
stroke
newpath
55170.9 31136.1 moveto
55058.4 31192.4 lineto
55002.2 31248.6 lineto
54945.9 31361.1 lineto
54945.9 31698.5 lineto
55002.2 31811 lineto
55058.4 31867.3 lineto
55170.9 31923.5 lineto
55339.6 31923.5 lineto
55452.1 31867.3 lineto
55508.4 31811 lineto
55564.6 31698.5 lineto
55564.6 31361.1 lineto
55508.4 31248.6 lineto
55452.1 31192.4 lineto
55339.6 31136.1 lineto
55170.9 31136.1 lineto
stroke
newpath
55902.1 31923.5 moveto
56352 31923.5 lineto
stroke
newpath
56070.8 32317.2 moveto
56070.8 31304.8 lineto
56127 31192.4 lineto
56239.5 31136.1 lineto
56352 31136.1 lineto
stroke
newpath
57645.6 31923.5 moveto
57645.6 30742.4 lineto
stroke
newpath
57645.6 31867.3 moveto
57758.1 31923.5 lineto
57983.1 31923.5 lineto
58095.5 31867.3 lineto
58151.8 31811 lineto
58208 31698.5 lineto
58208 31361.1 lineto
58151.8 31248.6 lineto
58095.5 31192.4 lineto
57983.1 31136.1 lineto
57758.1 31136.1 lineto
57645.6 31192.4 lineto
stroke
newpath
58882.9 31136.1 moveto
58770.5 31192.4 lineto
58714.2 31304.8 lineto
58714.2 32317.2 lineto
stroke
newpath
59839.1 31136.1 moveto
59839.1 31754.8 lineto
59782.8 31867.3 lineto
59670.3 31923.5 lineto
59445.4 31923.5 lineto
59332.9 31867.3 lineto
stroke
newpath
59839.1 31192.4 moveto
59726.6 31136.1 lineto
59445.4 31136.1 lineto
59332.9 31192.4 lineto
59276.6 31304.8 lineto
59276.6 31417.3 lineto
59332.9 31529.8 lineto
59445.4 31586.1 lineto
59726.6 31586.1 lineto
59839.1 31642.3 lineto
stroke
newpath
60232.8 31923.5 moveto
60682.7 31923.5 lineto
stroke
newpath
60401.5 32317.2 moveto
60401.5 31304.8 lineto
60457.7 31192.4 lineto
60570.2 31136.1 lineto
60682.7 31136.1 lineto
stroke
newpath
61526.4 31192.4 moveto
61413.9 31136.1 lineto
61188.9 31136.1 lineto
61076.4 31192.4 lineto
61020.2 31304.8 lineto
61020.2 31754.8 lineto
61076.4 31867.3 lineto
61188.9 31923.5 lineto
61413.9 31923.5 lineto
61526.4 31867.3 lineto
61582.6 31754.8 lineto
61582.6 31642.3 lineto
61020.2 31529.8 lineto
stroke
newpath
62595 31136.1 moveto
62595 32317.2 lineto
stroke
newpath
62595 31192.4 moveto
62482.5 31136.1 lineto
62257.5 31136.1 lineto
62145 31192.4 lineto
62088.8 31248.6 lineto
62032.6 31361.1 lineto
62032.6 31698.5 lineto
62088.8 31811 lineto
62145 31867.3 lineto
62257.5 31923.5 lineto
62482.5 31923.5 lineto
62595 31867.3 lineto
stroke
newpath
63044.9 30686.2 moveto
63101.2 30742.4 lineto
63213.7 30911.1 lineto
63269.9 31023.6 lineto
63326.1 31192.4 lineto
63382.4 31473.6 lineto
63382.4 31698.5 lineto
63326.1 31979.8 lineto
63269.9 32148.5 lineto
63213.7 32261 lineto
63101.2 32429.7 lineto
63044.9 32485.9 lineto
stroke
showpage
grestore
%%EOF
